"x"
"1" "SRR1780165.final.bed"
"2" "SRR1780175.final.bed"
"3" "SRR1779645.final.bed"
"4" "SRR1779626.final.bed"
"5" "SRR1780167.final.bed"
"6" "SRR1779653.final.bed"
"7" "SRR1779671.final.bed"
"8" "SRR1779642.final.bed"
"9" "SRR1779666.final.bed"
"10" "SRR1779628.final.bed"
"11" "SRR1779659.final.bed"
"12" "SRR1780163.final.bed"
"13" "SRR1779625.final.bed"
"14" "SRR1780179.final.bed"
"15" "SRR1779627.final.bed"
"16" "SRR1779632.final.bed"
"17" "SRR1780189.final.bed"
"18" "SRR1780199.final.bed"
"19" "SRR1779678.final.bed"
"20" "SRR1779667.final.bed"
"21" "SRR1779658.final.bed"
"22" "SRR1779654.final.bed"
"23" "SRR1779637.final.bed"
"24" "SRR1779639.final.bed"
"25" "SRR1779649.final.bed"
"26" "SRR1779646.final.bed"
"27" "SRR1780197.final.bed"
"28" "SRR1779682.final.bed"
"29" "SRR1779640.final.bed"
"30" "SRR1780169.final.bed"
"31" "SRR1779673.final.bed"
"32" "SRR1779650.final.bed"
"33" "SRR1779633.final.bed"
"34" "SRR1779638.final.bed"
"35" "SRR1779663.final.bed"
"36" "SRR1779669.final.bed"
"37" "SRR1779655.final.bed"
"38" "SRR1780205.final.bed"
"39" "SRR1779656.final.bed"
"40" "SRR1780183.final.bed"
"41" "SRR1780171.final.bed"
"42" "SRR1779629.final.bed"
"43" "SRR1779648.final.bed"
"44" "SRR1779672.final.bed"
"45" "SRR1779675.final.bed"
"46" "SRR1779652.final.bed"
"47" "SRR1780187.final.bed"
"48" "SRR1779670.final.bed"
"49" "SRR1779660.final.bed"
"50" "SRR1780181.final.bed"
"51" "SRR1779634.final.bed"
"52" "SRR1779635.final.bed"
"53" "SRR1780195.final.bed"
"54" "SRR1780191.final.bed"
"55" "SRR1779664.final.bed"
"56" "SRR1779651.final.bed"
"57" "SRR1779680.final.bed"
"58" "SRR1779641.final.bed"
"59" "SRR1780209.final.bed"
"60" "SRR1779643.final.bed"
"61" "SRR1779662.final.bed"
"62" "SRR1779668.final.bed"
"63" "SRR1780185.final.bed"
"64" "SRR1780173.final.bed"
"65" "SRR1780203.final.bed"
"66" "SRR1779676.final.bed"
"67" "SRR1780207.final.bed"
"68" "SRR1779681.final.bed"
"69" "SRR1779644.final.bed"
"70" "SRR1780177.final.bed"
"71" "SRR1779665.final.bed"
"72" "SRR1779661.final.bed"
"73" "SRR1780201.final.bed"
"74" "SRR1779647.final.bed"
"75" "SRR1779677.final.bed"
"76" "SRR1779630.final.bed"
"77" "SRR1779674.final.bed"
"78" "SRR1779636.final.bed"
"79" "SRR1780193.final.bed"
"80" "SRR1779657.final.bed"
"81" "SRR1779631.final.bed"
"82" "SRR1779679.final.bed"
