13173	BJ-samples-01_peaks.narrowPeak
19634	BJ-samples-02_peaks.narrowPeak
28847	BJ-samples-03_peaks.narrowPeak
35868	BJ-samples-04_peaks.narrowPeak
37265	BJ-samples-05_peaks.narrowPeak
37653	BJ-samples-06_peaks.narrowPeak
43239	BJ-samples-07_peaks.narrowPeak
48622	BJ-samples-08_peaks.narrowPeak
62274	BJ-samples-09_peaks.narrowPeak
70433	BJ-samples-10_peaks.narrowPeak
70562	BJ-samples-11_peaks.narrowPeak
75349	BJ-samples-12_peaks.narrowPeak
75741	BJ-samples-13_peaks.narrowPeak
59402	BJ-samples-14_peaks.narrowPeak
63588	BJ-samples-15_peaks.narrowPeak
64882	BJ-samples-16_peaks.narrowPeak
70502	BJ-samples-17_peaks.narrowPeak
73281	BJ-samples-18_peaks.narrowPeak
81264	BJ-samples-19_peaks.narrowPeak
81303	BJ-samples-20_peaks.narrowPeak
86762	BJ-samples-21_peaks.narrowPeak
88372	BJ-samples-22_peaks.narrowPeak
94596	BJ-samples-23_peaks.narrowPeak
94639	BJ-samples-24_peaks.narrowPeak
97392	BJ-samples-25_peaks.narrowPeak
102708	BJ-samples-26_peaks.narrowPeak
102821	BJ-samples-27_peaks.narrowPeak
106271	BJ-samples-28_peaks.narrowPeak
111606	BJ-samples-29_peaks.narrowPeak
116717	BJ-samples-30_peaks.narrowPeak
119681	BJ-samples-31_peaks.narrowPeak
123146	BJ-samples-32_peaks.narrowPeak
123193	BJ-samples-33_peaks.narrowPeak
125595	BJ-samples-34_peaks.narrowPeak
127418	BJ-samples-35_peaks.narrowPeak
127463	BJ-samples-36_peaks.narrowPeak
129804	BJ-samples-37_peaks.narrowPeak
134760	BJ-samples-38_peaks.narrowPeak
136022	BJ-samples-39_peaks.narrowPeak
139374	BJ-samples-40_peaks.narrowPeak
139455	BJ-samples-41_peaks.narrowPeak
139520	BJ-samples-42_peaks.narrowPeak
145116	BJ-samples-43_peaks.narrowPeak
147164	BJ-samples-44_peaks.narrowPeak
149854	BJ-samples-45_peaks.narrowPeak
152365	BJ-samples-46_peaks.narrowPeak
156338	BJ-samples-47_peaks.narrowPeak
156415	BJ-samples-48_peaks.narrowPeak
161116	BJ-samples-49_peaks.narrowPeak
164509	BJ-samples-50_peaks.narrowPeak
167139	BJ-samples-51_peaks.narrowPeak
168906	BJ-samples-52_peaks.narrowPeak
170354	BJ-samples-53_peaks.narrowPeak
171785	BJ-samples-54_peaks.narrowPeak
173808	BJ-samples-55_peaks.narrowPeak
175446	BJ-samples-56_peaks.narrowPeak
177298	BJ-samples-57_peaks.narrowPeak
179128	BJ-samples-58_peaks.narrowPeak
183386	BJ-samples-59_peaks.narrowPeak
186394	BJ-samples-60_peaks.narrowPeak
190425	BJ-samples-61_peaks.narrowPeak
198166	BJ-samples-62_peaks.narrowPeak
200996	BJ-samples-63_peaks.narrowPeak
202719	BJ-samples-64_peaks.narrowPeak
204927	BJ-samples-65_peaks.narrowPeak
206844	BJ-samples-66_peaks.narrowPeak
207707	BJ-samples-67_peaks.narrowPeak
207749	BJ-samples-68_peaks.narrowPeak
207809	BJ-samples-69_peaks.narrowPeak
212440	BJ-samples-70_peaks.narrowPeak
212504	BJ-samples-71_peaks.narrowPeak
215047	BJ-samples-72_peaks.narrowPeak
216401	BJ-samples-73_peaks.narrowPeak
8204	gm12878-samples-01_peaks.narrowPeak
15078	gm12878-samples-02_peaks.narrowPeak
23608	gm12878-samples-03_peaks.narrowPeak
152362	gm12878-samples-04_peaks.narrowPeak
153614	gm12878-samples-05_peaks.narrowPeak
156470	gm12878-samples-06_peaks.narrowPeak
56006	gm12878-samples-07_peaks.narrowPeak
56359	gm12878-samples-08_peaks.narrowPeak
56489	gm12878-samples-09_peaks.narrowPeak
520404	gm12878-samples-100_peaks.narrowPeak
521230	gm12878-samples-101_peaks.narrowPeak
522440	gm12878-samples-102_peaks.narrowPeak
524865	gm12878-samples-103_peaks.narrowPeak
526323	gm12878-samples-104_peaks.narrowPeak
529093	gm12878-samples-105_peaks.narrowPeak
530868	gm12878-samples-106_peaks.narrowPeak
532085	gm12878-samples-107_peaks.narrowPeak
536017	gm12878-samples-108_peaks.narrowPeak
552939	gm12878-samples-109_peaks.narrowPeak
61058	gm12878-samples-10_peaks.narrowPeak
553384	gm12878-samples-110_peaks.narrowPeak
554325	gm12878-samples-111_peaks.narrowPeak
558513	gm12878-samples-112_peaks.narrowPeak
562701	gm12878-samples-113_peaks.narrowPeak
563390	gm12878-samples-114_peaks.narrowPeak
565486	gm12878-samples-115_peaks.narrowPeak
569313	gm12878-samples-116_peaks.narrowPeak
575918	gm12878-samples-117_peaks.narrowPeak
609565	gm12878-samples-118_peaks.narrowPeak
610917	gm12878-samples-119_peaks.narrowPeak
65915	gm12878-samples-11_peaks.narrowPeak
615019	gm12878-samples-120_peaks.narrowPeak
618754	gm12878-samples-121_peaks.narrowPeak
619697	gm12878-samples-122_peaks.narrowPeak
629345	gm12878-samples-123_peaks.narrowPeak
629923	gm12878-samples-124_peaks.narrowPeak
631181	gm12878-samples-125_peaks.narrowPeak
632425	gm12878-samples-126_peaks.narrowPeak
633110	gm12878-samples-127_peaks.narrowPeak
633996	gm12878-samples-128_peaks.narrowPeak
637917	gm12878-samples-129_peaks.narrowPeak
71415	gm12878-samples-12_peaks.narrowPeak
638094	gm12878-samples-130_peaks.narrowPeak
638836	gm12878-samples-131_peaks.narrowPeak
643647	gm12878-samples-132_peaks.narrowPeak
647455	gm12878-samples-133_peaks.narrowPeak
653160	gm12878-samples-134_peaks.narrowPeak
654371	gm12878-samples-135_peaks.narrowPeak
657140	gm12878-samples-136_peaks.narrowPeak
661624	gm12878-samples-137_peaks.narrowPeak
662228	gm12878-samples-138_peaks.narrowPeak
662793	gm12878-samples-139_peaks.narrowPeak
83045	gm12878-samples-13_peaks.narrowPeak
664817	gm12878-samples-140_peaks.narrowPeak
666855	gm12878-samples-141_peaks.narrowPeak
669463	gm12878-samples-142_peaks.narrowPeak
671339	gm12878-samples-143_peaks.narrowPeak
677141	gm12878-samples-144_peaks.narrowPeak
679214	gm12878-samples-145_peaks.narrowPeak
680464	gm12878-samples-146_peaks.narrowPeak
488768	gm12878-samples-147_peaks.narrowPeak
493124	gm12878-samples-148_peaks.narrowPeak
496276	gm12878-samples-149_peaks.narrowPeak
87568	gm12878-samples-14_peaks.narrowPeak
498023	gm12878-samples-150_peaks.narrowPeak
499791	gm12878-samples-151_peaks.narrowPeak
506713	gm12878-samples-152_peaks.narrowPeak
507863	gm12878-samples-153_peaks.narrowPeak
512115	gm12878-samples-154_peaks.narrowPeak
513942	gm12878-samples-155_peaks.narrowPeak
517417	gm12878-samples-156_peaks.narrowPeak
518639	gm12878-samples-157_peaks.narrowPeak
520770	gm12878-samples-158_peaks.narrowPeak
523833	gm12878-samples-159_peaks.narrowPeak
90445	gm12878-samples-15_peaks.narrowPeak
523980	gm12878-samples-160_peaks.narrowPeak
524126	gm12878-samples-161_peaks.narrowPeak
524812	gm12878-samples-162_peaks.narrowPeak
524991	gm12878-samples-163_peaks.narrowPeak
525120	gm12878-samples-164_peaks.narrowPeak
527553	gm12878-samples-165_peaks.narrowPeak
529333	gm12878-samples-166_peaks.narrowPeak
531454	gm12878-samples-167_peaks.narrowPeak
531676	gm12878-samples-168_peaks.narrowPeak
533912	gm12878-samples-169_peaks.narrowPeak
97641	gm12878-samples-16_peaks.narrowPeak
535152	gm12878-samples-170_peaks.narrowPeak
535292	gm12878-samples-171_peaks.narrowPeak
536844	gm12878-samples-172_peaks.narrowPeak
537107	gm12878-samples-173_peaks.narrowPeak
538346	gm12878-samples-174_peaks.narrowPeak
539235	gm12878-samples-175_peaks.narrowPeak
539990	gm12878-samples-176_peaks.narrowPeak
540130	gm12878-samples-177_peaks.narrowPeak
543425	gm12878-samples-178_peaks.narrowPeak
544162	gm12878-samples-179_peaks.narrowPeak
100902	gm12878-samples-17_peaks.narrowPeak
546504	gm12878-samples-180_peaks.narrowPeak
546731	gm12878-samples-181_peaks.narrowPeak
548727	gm12878-samples-182_peaks.narrowPeak
551123	gm12878-samples-183_peaks.narrowPeak
554271	gm12878-samples-184_peaks.narrowPeak
556454	gm12878-samples-185_peaks.narrowPeak
559453	gm12878-samples-186_peaks.narrowPeak
564989	gm12878-samples-187_peaks.narrowPeak
569895	gm12878-samples-188_peaks.narrowPeak
570173	gm12878-samples-189_peaks.narrowPeak
102844	gm12878-samples-18_peaks.narrowPeak
587170	gm12878-samples-190_peaks.narrowPeak
589501	gm12878-samples-191_peaks.narrowPeak
593674	gm12878-samples-192_peaks.narrowPeak
598618	gm12878-samples-193_peaks.narrowPeak
601923	gm12878-samples-194_peaks.narrowPeak
602475	gm12878-samples-195_peaks.narrowPeak
603023	gm12878-samples-196_peaks.narrowPeak
605285	gm12878-samples-197_peaks.narrowPeak
606449	gm12878-samples-198_peaks.narrowPeak
606449	gm12878-samples-199_peaks.narrowPeak
104914	gm12878-samples-19_peaks.narrowPeak
610451	gm12878-samples-200_peaks.narrowPeak
104964	gm12878-samples-20_peaks.narrowPeak
107147	gm12878-samples-21_peaks.narrowPeak
109457	gm12878-samples-22_peaks.narrowPeak
112011	gm12878-samples-23_peaks.narrowPeak
114978	gm12878-samples-24_peaks.narrowPeak
119308	gm12878-samples-25_peaks.narrowPeak
129246	gm12878-samples-26_peaks.narrowPeak
134477	gm12878-samples-27_peaks.narrowPeak
136351	gm12878-samples-28_peaks.narrowPeak
142122	gm12878-samples-29_peaks.narrowPeak
145964	gm12878-samples-30_peaks.narrowPeak
148472	gm12878-samples-31_peaks.narrowPeak
150181	gm12878-samples-32_peaks.narrowPeak
151905	gm12878-samples-33_peaks.narrowPeak
153387	gm12878-samples-34_peaks.narrowPeak
157829	gm12878-samples-35_peaks.narrowPeak
158099	gm12878-samples-36_peaks.narrowPeak
158417	gm12878-samples-37_peaks.narrowPeak
165367	gm12878-samples-38_peaks.narrowPeak
170226	gm12878-samples-39_peaks.narrowPeak
171329	gm12878-samples-40_peaks.narrowPeak
173740	gm12878-samples-41_peaks.narrowPeak
176968	gm12878-samples-42_peaks.narrowPeak
186078	gm12878-samples-43_peaks.narrowPeak
189365	gm12878-samples-44_peaks.narrowPeak
191765	gm12878-samples-45_peaks.narrowPeak
192026	gm12878-samples-46_peaks.narrowPeak
197769	gm12878-samples-47_peaks.narrowPeak
198004	gm12878-samples-48_peaks.narrowPeak
198858	gm12878-samples-49_peaks.narrowPeak
202972	gm12878-samples-50_peaks.narrowPeak
208451	gm12878-samples-51_peaks.narrowPeak
245754	gm12878-samples-52_peaks.narrowPeak
254134	gm12878-samples-53_peaks.narrowPeak
258130	gm12878-samples-54_peaks.narrowPeak
262927	gm12878-samples-55_peaks.narrowPeak
323026	gm12878-samples-56_peaks.narrowPeak
329105	gm12878-samples-57_peaks.narrowPeak
329576	gm12878-samples-58_peaks.narrowPeak
342265	gm12878-samples-59_peaks.narrowPeak
345930	gm12878-samples-60_peaks.narrowPeak
350595	gm12878-samples-61_peaks.narrowPeak
363020	gm12878-samples-62_peaks.narrowPeak
367960	gm12878-samples-63_peaks.narrowPeak
368506	gm12878-samples-64_peaks.narrowPeak
393157	gm12878-samples-65_peaks.narrowPeak
396470	gm12878-samples-66_peaks.narrowPeak
404578	gm12878-samples-67_peaks.narrowPeak
410282	gm12878-samples-68_peaks.narrowPeak
412569	gm12878-samples-69_peaks.narrowPeak
417297	gm12878-samples-70_peaks.narrowPeak
272374	gm12878-samples-71_peaks.narrowPeak
274165	gm12878-samples-72_peaks.narrowPeak
276466	gm12878-samples-73_peaks.narrowPeak
280461	gm12878-samples-74_peaks.narrowPeak
287557	gm12878-samples-75_peaks.narrowPeak
297833	gm12878-samples-76_peaks.narrowPeak
319963	gm12878-samples-77_peaks.narrowPeak
336778	gm12878-samples-78_peaks.narrowPeak
342062	gm12878-samples-79_peaks.narrowPeak
345816	gm12878-samples-80_peaks.narrowPeak
349654	gm12878-samples-81_peaks.narrowPeak
368105	gm12878-samples-82_peaks.narrowPeak
375643	gm12878-samples-83_peaks.narrowPeak
378639	gm12878-samples-84_peaks.narrowPeak
383589	gm12878-samples-85_peaks.narrowPeak
487383	gm12878-samples-86_peaks.narrowPeak
492912	gm12878-samples-87_peaks.narrowPeak
499076	gm12878-samples-88_peaks.narrowPeak
500575	gm12878-samples-89_peaks.narrowPeak
504011	gm12878-samples-90_peaks.narrowPeak
505514	gm12878-samples-91_peaks.narrowPeak
507268	gm12878-samples-92_peaks.narrowPeak
507850	gm12878-samples-93_peaks.narrowPeak
508318	gm12878-samples-94_peaks.narrowPeak
510355	gm12878-samples-95_peaks.narrowPeak
512062	gm12878-samples-96_peaks.narrowPeak
513809	gm12878-samples-97_peaks.narrowPeak
515467	gm12878-samples-98_peaks.narrowPeak
517160	gm12878-samples-99_peaks.narrowPeak
92635	H1Esc-samples-10_peaks.narrowPeak
75353	H1Esc-samples-11_peaks.narrowPeak
82937	H1Esc-samples-12_peaks.narrowPeak
87628	H1Esc-samples-13_peaks.narrowPeak
95111	H1Esc-samples-14_peaks.narrowPeak
99315	H1Esc-samples-15_peaks.narrowPeak
103535	H1Esc-samples-16_peaks.narrowPeak
116979	H1Esc-samples-17_peaks.narrowPeak
122389	H1Esc-samples-18_peaks.narrowPeak
124790	H1Esc-samples-19_peaks.narrowPeak
199960	H1Esc-samples-20_peaks.narrowPeak
208221	H1Esc-samples-21_peaks.narrowPeak
211782	H1Esc-samples-22_peaks.narrowPeak
231836	H1Esc-samples-23_peaks.narrowPeak
233409	H1Esc-samples-24_peaks.narrowPeak
251745	H1Esc-samples-25_peaks.narrowPeak
261372	H1Esc-samples-26_peaks.narrowPeak
264753	H1Esc-samples-27_peaks.narrowPeak
284875	H1Esc-samples-28_peaks.narrowPeak
285933	H1Esc-samples-29_peaks.narrowPeak
292657	H1Esc-samples-30_peaks.narrowPeak
301993	H1Esc-samples-31_peaks.narrowPeak
308085	H1Esc-samples-32_peaks.narrowPeak
313425	H1Esc-samples-33_peaks.narrowPeak
322298	H1Esc-samples-34_peaks.narrowPeak
3512	K562-samples-01_peaks.narrowPeak
20649	K562-samples-02_peaks.narrowPeak
30447	K562-samples-03_peaks.narrowPeak
32908	K562-samples-04_peaks.narrowPeak
50179	K562-samples-05_peaks.narrowPeak
68605	K562-samples-06_peaks.narrowPeak
79819	K562-samples-07_peaks.narrowPeak
90981	K562-samples-08_peaks.narrowPeak
95830	K562-samples-09_peaks.narrowPeak
369353	K562-samples-100_peaks.narrowPeak
374700	K562-samples-101_peaks.narrowPeak
382694	K562-samples-102_peaks.narrowPeak
389704	K562-samples-103_peaks.narrowPeak
395700	K562-samples-104_peaks.narrowPeak
396508	K562-samples-105_peaks.narrowPeak
397071	K562-samples-106_peaks.narrowPeak
397474	K562-samples-107_peaks.narrowPeak
398671	K562-samples-108_peaks.narrowPeak
415265	K562-samples-109_peaks.narrowPeak
99280	K562-samples-10_peaks.narrowPeak
420722	K562-samples-110_peaks.narrowPeak
427060	K562-samples-111_peaks.narrowPeak
428032	K562-samples-112_peaks.narrowPeak
433500	K562-samples-113_peaks.narrowPeak
436078	K562-samples-114_peaks.narrowPeak
440764	K562-samples-115_peaks.narrowPeak
444076	K562-samples-116_peaks.narrowPeak
450147	K562-samples-117_peaks.narrowPeak
453473	K562-samples-118_peaks.narrowPeak
459292	K562-samples-119_peaks.narrowPeak
110465	K562-samples-11_peaks.narrowPeak
461757	K562-samples-120_peaks.narrowPeak
468733	K562-samples-121_peaks.narrowPeak
472196	K562-samples-122_peaks.narrowPeak
477484	K562-samples-123_peaks.narrowPeak
484826	K562-samples-124_peaks.narrowPeak
494140	K562-samples-125_peaks.narrowPeak
497833	K562-samples-126_peaks.narrowPeak
513765	K562-samples-127_peaks.narrowPeak
521197	K562-samples-128_peaks.narrowPeak
524799	K562-samples-129_peaks.narrowPeak
116494	K562-samples-12_peaks.narrowPeak
533285	K562-samples-130_peaks.narrowPeak
540597	K562-samples-131_peaks.narrowPeak
544559	K562-samples-132_peaks.narrowPeak
552723	K562-samples-133_peaks.narrowPeak
552733	K562-samples-134_peaks.narrowPeak
556509	K562-samples-135_peaks.narrowPeak
561703	K562-samples-136_peaks.narrowPeak
563644	K562-samples-137_peaks.narrowPeak
563800	K562-samples-138_peaks.narrowPeak
563812	K562-samples-139_peaks.narrowPeak
71509	K562-samples-13_peaks.narrowPeak
563821	K562-samples-140_peaks.narrowPeak
569311	K562-samples-141_peaks.narrowPeak
573240	K562-samples-142_peaks.narrowPeak
579282	K562-samples-143_peaks.narrowPeak
430759	K562-samples-144_peaks.narrowPeak
433366	K562-samples-145_peaks.narrowPeak
437225	K562-samples-146_peaks.narrowPeak
439878	K562-samples-147_peaks.narrowPeak
442276	K562-samples-148_peaks.narrowPeak
445191	K562-samples-149_peaks.narrowPeak
75955	K562-samples-14_peaks.narrowPeak
447780	K562-samples-150_peaks.narrowPeak
452914	K562-samples-151_peaks.narrowPeak
464628	K562-samples-152_peaks.narrowPeak
464636	K562-samples-153_peaks.narrowPeak
470793	K562-samples-154_peaks.narrowPeak
475918	K562-samples-155_peaks.narrowPeak
476937	K562-samples-156_peaks.narrowPeak
479729	K562-samples-157_peaks.narrowPeak
482433	K562-samples-158_peaks.narrowPeak
490833	K562-samples-159_peaks.narrowPeak
78636	K562-samples-15_peaks.narrowPeak
494469	K562-samples-160_peaks.narrowPeak
495928	K562-samples-161_peaks.narrowPeak
498231	K562-samples-162_peaks.narrowPeak
501438	K562-samples-163_peaks.narrowPeak
503470	K562-samples-164_peaks.narrowPeak
503554	K562-samples-165_peaks.narrowPeak
507467	K562-samples-166_peaks.narrowPeak
511467	K562-samples-167_peaks.narrowPeak
514719	K562-samples-168_peaks.narrowPeak
517180	K562-samples-169_peaks.narrowPeak
81748	K562-samples-16_peaks.narrowPeak
523768	K562-samples-170_peaks.narrowPeak
524227	K562-samples-171_peaks.narrowPeak
528778	K562-samples-172_peaks.narrowPeak
530819	K562-samples-173_peaks.narrowPeak
535688	K562-samples-174_peaks.narrowPeak
535688	K562-samples-175_peaks.narrowPeak
535689	K562-samples-176_peaks.narrowPeak
535689	K562-samples-177_peaks.narrowPeak
538140	K562-samples-178_peaks.narrowPeak
541016	K562-samples-179_peaks.narrowPeak
91384	K562-samples-17_peaks.narrowPeak
542165	K562-samples-180_peaks.narrowPeak
546878	K562-samples-181_peaks.narrowPeak
548725	K562-samples-182_peaks.narrowPeak
554627	K562-samples-183_peaks.narrowPeak
554628	K562-samples-184_peaks.narrowPeak
556545	K562-samples-185_peaks.narrowPeak
557887	K562-samples-186_peaks.narrowPeak
559700	K562-samples-187_peaks.narrowPeak
562283	K562-samples-188_peaks.narrowPeak
565166	K562-samples-189_peaks.narrowPeak
95558	K562-samples-18_peaks.narrowPeak
572659	K562-samples-190_peaks.narrowPeak
575424	K562-samples-191_peaks.narrowPeak
578013	K562-samples-192_peaks.narrowPeak
579140	K562-samples-193_peaks.narrowPeak
582014	K562-samples-194_peaks.narrowPeak
582834	K562-samples-195_peaks.narrowPeak
586121	K562-samples-196_peaks.narrowPeak
587307	K562-samples-197_peaks.narrowPeak
588251	K562-samples-198_peaks.narrowPeak
593849	K562-samples-199_peaks.narrowPeak
98870	K562-samples-19_peaks.narrowPeak
596038	K562-samples-200_peaks.narrowPeak
597584	K562-samples-201_peaks.narrowPeak
597756	K562-samples-202_peaks.narrowPeak
600057	K562-samples-203_peaks.narrowPeak
600531	K562-samples-204_peaks.narrowPeak
604586	K562-samples-205_peaks.narrowPeak
606057	K562-samples-206_peaks.narrowPeak
610268	K562-samples-207_peaks.narrowPeak
618562	K562-samples-208_peaks.narrowPeak
107702	K562-samples-20_peaks.narrowPeak
120774	K562-samples-21_peaks.narrowPeak
129221	K562-samples-22_peaks.narrowPeak
141719	K562-samples-23_peaks.narrowPeak
149680	K562-samples-24_peaks.narrowPeak
156083	K562-samples-25_peaks.narrowPeak
164041	K562-samples-26_peaks.narrowPeak
174861	K562-samples-27_peaks.narrowPeak
181037	K562-samples-28_peaks.narrowPeak
188175	K562-samples-29_peaks.narrowPeak
194174	K562-samples-30_peaks.narrowPeak
197476	K562-samples-31_peaks.narrowPeak
198857	K562-samples-32_peaks.narrowPeak
204739	K562-samples-33_peaks.narrowPeak
213613	K562-samples-34_peaks.narrowPeak
217443	K562-samples-35_peaks.narrowPeak
221807	K562-samples-36_peaks.narrowPeak
222935	K562-samples-37_peaks.narrowPeak
226367	K562-samples-38_peaks.narrowPeak
235909	K562-samples-39_peaks.narrowPeak
237972	K562-samples-40_peaks.narrowPeak
245098	K562-samples-41_peaks.narrowPeak
246153	K562-samples-42_peaks.narrowPeak
248678	K562-samples-43_peaks.narrowPeak
252057	K562-samples-44_peaks.narrowPeak
260788	K562-samples-45_peaks.narrowPeak
263087	K562-samples-46_peaks.narrowPeak
266302	K562-samples-47_peaks.narrowPeak
270213	K562-samples-48_peaks.narrowPeak
273414	K562-samples-49_peaks.narrowPeak
283179	K562-samples-50_peaks.narrowPeak
286748	K562-samples-51_peaks.narrowPeak
291923	K562-samples-52_peaks.narrowPeak
304917	K562-samples-53_peaks.narrowPeak
308355	K562-samples-54_peaks.narrowPeak
309554	K562-samples-55_peaks.narrowPeak
314268	K562-samples-56_peaks.narrowPeak
320961	K562-samples-57_peaks.narrowPeak
323356	K562-samples-58_peaks.narrowPeak
325939	K562-samples-59_peaks.narrowPeak
330962	K562-samples-60_peaks.narrowPeak
333213	K562-samples-61_peaks.narrowPeak
341130	K562-samples-62_peaks.narrowPeak
347022	K562-samples-63_peaks.narrowPeak
356248	K562-samples-64_peaks.narrowPeak
363958	K562-samples-65_peaks.narrowPeak
409414	K562-samples-66_peaks.narrowPeak
416209	K562-samples-67_peaks.narrowPeak
429900	K562-samples-68_peaks.narrowPeak
432309	K562-samples-69_peaks.narrowPeak
435552	K562-samples-70_peaks.narrowPeak
439050	K562-samples-71_peaks.narrowPeak
442890	K562-samples-72_peaks.narrowPeak
445089	K562-samples-73_peaks.narrowPeak
451570	K562-samples-74_peaks.narrowPeak
454571	K562-samples-75_peaks.narrowPeak
284236	K562-samples-76_peaks.narrowPeak
285867	K562-samples-77_peaks.narrowPeak
287405	K562-samples-78_peaks.narrowPeak
289854	K562-samples-79_peaks.narrowPeak
292758	K562-samples-80_peaks.narrowPeak
293678	K562-samples-81_peaks.narrowPeak
298088	K562-samples-82_peaks.narrowPeak
303900	K562-samples-83_peaks.narrowPeak
313138	K562-samples-84_peaks.narrowPeak
316683	K562-samples-85_peaks.narrowPeak
323583	K562-samples-86_peaks.narrowPeak
325178	K562-samples-87_peaks.narrowPeak
332619	K562-samples-88_peaks.narrowPeak
332641	K562-samples-89_peaks.narrowPeak
334172	K562-samples-90_peaks.narrowPeak
339677	K562-samples-91_peaks.narrowPeak
341849	K562-samples-92_peaks.narrowPeak
343217	K562-samples-93_peaks.narrowPeak
348051	K562-samples-94_peaks.narrowPeak
351473	K562-samples-95_peaks.narrowPeak
352712	K562-samples-96_peaks.narrowPeak
361311	K562-samples-97_peaks.narrowPeak
366736	K562-samples-98_peaks.narrowPeak
369319	K562-samples-99_peaks.narrowPeak
9145	TF1-samples-01_peaks.narrowPeak
16981	TF1-samples-02_peaks.narrowPeak
59795	TF1-samples-03_peaks.narrowPeak
78383	TF1-samples-04_peaks.narrowPeak
97141	TF1-samples-05_peaks.narrowPeak
99094	TF1-samples-06_peaks.narrowPeak
72658	TF1-samples-07_peaks.narrowPeak
75913	TF1-samples-08_peaks.narrowPeak
77476	TF1-samples-09_peaks.narrowPeak
87207	TF1-samples-10_peaks.narrowPeak
97001	TF1-samples-11_peaks.narrowPeak
105890	TF1-samples-12_peaks.narrowPeak
110722	TF1-samples-13_peaks.narrowPeak
119543	TF1-samples-14_peaks.narrowPeak
121305	TF1-samples-15_peaks.narrowPeak
124425	TF1-samples-16_peaks.narrowPeak
124895	TF1-samples-17_peaks.narrowPeak
133271	TF1-samples-18_peaks.narrowPeak
134312	TF1-samples-19_peaks.narrowPeak
148294	TF1-samples-20_peaks.narrowPeak
160792	TF1-samples-21_peaks.narrowPeak
165063	TF1-samples-22_peaks.narrowPeak
177834	TF1-samples-23_peaks.narrowPeak
182362	TF1-samples-24_peaks.narrowPeak
182970	TF1-samples-25_peaks.narrowPeak
191122	TF1-samples-26_peaks.narrowPeak
194010	TF1-samples-27_peaks.narrowPeak
196200	TF1-samples-28_peaks.narrowPeak
202810	TF1-samples-29_peaks.narrowPeak
213865	TF1-samples-30_peaks.narrowPeak
220406	TF1-samples-31_peaks.narrowPeak
227089	TF1-samples-32_peaks.narrowPeak
231870	TF1-samples-33_peaks.narrowPeak
239476	TF1-samples-34_peaks.narrowPeak
262585	TF1-samples-35_peaks.narrowPeak
281821	TF1-samples-36_peaks.narrowPeak
282863	TF1-samples-37_peaks.narrowPeak
284999	TF1-samples-38_peaks.narrowPeak
290738	TF1-samples-39_peaks.narrowPeak
294768	TF1-samples-40_peaks.narrowPeak
299636	TF1-samples-41_peaks.narrowPeak
306754	TF1-samples-42_peaks.narrowPeak
310730	TF1-samples-43_peaks.narrowPeak
311554	TF1-samples-44_peaks.narrowPeak
380808	TF1-samples-45_peaks.narrowPeak
394904	TF1-samples-46_peaks.narrowPeak
395577	TF1-samples-47_peaks.narrowPeak
401228	TF1-samples-48_peaks.narrowPeak
413510	TF1-samples-49_peaks.narrowPeak
419713	TF1-samples-50_peaks.narrowPeak
438060	TF1-samples-51_peaks.narrowPeak
446629	TF1-samples-52_peaks.narrowPeak
451602	TF1-samples-53_peaks.narrowPeak
462733	TF1-samples-54_peaks.narrowPeak
490223	TF1-samples-55_peaks.narrowPeak
496656	TF1-samples-56_peaks.narrowPeak
501880	TF1-samples-57_peaks.narrowPeak
509661	TF1-samples-58_peaks.narrowPeak
510559	TF1-samples-59_peaks.narrowPeak
515908	TF1-samples-60_peaks.narrowPeak
522257	TF1-samples-61_peaks.narrowPeak
523073	TF1-samples-62_peaks.narrowPeak
523847	TF1-samples-63_peaks.narrowPeak
524918	TF1-samples-64_peaks.narrowPeak
526986	TF1-samples-65_peaks.narrowPeak
530443	TF1-samples-66_peaks.narrowPeak
531212	TF1-samples-67_peaks.narrowPeak
534759	TF1-samples-68_peaks.narrowPeak
536694	TF1-samples-69_peaks.narrowPeak
544426	TF1-samples-70_peaks.narrowPeak
545432	TF1-samples-71_peaks.narrowPeak
369715	TF1-samples-72_peaks.narrowPeak
198941046	total
