67	BJ-samples-001_summits.bed
183	BJ-samples-002_summits.bed
479	BJ-samples-003_summits.bed
689	BJ-samples-004_summits.bed
763	BJ-samples-005_summits.bed
775	BJ-samples-006_summits.bed
1036	BJ-samples-007_summits.bed
1483	BJ-samples-008_summits.bed
2368	BJ-samples-009_summits.bed
2991	BJ-samples-010_summits.bed
3003	BJ-samples-011_summits.bed
3901	BJ-samples-012_summits.bed
3955	BJ-samples-013_summits.bed
5180	BJ-samples-014_summits.bed
5900	BJ-samples-015_summits.bed
6203	BJ-samples-016_summits.bed
7279	BJ-samples-017_summits.bed
7959	BJ-samples-018_summits.bed
9359	BJ-samples-019_summits.bed
9377	BJ-samples-020_summits.bed
10962	BJ-samples-021_summits.bed
11478	BJ-samples-022_summits.bed
12798	BJ-samples-023_summits.bed
12829	BJ-samples-024_summits.bed
13820	BJ-samples-025_summits.bed
15609	BJ-samples-026_summits.bed
15639	BJ-samples-027_summits.bed
16461	BJ-samples-028_summits.bed
17854	BJ-samples-029_summits.bed
19547	BJ-samples-030_summits.bed
20465	BJ-samples-031_summits.bed
21632	BJ-samples-032_summits.bed
21656	BJ-samples-033_summits.bed
22601	BJ-samples-034_summits.bed
23265	BJ-samples-035_summits.bed
23287	BJ-samples-036_summits.bed
24031	BJ-samples-037_summits.bed
25715	BJ-samples-038_summits.bed
25987	BJ-samples-039_summits.bed
27238	BJ-samples-040_summits.bed
27273	BJ-samples-041_summits.bed
27313	BJ-samples-042_summits.bed
28901	BJ-samples-043_summits.bed
29513	BJ-samples-044_summits.bed
30637	BJ-samples-045_summits.bed
31540	BJ-samples-046_summits.bed
32883	BJ-samples-047_summits.bed
32911	BJ-samples-048_summits.bed
34426	BJ-samples-049_summits.bed
35551	BJ-samples-050_summits.bed
36555	BJ-samples-051_summits.bed
37080	BJ-samples-052_summits.bed
37497	BJ-samples-053_summits.bed
37901	BJ-samples-054_summits.bed
38941	BJ-samples-055_summits.bed
39479	BJ-samples-056_summits.bed
40213	BJ-samples-057_summits.bed
40876	BJ-samples-058_summits.bed
42354	BJ-samples-059_summits.bed
43033	BJ-samples-060_summits.bed
44526	BJ-samples-061_summits.bed
46067	BJ-samples-062_summits.bed
46777	BJ-samples-063_summits.bed
47395	BJ-samples-064_summits.bed
48092	BJ-samples-065_summits.bed
48754	BJ-samples-066_summits.bed
49113	BJ-samples-067_summits.bed
49128	BJ-samples-068_summits.bed
49141	BJ-samples-069_summits.bed
50743	BJ-samples-070_summits.bed
50758	BJ-samples-071_summits.bed
51755	BJ-samples-072_summits.bed
52097	BJ-samples-073_summits.bed
23	gm12878-samples-001_summits.bed
29	gm12878-samples-002_summits.bed
32	gm12878-samples-003_summits.bed
81	gm12878-samples-004_summits.bed
83	gm12878-samples-005_summits.bed
93	gm12878-samples-006_summits.bed
142	gm12878-samples-007_summits.bed
159	gm12878-samples-008_summits.bed
162	gm12878-samples-009_summits.bed
261	gm12878-samples-010_summits.bed
430	gm12878-samples-011_summits.bed
619	gm12878-samples-012_summits.bed
1440	gm12878-samples-013_summits.bed
1717	gm12878-samples-014_summits.bed
2222	gm12878-samples-015_summits.bed
2669	gm12878-samples-016_summits.bed
3091	gm12878-samples-017_summits.bed
3270	gm12878-samples-018_summits.bed
3446	gm12878-samples-019_summits.bed
3453	gm12878-samples-020_summits.bed
3670	gm12878-samples-021_summits.bed
4019	gm12878-samples-022_summits.bed
4372	gm12878-samples-023_summits.bed
4744	gm12878-samples-024_summits.bed
4789	gm12878-samples-025_summits.bed
5012	gm12878-samples-026_summits.bed
5548	gm12878-samples-027_summits.bed
5846	gm12878-samples-028_summits.bed
6667	gm12878-samples-029_summits.bed
7245	gm12878-samples-030_summits.bed
7797	gm12878-samples-031_summits.bed
8118	gm12878-samples-032_summits.bed
8468	gm12878-samples-033_summits.bed
8699	gm12878-samples-034_summits.bed
9271	gm12878-samples-035_summits.bed
9313	gm12878-samples-036_summits.bed
9420	gm12878-samples-037_summits.bed
10875	gm12878-samples-038_summits.bed
11528	gm12878-samples-039_summits.bed
11657	gm12878-samples-040_summits.bed
12159	gm12878-samples-041_summits.bed
12702	gm12878-samples-042_summits.bed
13573	gm12878-samples-043_summits.bed
14188	gm12878-samples-044_summits.bed
14616	gm12878-samples-045_summits.bed
14653	gm12878-samples-046_summits.bed
15653	gm12878-samples-047_summits.bed
15668	gm12878-samples-048_summits.bed
15719	gm12878-samples-049_summits.bed
16401	gm12878-samples-050_summits.bed
17102	gm12878-samples-051_summits.bed
18256	gm12878-samples-052_summits.bed
19845	gm12878-samples-053_summits.bed
20406	gm12878-samples-054_summits.bed
21433	gm12878-samples-055_summits.bed
23530	gm12878-samples-056_summits.bed
24434	gm12878-samples-057_summits.bed
24518	gm12878-samples-058_summits.bed
26250	gm12878-samples-059_summits.bed
26959	gm12878-samples-060_summits.bed
28140	gm12878-samples-061_summits.bed
29979	gm12878-samples-062_summits.bed
30729	gm12878-samples-063_summits.bed
30762	gm12878-samples-064_summits.bed
34330	gm12878-samples-065_summits.bed
34837	gm12878-samples-066_summits.bed
36094	gm12878-samples-067_summits.bed
36982	gm12878-samples-068_summits.bed
37324	gm12878-samples-069_summits.bed
38147	gm12878-samples-070_summits.bed
41185	gm12878-samples-071_summits.bed
41664	gm12878-samples-072_summits.bed
42001	gm12878-samples-073_summits.bed
42945	gm12878-samples-074_summits.bed
44357	gm12878-samples-075_summits.bed
46181	gm12878-samples-076_summits.bed
48830	gm12878-samples-077_summits.bed
51669	gm12878-samples-078_summits.bed
52673	gm12878-samples-079_summits.bed
53273	gm12878-samples-080_summits.bed
53793	gm12878-samples-081_summits.bed
56813	gm12878-samples-082_summits.bed
58003	gm12878-samples-083_summits.bed
58568	gm12878-samples-084_summits.bed
59495	gm12878-samples-085_summits.bed
68995	gm12878-samples-086_summits.bed
70182	gm12878-samples-087_summits.bed
71347	gm12878-samples-088_summits.bed
71603	gm12878-samples-089_summits.bed
72300	gm12878-samples-090_summits.bed
72535	gm12878-samples-091_summits.bed
72798	gm12878-samples-092_summits.bed
72980	gm12878-samples-093_summits.bed
73084	gm12878-samples-094_summits.bed
73358	gm12878-samples-095_summits.bed
73535	gm12878-samples-096_summits.bed
73936	gm12878-samples-097_summits.bed
74092	gm12878-samples-098_summits.bed
74310	gm12878-samples-099_summits.bed
75021	gm12878-samples-100_summits.bed
75281	gm12878-samples-101_summits.bed
75587	gm12878-samples-102_summits.bed
76058	gm12878-samples-103_summits.bed
76182	gm12878-samples-104_summits.bed
76746	gm12878-samples-105_summits.bed
77053	gm12878-samples-106_summits.bed
77344	gm12878-samples-107_summits.bed
78023	gm12878-samples-108_summits.bed
79633	gm12878-samples-109_summits.bed
79741	gm12878-samples-110_summits.bed
80014	gm12878-samples-111_summits.bed
80735	gm12878-samples-112_summits.bed
81405	gm12878-samples-113_summits.bed
81600	gm12878-samples-114_summits.bed
82079	gm12878-samples-115_summits.bed
83016	gm12878-samples-116_summits.bed
83907	gm12878-samples-117_summits.bed
87483	gm12878-samples-118_summits.bed
87745	gm12878-samples-119_summits.bed
88250	gm12878-samples-120_summits.bed
88785	gm12878-samples-121_summits.bed
89101	gm12878-samples-122_summits.bed
90342	gm12878-samples-123_summits.bed
90402	gm12878-samples-124_summits.bed
90755	gm12878-samples-125_summits.bed
90965	gm12878-samples-126_summits.bed
91121	gm12878-samples-127_summits.bed
91341	gm12878-samples-128_summits.bed
92173	gm12878-samples-129_summits.bed
92218	gm12878-samples-130_summits.bed
92324	gm12878-samples-131_summits.bed
93442	gm12878-samples-132_summits.bed
94241	gm12878-samples-133_summits.bed
94985	gm12878-samples-134_summits.bed
95244	gm12878-samples-135_summits.bed
95829	gm12878-samples-136_summits.bed
96675	gm12878-samples-137_summits.bed
96756	gm12878-samples-138_summits.bed
96905	gm12878-samples-139_summits.bed
97390	gm12878-samples-140_summits.bed
97888	gm12878-samples-141_summits.bed
98411	gm12878-samples-142_summits.bed
98913	gm12878-samples-143_summits.bed
100093	gm12878-samples-144_summits.bed
100499	gm12878-samples-145_summits.bed
100959	gm12878-samples-146_summits.bed
109698	gm12878-samples-147_summits.bed
110854	gm12878-samples-148_summits.bed
111941	gm12878-samples-149_summits.bed
112351	gm12878-samples-150_summits.bed
112654	gm12878-samples-151_summits.bed
113916	gm12878-samples-152_summits.bed
114231	gm12878-samples-153_summits.bed
115184	gm12878-samples-154_summits.bed
115597	gm12878-samples-155_summits.bed
116400	gm12878-samples-156_summits.bed
116641	gm12878-samples-157_summits.bed
117176	gm12878-samples-158_summits.bed
117872	gm12878-samples-159_summits.bed
117902	gm12878-samples-160_summits.bed
117924	gm12878-samples-161_summits.bed
118105	gm12878-samples-162_summits.bed
118123	gm12878-samples-163_summits.bed
118137	gm12878-samples-164_summits.bed
118552	gm12878-samples-165_summits.bed
118905	gm12878-samples-166_summits.bed
119371	gm12878-samples-167_summits.bed
119394	gm12878-samples-168_summits.bed
119829	gm12878-samples-169_summits.bed
120189	gm12878-samples-170_summits.bed
120210	gm12878-samples-171_summits.bed
120536	gm12878-samples-172_summits.bed
120604	gm12878-samples-173_summits.bed
120890	gm12878-samples-174_summits.bed
121088	gm12878-samples-175_summits.bed
121316	gm12878-samples-176_summits.bed
121342	gm12878-samples-177_summits.bed
122094	gm12878-samples-178_summits.bed
122297	gm12878-samples-179_summits.bed
122749	gm12878-samples-180_summits.bed
122796	gm12878-samples-181_summits.bed
123223	gm12878-samples-182_summits.bed
123799	gm12878-samples-183_summits.bed
124633	gm12878-samples-184_summits.bed
125204	gm12878-samples-185_summits.bed
126111	gm12878-samples-186_summits.bed
127474	gm12878-samples-187_summits.bed
128725	gm12878-samples-188_summits.bed
128774	gm12878-samples-189_summits.bed
131402	gm12878-samples-190_summits.bed
132013	gm12878-samples-191_summits.bed
133123	gm12878-samples-192_summits.bed
134302	gm12878-samples-193_summits.bed
135253	gm12878-samples-194_summits.bed
135408	gm12878-samples-195_summits.bed
135549	gm12878-samples-196_summits.bed
136042	gm12878-samples-197_summits.bed
136312	gm12878-samples-198_summits.bed
136312	gm12878-samples-199_summits.bed
137333	gm12878-samples-200_summits.bed
23	H1Esc-samples-001_summits.bed
27	H1Esc-samples-002_summits.bed
35	H1Esc-samples-003_summits.bed
51	H1Esc-samples-004_summits.bed
106	H1Esc-samples-005_summits.bed
162	H1Esc-samples-006_summits.bed
175	H1Esc-samples-007_summits.bed
304	H1Esc-samples-008_summits.bed
800	H1Esc-samples-009_summits.bed
1157	H1Esc-samples-010_summits.bed
2257	H1Esc-samples-011_summits.bed
2769	H1Esc-samples-012_summits.bed
2835	H1Esc-samples-013_summits.bed
3513	H1Esc-samples-014_summits.bed
3749	H1Esc-samples-015_summits.bed
4129	H1Esc-samples-016_summits.bed
4658	H1Esc-samples-017_summits.bed
5141	H1Esc-samples-018_summits.bed
5306	H1Esc-samples-019_summits.bed
7653	H1Esc-samples-020_summits.bed
8558	H1Esc-samples-021_summits.bed
9022	H1Esc-samples-022_summits.bed
11879	H1Esc-samples-023_summits.bed
12091	H1Esc-samples-024_summits.bed
13808	H1Esc-samples-025_summits.bed
14881	H1Esc-samples-026_summits.bed
15191	H1Esc-samples-027_summits.bed
18187	H1Esc-samples-028_summits.bed
18245	H1Esc-samples-029_summits.bed
19430	H1Esc-samples-030_summits.bed
19993	H1Esc-samples-031_summits.bed
20771	H1Esc-samples-032_summits.bed
21511	H1Esc-samples-033_summits.bed
23068	H1Esc-samples-034_summits.bed
24	K562-samples-001_summits.bed
73	K562-samples-002_summits.bed
168	K562-samples-003_summits.bed
219	K562-samples-004_summits.bed
510	K562-samples-005_summits.bed
1071	K562-samples-006_summits.bed
1363	K562-samples-007_summits.bed
1822	K562-samples-008_summits.bed
1932	K562-samples-009_summits.bed
2068	K562-samples-010_summits.bed
2686	K562-samples-011_summits.bed
2852	K562-samples-012_summits.bed
3240	K562-samples-013_summits.bed
3653	K562-samples-014_summits.bed
3806	K562-samples-015_summits.bed
4132	K562-samples-016_summits.bed
4952	K562-samples-017_summits.bed
5257	K562-samples-018_summits.bed
5787	K562-samples-019_summits.bed
6722	K562-samples-020_summits.bed
8122	K562-samples-021_summits.bed
8895	K562-samples-022_summits.bed
10195	K562-samples-023_summits.bed
10983	K562-samples-024_summits.bed
11619	K562-samples-025_summits.bed
12433	K562-samples-026_summits.bed
13577	K562-samples-027_summits.bed
14573	K562-samples-028_summits.bed
15007	K562-samples-029_summits.bed
15847	K562-samples-030_summits.bed
16184	K562-samples-031_summits.bed
16320	K562-samples-032_summits.bed
17035	K562-samples-033_summits.bed
18054	K562-samples-034_summits.bed
18408	K562-samples-035_summits.bed
18947	K562-samples-036_summits.bed
19114	K562-samples-037_summits.bed
19412	K562-samples-038_summits.bed
19721	K562-samples-039_summits.bed
20030	K562-samples-040_summits.bed
20879	K562-samples-041_summits.bed
21043	K562-samples-042_summits.bed
21328	K562-samples-043_summits.bed
21747	K562-samples-044_summits.bed
22684	K562-samples-045_summits.bed
22987	K562-samples-046_summits.bed
23518	K562-samples-047_summits.bed
23876	K562-samples-048_summits.bed
24190	K562-samples-049_summits.bed
25476	K562-samples-050_summits.bed
25807	K562-samples-051_summits.bed
26741	K562-samples-052_summits.bed
28400	K562-samples-053_summits.bed
28860	K562-samples-054_summits.bed
29068	K562-samples-055_summits.bed
29601	K562-samples-056_summits.bed
30374	K562-samples-057_summits.bed
30694	K562-samples-058_summits.bed
31215	K562-samples-059_summits.bed
31771	K562-samples-060_summits.bed
32121	K562-samples-061_summits.bed
33145	K562-samples-062_summits.bed
34211	K562-samples-063_summits.bed
35205	K562-samples-064_summits.bed
36048	K562-samples-065_summits.bed
38406	K562-samples-066_summits.bed
39143	K562-samples-067_summits.bed
39695	K562-samples-068_summits.bed
39894	K562-samples-069_summits.bed
40217	K562-samples-070_summits.bed
40741	K562-samples-071_summits.bed
41414	K562-samples-072_summits.bed
41719	K562-samples-073_summits.bed
42475	K562-samples-074_summits.bed
42904	K562-samples-075_summits.bed
43516	K562-samples-076_summits.bed
43819	K562-samples-077_summits.bed
44118	K562-samples-078_summits.bed
44677	K562-samples-079_summits.bed
45507	K562-samples-080_summits.bed
45686	K562-samples-081_summits.bed
45851	K562-samples-082_summits.bed
46626	K562-samples-083_summits.bed
47997	K562-samples-084_summits.bed
48403	K562-samples-085_summits.bed
49336	K562-samples-086_summits.bed
49624	K562-samples-087_summits.bed
50416	K562-samples-088_summits.bed
50417	K562-samples-089_summits.bed
50546	K562-samples-090_summits.bed
51213	K562-samples-091_summits.bed
51541	K562-samples-092_summits.bed
51698	K562-samples-093_summits.bed
52399	K562-samples-094_summits.bed
52861	K562-samples-095_summits.bed
53096	K562-samples-096_summits.bed
54089	K562-samples-097_summits.bed
54892	K562-samples-098_summits.bed
55226	K562-samples-099_summits.bed
55229	K562-samples-100_summits.bed
55933	K562-samples-101_summits.bed
56998	K562-samples-102_summits.bed
58088	K562-samples-103_summits.bed
58899	K562-samples-104_summits.bed
59021	K562-samples-105_summits.bed
59106	K562-samples-106_summits.bed
59152	K562-samples-107_summits.bed
59303	K562-samples-108_summits.bed
60935	K562-samples-109_summits.bed
61956	K562-samples-110_summits.bed
62843	K562-samples-111_summits.bed
62946	K562-samples-112_summits.bed
64253	K562-samples-113_summits.bed
64717	K562-samples-114_summits.bed
65319	K562-samples-115_summits.bed
65791	K562-samples-116_summits.bed
66725	K562-samples-117_summits.bed
67145	K562-samples-118_summits.bed
67936	K562-samples-119_summits.bed
68325	K562-samples-120_summits.bed
69676	K562-samples-121_summits.bed
70274	K562-samples-122_summits.bed
71048	K562-samples-123_summits.bed
72278	K562-samples-124_summits.bed
73298	K562-samples-125_summits.bed
73755	K562-samples-126_summits.bed
75316	K562-samples-127_summits.bed
76331	K562-samples-128_summits.bed
76831	K562-samples-129_summits.bed
78036	K562-samples-130_summits.bed
79190	K562-samples-131_summits.bed
79813	K562-samples-132_summits.bed
81222	K562-samples-133_summits.bed
81222	K562-samples-134_summits.bed
81785	K562-samples-135_summits.bed
82665	K562-samples-136_summits.bed
83007	K562-samples-137_summits.bed
83032	K562-samples-138_summits.bed
83032	K562-samples-139_summits.bed
83035	K562-samples-140_summits.bed
83765	K562-samples-141_summits.bed
84246	K562-samples-142_summits.bed
85317	K562-samples-143_summits.bed
86086	K562-samples-144_summits.bed
86524	K562-samples-145_summits.bed
87534	K562-samples-146_summits.bed
87961	K562-samples-147_summits.bed
88427	K562-samples-148_summits.bed
88910	K562-samples-149_summits.bed
89450	K562-samples-150_summits.bed
90429	K562-samples-151_summits.bed
91831	K562-samples-152_summits.bed
91833	K562-samples-153_summits.bed
92899	K562-samples-154_summits.bed
93799	K562-samples-155_summits.bed
94018	K562-samples-156_summits.bed
94520	K562-samples-157_summits.bed
95092	K562-samples-158_summits.bed
97028	K562-samples-159_summits.bed
97619	K562-samples-160_summits.bed
97853	K562-samples-161_summits.bed
98342	K562-samples-162_summits.bed
99158	K562-samples-163_summits.bed
99479	K562-samples-164_summits.bed
99485	K562-samples-165_summits.bed
100234	K562-samples-166_summits.bed
101057	K562-samples-167_summits.bed
101689	K562-samples-168_summits.bed
102130	K562-samples-169_summits.bed
103312	K562-samples-170_summits.bed
103409	K562-samples-171_summits.bed
104345	K562-samples-172_summits.bed
104752	K562-samples-173_summits.bed
105742	K562-samples-174_summits.bed
105742	K562-samples-175_summits.bed
105743	K562-samples-176_summits.bed
105743	K562-samples-177_summits.bed
106255	K562-samples-178_summits.bed
106704	K562-samples-179_summits.bed
107052	K562-samples-180_summits.bed
107839	K562-samples-181_summits.bed
108262	K562-samples-182_summits.bed
109409	K562-samples-183_summits.bed
109409	K562-samples-184_summits.bed
110131	K562-samples-185_summits.bed
110454	K562-samples-186_summits.bed
110829	K562-samples-187_summits.bed
111453	K562-samples-188_summits.bed
111910	K562-samples-189_summits.bed
113145	K562-samples-190_summits.bed
113661	K562-samples-191_summits.bed
114282	K562-samples-192_summits.bed
114512	K562-samples-193_summits.bed
115035	K562-samples-194_summits.bed
115186	K562-samples-195_summits.bed
115896	K562-samples-196_summits.bed
116085	K562-samples-197_summits.bed
116278	K562-samples-198_summits.bed
117196	K562-samples-199_summits.bed
117574	K562-samples-200_summits.bed
117863	K562-samples-201_summits.bed
117888	K562-samples-202_summits.bed
118305	K562-samples-203_summits.bed
118409	K562-samples-204_summits.bed
119328	K562-samples-205_summits.bed
119571	K562-samples-206_summits.bed
120379	K562-samples-207_summits.bed
121902	K562-samples-208_summits.bed
23423	test-SRR1780303_summits.bed
28061984	total
