chr1	0	171229375	249250621	0.686977
chr1	1	78021246	249250621	0.313023
chr10	0	96051505	135534747	0.708685
chr10	1	39483242	135534747	0.291315
chr11	0	94899424	135006516	0.702925
chr11	1	40107092	135006516	0.297075
chr12	0	92167223	133851895	0.688576
chr12	1	41684672	133851895	0.311424
chr13	0	69803735	115169878	0.606094
chr13	1	45366143	115169878	0.393906
chr14	0	80262914	107349540	0.747678
chr14	1	27086626	107349540	0.252322
chr15	0	71241775	102531392	0.694829
chr15	1	31289617	102531392	0.305171
chr16	0	68156581	90354753	0.754322
chr16	1	22198172	90354753	0.245678
chr17	0	58108230	81195210	0.715661
chr17	1	23086980	81195210	0.284339
chr18	0	44945779	78077248	0.575658
chr18	1	33131469	78077248	0.424342
chr19	0	42839207	59128983	0.724504
chr19	1	16289776	59128983	0.275496
chr2	0	168429670	243199373	0.692558
chr2	1	74769703	243199373	0.307442
chr20	0	46807261	63025520	0.742672
chr20	1	16218259	63025520	0.257328
chr21	0	29374278	48129895	0.610313
chr21	1	18755617	48129895	0.389687
chr22	0	39350936	51304566	0.767006
chr22	1	11953630	51304566	0.232993
chr3	0	132746996	198022430	0.670363
chr3	1	65275434	198022430	0.329637
chr4	0	104354090	191154276	0.545916
chr4	1	86800186	191154276	0.454084
chr5	0	122007560	180915260	0.674391
chr5	1	58907700	180915260	0.325609
chr6	0	104541312	171115067	0.610942
chr6	1	66573755	171115067	0.389058
chr7	0	108921008	159138663	0.684441
chr7	1	50217655	159138663	0.315559
chr8	0	102058867	146364022	0.697295
chr8	1	44305155	146364022	0.302705
chr9	0	98911827	141213431	0.700442
chr9	1	42301604	141213431	0.299558
chrX	0	133837947	155270560	0.861966
chrX	1	21432613	155270560	0.138034
genome	0	2140437637	3095693983	0.691424
genome	1	955256346	3095693983	0.308576
