chr1	0	224132827	249250621	0.899227
chr1	1	25117794	249250621	0.100773
chr10	0	119479244	135534747	0.88154
chr10	1	16055503	135534747	0.11846
chr11	0	119321121	135006516	0.883817
chr11	1	15685395	135006516	0.116183
chr12	0	117224890	133851895	0.875781
chr12	1	16627005	133851895	0.124219
chr13	0	96567501	115169878	0.838479
chr13	1	18602377	115169878	0.161521
chr14	0	93856275	107349540	0.874305
chr14	1	13493265	107349540	0.125695
chr15	0	93043008	102531392	0.907459
chr15	1	9488384	102531392	0.0925413
chr16	0	82152374	90354753	0.90922
chr16	1	8202379	90354753	0.0907797
chr17	0	74944327	81195210	0.923014
chr17	1	6250883	81195210	0.0769859
chr18	0	66817726	78077248	0.85579
chr18	1	11259522	78077248	0.14421
chr19	0	54167382	59128983	0.916089
chr19	1	4961601	59128983	0.0839115
chr2	0	210918019	243199373	0.867264
chr2	1	32281354	243199373	0.132736
chr20	0	58254776	63025520	0.924305
chr20	1	4770744	63025520	0.0756954
chr21	0	41262026	48129895	0.857305
chr21	1	6867869	48129895	0.142694
chr22	0	48811993	51304566	0.951416
chr22	1	2492573	51304566	0.0485838
chr3	0	170589962	198022430	0.861468
chr3	1	27432468	198022430	0.138532
chr4	0	154987907	191154276	0.8108
chr4	1	36166369	191154276	0.1892
chr5	0	152565382	180915260	0.843297
chr5	1	28349878	180915260	0.156703
chr6	0	146931017	171115067	0.858668
chr6	1	24184050	171115067	0.141332
chr7	0	135885586	159138663	0.853882
chr7	1	23253077	159138663	0.146118
chr8	0	125080881	146364022	0.854588
chr8	1	21283141	146364022	0.145412
chr9	0	123923607	141213431	0.877563
chr9	1	17289824	141213431	0.122438
chrX	0	124075327	155270560	0.799091
chrX	1	31195233	155270560	0.200909
genome	0	2694383295	3095693983	0.870365
genome	1	401310688	3095693983	0.129635
