chr1	0	114453451	249250621	0.45919
chr1	1	134797170	249250621	0.54081
chr10	0	57219240	135534747	0.422174
chr10	1	78315507	135534747	0.577826
chr11	0	57838832	135006516	0.428415
chr11	1	77167684	135006516	0.571585
chr12	0	55457986	133851895	0.414323
chr12	1	78393909	133851895	0.585676
chr13	0	50543548	115169878	0.438861
chr13	1	64626330	115169878	0.561139
chr14	0	53004033	107349540	0.493752
chr14	1	54345507	107349540	0.506248
chr15	0	54086184	102531392	0.527509
chr15	1	48445208	102531392	0.472491
chr16	0	48172549	90354753	0.533149
chr16	1	42182204	90354753	0.466851
chr17	0	40583303	81195210	0.499824
chr17	1	40611907	81195210	0.500176
chr18	0	30597378	78077248	0.391886
chr18	1	47479870	78077248	0.608114
chr19	0	34754910	59128983	0.587781
chr19	1	24374073	59128983	0.412219
chr2	0	91177354	243199373	0.374908
chr2	1	152022019	243199373	0.625092
chr20	0	32216285	63025520	0.511163
chr20	1	30809235	63025520	0.488837
chr21	0	27227401	48129895	0.565707
chr21	1	20902494	48129895	0.434293
chr22	0	35476404	51304566	0.691486
chr22	1	15828162	51304566	0.308514
chr3	0	73444504	198022430	0.37089
chr3	1	124577926	198022430	0.62911
chr4	0	61411715	191154276	0.321268
chr4	1	129742561	191154276	0.678732
chr5	0	64636432	180915260	0.357275
chr5	1	116278828	180915260	0.642725
chr6	0	63566105	171115067	0.371482
chr6	1	107548962	171115067	0.628518
chr7	0	62845854	159138663	0.394913
chr7	1	96292809	159138663	0.605087
chr8	0	56946621	146364022	0.389075
chr8	1	89417401	146364022	0.610925
chr9	0	65800998	141213431	0.465968
chr9	1	75412433	141213431	0.534032
chrX	0	116625159	155270560	0.751109
chrX	1	38645401	155270560	0.248891
genome	0	1407476383	3095693983	0.454656
genome	1	1688217600	3095693983	0.545344
