/mnt/work1/users/home2/fnguyen/anaconda3/envs/py27/lib/python2.7/site-packages/sklearn/linear_model/sag.py:326: ConvergenceWarning: The max_iter was reached which means the coef_ did not converge
  "the coef_ did not converge", ConvergenceWarning)
/mnt/work1/users/home2/fnguyen/anaconda3/envs/py27/lib/python2.7/site-packages/sklearn/linear_model/sag.py:326: ConvergenceWarning: The max_iter was reached which means the coef_ did not converge
  "the coef_ did not converge", ConvergenceWarning)
/mnt/work1/users/home2/fnguyen/anaconda3/envs/py27/lib/python2.7/site-packages/sklearn/linear_model/sag.py:326: ConvergenceWarning: The max_iter was reached which means the coef_ did not converge
  "the coef_ did not converge", ConvergenceWarning)
/mnt/work1/users/home2/fnguyen/anaconda3/envs/py27/lib/python2.7/site-packages/sklearn/linear_model/sag.py:326: ConvergenceWarning: The max_iter was reached which means the coef_ did not converge
  "the coef_ did not converge", ConvergenceWarning)
/mnt/work1/users/home2/fnguyen/anaconda3/envs/py27/lib/python2.7/site-packages/sklearn/linear_model/sag.py:326: ConvergenceWarning: The max_iter was reached which means the coef_ did not converge
  "the coef_ did not converge", ConvergenceWarning)
Traceback (most recent call last):
  File "train.py", line 904, in <module>
    sys.exit(main())
  File "train.py", line 872, in main
    joblib.dump(model, args.output_model_fn)
  File "/mnt/work1/users/home2/fnguyen/anaconda3/envs/py27/lib/python2.7/site-packages/sklearn/externals/joblib/numpy_pickle.py", line 483, in dump
    with open(filename, 'wb') as f:
IOError: [Errno 28] No space left on device: 'LogRegression.pkl'
