chr1	0	247448873	249250621	0.992771
chr1	1	1801748	249250621	0.00722866
chr10	0	134758527	135534747	0.994273
chr10	1	776220	135534747	0.00572709
chr11	0	134054169	135006516	0.992946
chr11	1	952347	135006516	0.00705408
chr12	0	132906470	133851895	0.992937
chr12	1	945425	133851895	0.00706322
chr13	0	114832080	115169878	0.997067
chr13	1	337798	115169878	0.00293304
chr14	0	106737860	107349540	0.994302
chr14	1	611680	107349540	0.00569802
chr15	0	101911136	102531392	0.993951
chr15	1	620256	102531392	0.00604943
chr16	0	89579312	90354753	0.991418
chr16	1	775441	90354753	0.00858218
chr17	0	80184102	81195210	0.987547
chr17	1	1011108	81195210	0.0124528
chr18	0	77797975	78077248	0.996423
chr18	1	279273	78077248	0.00357688
chr19	0	58012787	59128983	0.981123
chr19	1	1116196	59128983	0.0188773
chr2	0	241905441	243199373	0.99468
chr2	1	1293932	243199373	0.00532046
chr20	0	62546645	63025520	0.992402
chr20	1	478875	63025520	0.00759811
chr21	0	47945084	48129895	0.99616
chr21	1	184811	48129895	0.00383984
chr22	0	50848618	51304566	0.991113
chr22	1	455948	51304566	0.00888708
chr3	0	196971306	198022430	0.994692
chr3	1	1051124	198022430	0.00530811
chr4	0	190519963	191154276	0.996682
chr4	1	634313	191154276	0.00331833
chr5	0	180055018	180915260	0.995245
chr5	1	860242	180915260	0.00475494
chr6	0	169986899	171115067	0.993407
chr6	1	1128168	171115067	0.00659304
chr7	0	158268803	159138663	0.994534
chr7	1	869860	159138663	0.00546605
chr8	0	145697074	146364022	0.995443
chr8	1	666948	146364022	0.00455678
chr9	0	140511235	141213431	0.995027
chr9	1	702196	141213431	0.00497259
chrX	0	154818736	155270560	0.99709
chrX	1	451824	155270560	0.00290991
genome	0	3119155531	3137161264	0.99426
genome	1	18005733	3137161264	0.0057395
