chr1	0	157403677	249250621	0.631508
chr1	1	91846944	249250621	0.368492
chr10	0	84904664	135534747	0.626442
chr10	1	50630083	135534747	0.373558
chr11	0	83389321	135006516	0.617669
chr11	1	51617195	135006516	0.382331
chr12	0	78956335	133851895	0.589878
chr12	1	54895560	133851895	0.410122
chr13	0	71039297	115169878	0.616822
chr13	1	44130581	115169878	0.383178
chr14	0	72423420	107349540	0.674651
chr14	1	34926120	107349540	0.32535
chr15	0	69926346	102531392	0.681999
chr15	1	32605046	102531392	0.318001
chr16	0	67592825	90354753	0.748083
chr16	1	22761928	90354753	0.251917
chr17	0	56790672	81195210	0.699434
chr17	1	24404538	81195210	0.300566
chr18	0	45436867	78077248	0.581948
chr18	1	32640381	78077248	0.418052
chr19	0	40181983	59128983	0.679565
chr19	1	18947000	59128983	0.320435
chr2	0	147969373	243199373	0.608428
chr2	1	95230000	243199373	0.391572
chr20	0	48940976	63025520	0.776526
chr20	1	14084544	63025520	0.223474
chr21	0	32648435	48129895	0.67834
chr21	1	15481460	48129895	0.32166
chr22	0	40834747	51304566	0.795928
chr22	1	10469819	51304566	0.204072
chr3	0	110841773	198022430	0.559744
chr3	1	87180657	198022430	0.440256
chr4	0	102704689	191154276	0.537287
chr4	1	88449587	191154276	0.462713
chr5	0	102537266	180915260	0.56677
chr5	1	78377994	180915260	0.43323
chr6	0	102378082	171115067	0.5983
chr6	1	68736985	171115067	0.4017
chr7	0	92273069	159138663	0.579828
chr7	1	66865594	159138663	0.420172
chr8	0	86177827	146364022	0.588791
chr8	1	60186195	146364022	0.411209
chr9	0	94094886	141213431	0.666331
chr9	1	47118545	141213431	0.333669
chrX	0	103312387	155270560	0.66537
chrX	1	51958173	155270560	0.33463
genome	0	1952149054	3095693983	0.630601
genome	1	1143544929	3095693983	0.369399
