784
7096
14437
7135
924
757
895
16752
4986
16025
19515
1095
22484
3455
13244
1753
1293
24373
2515
13650
10328
2996
1735
2499
3520
18120
11470
8180
9604
1097
1144
26923
9614
20314
3424
3104
1715
17243
24195
29841
25864
33844
37690
3129
1877
47400
54629
3832
5752
9551
102992
25491
46836
54977
33787
38389
6166
20015
26532
5753
19755
722
9993
6941
10
51130
4364
18281
11553
12446
652
10219
9055
16103
12655
8881
17668
5533
796
58120
43337
17111
1368
35715
1301
9421
19441
1313
7622
12541
11692
923
936
9461
15853
4355
8652
908
40888
287278
20345
59409
5350
19527
7471
14952
10273
1238
919
9563
21360
15911
844
10981
1255
1049
790
7485
30758
42593
16386
2694
7498
5079
7849
539
10277
1655
2357
1345
9137
8076
15764
6897
17506
4730
560
4359
21337
33680
5614
14989
24800
3094
8455
6922
13564
1260
18167
5327
630
14993
906
5784
5200
16529
6122
55698
1788
2331
1056
2984
8820
2594
337
8410
3530
36514
19402
7741
2030
79803
34644
20870
8841
23115
8778
7304
3195
41612
15824
18433
5539
47564
13054
28297
13013
30364
9437
12089
7371
10559
2800
33716
9285
16369
3967
23004
6814
22805
5971
13770
3807
19024
6677
41903
8199
19875
5534
19335
3026
40020
14735
18292
6983
64098
34150
41785
13834
64626
22461
41617
15779
38590
10501
31720
12137
42681
14066
49347
14338
38587
12479
30449
10063
35845
18509
18544
9082
9635
4802
33990
13189
49410
16950
20593
6139
26758
8826
13774
4952
8556
2298
18511
5608
41782
18066
15063
5073
39738
16941
8839
2871
15873
5386
22690
6768
46236
15632
16296
3998
23593
7683
23595
7740
19551
5244
59496
16670
22646
7617
40785
18439
70317
28367
23533
8368
11491
4090
33107
11029
44392
15957
19706
6269
21616
6189
29184
10432
17733
5773
55340
17393
53461
25721
54012
15275
45673
17765
225292
125119
40158
16020
56554
27615
18003
6360
24260
6409
27531
10411
2178
166
31518
11535
18741
6829
40209
12780
24760
6969
27304
11948
17505
6355
18789
7533
30349
9603
38353
8885
12134
3840
20768
8133
1915
86
33513
13960
2377
144
59195
26476
15912
5996
54810
9482
22295
4844
40324
7954
14310
2593
3951
19
41019
7173
3372
37
11959
1532
4345
32
32377
7708
17614
2916
11550
1122
34498
5818
3687
19
21781
3691
12569
4078
45437
7834
34148
6720
10964
2284
10172
1429
18885
3014
3495
40
51030
7255
34787
5716
45248
8142
45015
11332
36775
9194
8826
1519
6480
971
6897
562
10780
2297
42832
11563
66643
23978
42568
9948
41246
12347
9665
980
41950
6513
22367
5276
28358
3555
23464
7251
39636
8647
22594
5313
35526
8238
2727
48
19389
4666
48798
11013
24552
6041
34690
4967
48436
10459
49313
12599
25897
6427
77006
37922
44767
12037
27330
7617
3764
33
54723
14062
4377
23
46184
15627
29951
9265
55746
9878
4889
21
27061
5247
36628
10027
17926
6362
21873
4259
4683
312
4120
46
2979
35
3793
31
37928
8959
26134
5081
43990
8291
39959
8063
20638
5211
38321
8112
21499
4706
17665
3541
20951
4420
24328
4819
27736
5856
4963
308
43887
12201
61951
17595
22044
3553
22790
1216
3347
11
42880
6854
33027
4891
7402
1023
21759
3088
27030
5021
71896
10049
2865
16
118
10
30556
3430
2147
141
15
94
7359
7236
66
13
15638
4370
5523
17
3795
14
3438
1744
17
2366
30
9239
153
3304
84
4105
3111
104
12059
2783
11315
2356
19633
3486
28741
6520
12777
1863
2250
67
28373
3745
2134
91
31775
7453
31082
7962
21856
7899
3053
111
19522
6133
44855
10565
2054
101
4426
739
3396
97
2199
108
35203
7689
16667
4276
37121
12379
26
11749
13
2002
10257
14
2970
17
9109
3788
1844
9665
3166
20862
4532
18212
4992
13764
2973
29406
6393
11362
14
6993
15100
13
1442
15
7156
4073
12
1891
15
68
2327
103
1679
45
15751
4411
41208
11708
123
10454
102
12339
13104
72
2099
207
13941
919
2210
107
32765
10275
14262
4274
18045
4673
23741
6498
20968
5928
42082
11666
23106
7373
28810
10938
12154
3305
22706
3509
7219
1841
25559
7622
2549
89
9808
2248
2017
38
9464
2338
33547
10797
3783
47
14395
3389
3692
84
13194
1028
3294
104
17474
2982
4768
631
32794
4783
13091
2328
3277
242
29831
5938
56288
13648
7528
19894
34246
14683
5609
26195
21061
32910
5613
2234
1679
4471
7406
942
531
3620
704
4354
14812
1281
1243
236
1762
224
50385
1556
9322
35904
1936
2143
54931
98139
2841
80035
6241
91772
42073
1000
4454
10781
32366
9590
7595
23614
13079
1213
18270
41743
33306
2967
29780
33908
34110
31816
1261
42491
1351
1415
10332
82604
9351
1681
41035
1189
90645
29914
4893
11299
2012
5515
189417
40370
1656
4264
31470
818
48153
3197
412
9243
8881
28793
27071
51340
41922
2473
2796
18723
79578
4433
9709
70027
413667
11660
21480
4176
11106
3958
9159
16415
15338
15701
2847
13495
2308
26137
18214
301373
23092
33604
20814
5110
11179
22757
34161
15952
11055
14549
18434
15858
9952
32181
32231
34163
26356
20763
11788
18518
17482
5558
23477
21151
290115
4360
42379
12012
6823
15791
17344
15905
22071
18983
11285
3859
13669
12756
35052
13832
4698
12160
6130
2765
69302
12367
2805
20145
22067
10336
117040
3097
9205
30765
17044
21290
2030
40711
176018
14950
21503
15230
2029
36757
153268
17970
24832
41156
1964
26499
98648
22664
20277
1750
15772
16825
3653
21107
9406
17549
1884
12756
8003
12931
4101
16702
8597
120971
14238
23471
12901
6540
10345
34759
21379
19428
35496
7125
7467
19055
33486
24084
43938
20378
25305
21838
43822
37160
18323
1484
15024
16008
47367
5739
20268
11898
9126
93234
10683
12220
18678
12611
23741
5110
23224
5647
5359
31697
24795
12519
15223
29349
22580
3388
21226
15089
27822
28794
8247
22328
13737
20454
13949
20800
55872
168116
11155
39271
52777
3785
10971
869
8347
