chr1	0	220095951	249250621	0.883031
chr1	1	29154670	249250621	0.116969
chr10	0	118617528	135534747	0.875182
chr10	1	16917219	135534747	0.124818
chr11	0	117758240	135006516	0.872241
chr11	1	17248276	135006516	0.127759
chr12	0	118316215	133851895	0.883934
chr12	1	15535680	133851895	0.116066
chr13	0	105488951	115169878	0.915942
chr13	1	9680927	115169878	0.0840578
chr14	0	96713693	107349540	0.900923
chr14	1	10635847	107349540	0.0990768
chr15	0	91600586	102531392	0.893391
chr15	1	10930806	102531392	0.106609
chr16	0	78934744	90354753	0.873609
chr16	1	11420009	90354753	0.126391
chr17	0	68713820	81195210	0.846279
chr17	1	12481390	81195210	0.153721
chr18	0	69178287	78077248	0.886024
chr18	1	8898961	78077248	0.113976
chr19	0	50740973	59128983	0.85814
chr19	1	8388010	59128983	0.14186
chr2	0	215689259	243199373	0.886882
chr2	1	27510114	243199373	0.113118
chr20	0	53505218	63025520	0.848945
chr20	1	9520302	63025520	0.151055
chr21	0	44488232	48129895	0.924337
chr21	1	3641663	48129895	0.0756632
chr22	0	45280185	51304566	0.882576
chr22	1	6024381	51304566	0.117424
chr3	0	175759516	198022430	0.887574
chr3	1	22262914	198022430	0.112426
chr4	0	174127376	191154276	0.910926
chr4	1	17026900	191154276	0.0890741
chr5	0	161862998	180915260	0.89469
chr5	1	19052262	180915260	0.10531
chr6	0	152076354	171115067	0.888737
chr6	1	19038713	171115067	0.111263
chr7	0	141525243	159138663	0.88932
chr7	1	17613420	159138663	0.11068
chr8	0	129786614	146364022	0.886739
chr8	1	16577408	146364022	0.113261
chr9	0	126706746	141213431	0.897271
chr9	1	14506685	141213431	0.102729
chrX	0	152881386	155270560	0.984613
chrX	1	2389174	155270560	0.0153872
genome	0	2769238252	3095693983	0.894545
genome	1	326455731	3095693983	0.105455
