chr1	0	245503426	249250621	0.984966
chr1	1	3747195	249250621	0.0150338
chr10	0	133627064	135534747	0.985925
chr10	1	1907683	135534747	0.0140752
chr11	0	132602849	135006516	0.982196
chr11	1	2403667	135006516	0.0178041
chr12	0	131836435	133851895	0.984943
chr12	1	2015460	133851895	0.0150574
chr13	0	114273218	115169878	0.992214
chr13	1	896660	115169878	0.00778554
chr14	0	105902758	107349540	0.986523
chr14	1	1446782	107349540	0.0134773
chr15	0	101056732	102531392	0.985618
chr15	1	1474660	102531392	0.0143825
chr16	0	88647278	90354753	0.981103
chr16	1	1707475	90354753	0.0188975
chr17	0	78729983	81195210	0.969638
chr17	1	2465227	81195210	0.0303617
chr18	0	77258935	78077248	0.989519
chr18	1	818313	78077248	0.0104808
chr19	0	56966374	59128983	0.963426
chr19	1	2162609	59128983	0.0365744
chr2	0	240682630	243199373	0.989652
chr2	1	2516743	243199373	0.0103485
chr20	0	61793552	63025520	0.980453
chr20	1	1231968	63025520	0.0195471
chr21	0	47569320	48129895	0.988353
chr21	1	560575	48129895	0.0116471
chr22	0	50228091	51304566	0.979018
chr22	1	1076475	51304566	0.020982
chr3	0	195983310	198022430	0.989703
chr3	1	2039120	198022430	0.0102974
chr4	0	189827768	191154276	0.993061
chr4	1	1326508	191154276	0.00693946
chr5	0	179258944	180915260	0.990845
chr5	1	1656316	180915260	0.0091552
chr6	0	169083142	171115067	0.988125
chr6	1	2031925	171115067	0.0118746
chr7	0	157198262	159138663	0.987807
chr7	1	1940401	159138663	0.0121931
chr8	0	144623622	146364022	0.988109
chr8	1	1740400	146364022	0.0118909
chr9	0	139339019	141213431	0.986726
chr9	1	1874412	141213431	0.0132736
chrX	0	155021096	155270560	0.998393
chrX	1	249464	155270560	0.00160664
genome	0	3056403945	3095693983	0.987308
genome	1	39290038	3095693983	0.0126918
