chr1	0	246292089	249250621	0.98813
chr1	1	2958532	249250621	0.0118697
chr10	0	134321920	135534747	0.991051
chr10	1	1212827	135534747	0.00894846
chr11	0	133251883	135006516	0.987003
chr11	1	1754633	135006516	0.0129967
chr12	0	132420772	133851895	0.989308
chr12	1	1431123	133851895	0.0106918
chr13	0	114700737	115169878	0.995926
chr13	1	469141	115169878	0.00407347
chr14	0	106304906	107349540	0.990269
chr14	1	1044634	107349540	0.00973115
chr15	0	101578165	102531392	0.990703
chr15	1	953227	102531392	0.00929693
chr16	0	88472897	90354753	0.979173
chr16	1	1881856	90354753	0.0208274
chr17	0	78752656	81195210	0.969918
chr17	1	2442554	81195210	0.0300825
chr18	0	77659149	78077248	0.994645
chr18	1	418099	78077248	0.00535494
chr19	0	55813541	59128983	0.943929
chr19	1	3315442	59128983	0.0560714
chr2	0	241433204	243199373	0.992738
chr2	1	1766169	243199373	0.00726223
chr20	0	62065122	63025520	0.984762
chr20	1	960398	63025520	0.0152382
chr21	0	47671356	48129895	0.990473
chr21	1	458539	48129895	0.00952711
chr22	0	50020203	51304566	0.974966
chr22	1	1284363	51304566	0.0250341
chr3	0	196647428	198022430	0.993056
chr3	1	1375002	198022430	0.00694367
chr4	0	190281360	191154276	0.995433
chr4	1	872916	191154276	0.00456655
chr5	0	179693450	180915260	0.993246
chr5	1	1221810	180915260	0.00675349
chr6	0	169733089	171115067	0.991924
chr6	1	1381978	171115067	0.00807631
chr7	0	157720713	159138663	0.99109
chr7	1	1417950	159138663	0.00891015
chr8	0	145321290	146364022	0.992876
chr8	1	1042732	146364022	0.00712424
chr9	0	139755694	141213431	0.989677
chr9	1	1457737	141213431	0.0103229
chrX	0	155027204	155270560	0.998433
chrX	1	243356	155270560	0.0015673
genome	0	3064328965	3095693983	0.989868
genome	1	31365018	3095693983	0.0101318
