chr1	0	247396407	249250621	0.992561
chr1	1	1854214	249250621	0.00743915
chr10	0	134787282	135534747	0.994485
chr10	1	747465	135534747	0.00551493
chr11	0	133941209	135006516	0.992109
chr11	1	1065307	135006516	0.00789078
chr12	0	132786206	133851895	0.992038
chr12	1	1065689	133851895	0.0079617
chr13	0	114754139	115169878	0.99639
chr13	1	415739	115169878	0.00360979
chr14	0	106769224	107349540	0.994594
chr14	1	580316	107349540	0.00540585
chr15	0	101911149	102531392	0.993951
chr15	1	620243	102531392	0.0060493
chr16	0	89529985	90354753	0.990872
chr16	1	824768	90354753	0.00912811
chr17	0	80120437	81195210	0.986763
chr17	1	1074773	81195210	0.0132369
chr18	0	77796304	78077248	0.996402
chr18	1	280944	78077248	0.00359828
chr19	0	58005472	59128983	0.980999
chr19	1	1123511	59128983	0.019001
chr2	0	241855490	243199373	0.994474
chr2	1	1343883	243199373	0.00552585
chr20	0	62527709	63025520	0.992101
chr20	1	497811	63025520	0.00789856
chr21	0	47942530	48129895	0.996107
chr21	1	187365	48129895	0.0038929
chr22	0	50891506	51304566	0.991949
chr22	1	413060	51304566	0.00805113
chr3	0	196980799	198022430	0.99474
chr3	1	1041631	198022430	0.00526017
chr4	0	190472219	191154276	0.996432
chr4	1	682057	191154276	0.0035681
chr5	0	180034955	180915260	0.995134
chr5	1	880305	180915260	0.00486584
chr6	0	169929578	171115067	0.993072
chr6	1	1185489	171115067	0.00692802
chr7	0	158203661	159138663	0.994125
chr7	1	935002	159138663	0.00587539
chr8	0	145746798	146364022	0.995783
chr8	1	617224	146364022	0.00421705
chr9	0	140492776	141213431	0.994897
chr9	1	720655	141213431	0.0051033
chrX	0	155084821	155270560	0.998804
chrX	1	185739	155270560	0.00119623
genome	0	3077350793	3095693983	0.994075
genome	1	18343190	3095693983	0.00592539
