chr1	0	224640442	249250621	0.901263
chr1	1	24610179	249250621	0.0987367
chr10	0	130814522	135534747	0.965173
chr10	1	4720225	135534747	0.0348267
chr11	0	129689418	135006516	0.960616
chr11	1	5317098	135006516	0.039384
chr12	0	129506216	133851895	0.967534
chr12	1	4345679	133851895	0.0324663
chr13	0	95554109	115169878	0.82968
chr13	1	19615769	115169878	0.17032
chr14	0	88069407	107349540	0.820399
chr14	1	19280133	107349540	0.179601
chr15	0	81638211	102531392	0.796226
chr15	1	20893181	102531392	0.203773
chr16	0	78254013	90354753	0.866075
chr16	1	12100740	90354753	0.133925
chr17	0	77733018	81195210	0.95736
chr17	1	3462192	81195210	0.0426404
chr18	0	74574210	78077248	0.955134
chr18	1	3503038	78077248	0.0448663
chr19	0	54669013	59128983	0.924572
chr19	1	4459970	59128983	0.0754278
chr2	0	237748724	243199373	0.977588
chr2	1	5450649	243199373	0.0224123
chr20	0	59338907	63025520	0.941506
chr20	1	3686613	63025520	0.058494
chr21	0	34589908	48129895	0.718678
chr21	1	13539987	48129895	0.281322
chr22	0	34698005	51304566	0.676314
chr22	1	16606561	51304566	0.323686
chr3	0	194456214	198022430	0.981991
chr3	1	3566216	198022430	0.0180092
chr4	0	187313717	191154276	0.979909
chr4	1	3840559	191154276	0.0200914
chr5	0	176883716	180915260	0.977716
chr5	1	4031544	180915260	0.0222842
chr6	0	166971415	171115067	0.975784
chr6	1	4143652	171115067	0.0242156
chr7	0	153989717	159138663	0.967645
chr7	1	5148946	159138663	0.0323551
chr8	0	141717514	146364022	0.968254
chr8	1	4646508	146364022	0.0317462
chr9	0	119546746	141213431	0.846568
chr9	1	21666685	141213431	0.153432
chrX	0	47322211	155270560	0.304773
chrX	1	107948349	155270560	0.695227
genome	0	2779109510	3095693983	0.897734
genome	1	316584473	3095693983	0.102266
