name	value
distribution	asinh_norm
dont_train_filename	train_results/auxiliary/dont_train.list
input_master_filename	train_results/params/input.master
len_seg_strength	0
num_mix_components	1
num_segs	10
num_subsegs	1
output_label	seg
params_filename	train_results/params/params.params
resolution	100
ruler_scale	1000
seg_table_filename	seg_table.tsv
segtransition_weight_scale	1.0
structure_filename	custom-structure.str
track_specs	amniotic_epithelial_cell_annot
track_specs	astrocyte_annot
track_specs	bladder_annot
track_specs	brain_annot
track_specs	cardiac_fibroblast_annot
track_specs	epithelial_cell_of_esophagus_annot
track_specs	epithelial_cell_of_prostate_annot
track_specs	eye_annot
track_specs	fibroblast_of_gingiva_annot
track_specs	fibroblast_of_peridontal_ligament_annot
track_specs	fibroblast_of_pulmonary_artery_annot
track_specs	fibroblast_of_the_conjunctiva_annot
track_specs	heart_annot
track_specs	hepatic_stellate_cell_annot
track_specs	hepatocyte_annot
track_specs	iris_pigment_epithelial_cell_annot
track_specs	keratinocyte_annot
track_specs	kidney_epithelial_cell_annot
track_specs	kidney_annot
track_specs	lung_annot
track_specs	mammary_epithelial_cell_annot
track_specs	myoblast_annot
track_specs	neural_stem_cell_annot
track_specs	osteoblast_annot
track_specs	placenta_annot
track_specs	retinal_pigment_epithelial_cell_annot
track_specs	skeletal_muscle_cell_annot
track_specs	skin_fibroblast_annot
track_specs	spinal_cord_annot
track_specs	stromal_cell_annot
track_specs	thyroid_gland_annot
track_specs	tongue_annot
track_specs	umbilical_cord_annot
track_specs	uterus_annot
track_specs	stomach_score
