"","amniotic_epithelial_cell_annot_component0","astrocyte_annot_component0","bladder_annot_component0","brain_annot_component0","cardiac_fibroblast_annot_component0","epithelial_cell_of_esophagus_annot_component0","epithelial_cell_of_prostate_annot_component0","eye_annot_component0","fibroblast_of_gingiva_annot_component0","fibroblast_of_peridontal_ligament_annot_component0","fibroblast_of_pulmonary_artery_annot_component0","fibroblast_of_the_conjunctiva_annot_component0","heart_annot_component0","hepatic_stellate_cell_annot_component0","hepatocyte_annot_component0","iris_pigment_epithelial_cell_annot_component0","keratinocyte_annot_component0","kidney_annot_component0","kidney_epithelial_cell_annot_component0","lung_annot_component0","mammary_epithelial_cell_annot_component0","myoblast_annot_component0","neural_stem_cell_annot_component0","osteoblast_annot_component0","placenta_annot_component0","retinal_pigment_epithelial_cell_annot_component0","skeletal_muscle_cell_annot_component0","skin_fibroblast_annot_component0","spinal_cord_annot_component0","stomach_annot_component0","stromal_cell_annot_component0","thyroid_gland_annot_component0","tongue_annot_component0","umbilical_cord_annot_component0","uterus_annot_component0"
"0",0,0,0,0,0,0,0,0,0,0,0,0,0,0,0,0,0,0,0.000531348932782686,0,0,0,0,0.000531348932782686,0,0.000492107218991711,0,0,0,0.503689163341716,0,0,0,0,0
"1",0.366666558462783,0.416766236784691,0.383333475348095,0.432202001302832,0.400000121723697,0.300000142014761,0.366666795161615,0.433333448297124,0.400000121723697,0.400000121723697,0.300000142014761,0.366666761339392,0.495238169209364,0.639999712179349,0.450000094672726,0.349999878264957,0.383333475348095,0.476190536918837,0.416666768110644,0.450000094672726,0.385894676455582,0.416766236784691,0.366666761339392,0.450000094672726,0.383333475348095,0.385894676455582,0.385894676455582,0.370458911937441,0.555555640723996,0.985520432359888,0.385894676455582,0.476190610526933,0.438095383469378,1,0.450000094672726
"2",0,0,0,0,0,0,0,0,0,0,0,0,0,0,0,0,0,0,0,0,0,0,0,0,0,0,0,0,0,0.328293782453723,0,0,0,0,0
"3",0,0,0,0,0,0,0,0,0,0,0,0,0,0,0,0,0,0,0,0,0,0,0,0,0,0,0,0,0,0,0,0,0,0,0
"4",0.874999966189123,0.926146998008512,1,0.926146998008512,0.750000067621755,0.875000033810877,1,0.625000101443978,0.875000101443978,1,0.500000033810877,0.25,1,1,1,0.500000033810877,1,1,1,1,0.926146998008512,0.926146998008512,0.25,1,0.374999966189123,0.926146998008512,0.926146998008512,0.926146998008512,1,0.647899183981747,0.926146998008512,1,1,0.416666901483436,1
"5",1,0.926146998008512,0,0.926146998008512,1,1,0,1,1,1,1,1,0,0,1,1,1,0,1,1,0.926146998008512,0.926146998008512,1,1,1,0.926146998008512,0.926146998008512,0.926146998008512,0,0.257748897286178,0.926146998008512,0,0,0,0
"6",0,0,0,0.926146998008512,0,0,0,0,0,0,0,0,0.285714213948727,0,0.250000084538539,0,0,0,0,0,0.463073499004256,0,0,0.499999932366899,0,0.231536686863935,0,0,0,0.398024219443842,0.231536749502128,0,0,0,0
"7",0.285714271227151,0,0.142857152519014,0.926146998008512,0.285714271227151,0,0.571428610076057,0.42857142373482,0.142857135613576,0,0,0,0.326530596472533,0,0.714285694961971,0,0.285714271227151,0.489795933349797,0.285714271227151,0.857142847480986,0.529226891798117,0.661533552109453,0.142857135613576,0.714285694961971,0,0.529226829159924,0.264613477212901,0.132306707292608,0.571428513458428,0.797707351742672,0.529226829159924,0.489795931766,0.163265310855853,0.476190712357052,0.285714271227151
"8",0.375,1,0.375000033810877,1,0.375000033810877,0,0.954742169263034,0.625000033810877,0.875000033810877,0.875000033810877,0.249999983094561,0.124999991547281,0.857142835051172,0,0.999999932366899,0,0.625000033810877,0.428571417525586,0.829742135452157,0.750000067621755,1,1,0.375,0.999999932366899,0,1,1,1,1,0.57986134502606,1,0.857142967545726,0.285714274674,0,0.875000033810877
"9",0,0,0,0,0,0,0,0,0,0,0,0,0,0,0,0,0.00318471323608223,0,0,0,0,0,0,0.00318471323608223,0,0,0.00294951260311553,0,0,1,0.00294951260311553,0,0,0,0
