SRR1780163
SRR1780165
SRR1780167
SRR1780169
SRR1780171
SRR1780173
SRR1780175
SRR1780177
SRR1780179
SRR1780181
SRR1780183
SRR1780185
SRR1780187
SRR1780189
SRR1780191
SRR1780193
SRR1780195
SRR1780197
SRR1780199
SRR1780201
SRR1780203
SRR1780205
SRR1780207
SRR1780209
SRR1780211
SRR1780213
SRR1780215
SRR1780217
SRR1780219
SRR1780221
SRR1780223
SRR1780225
SRR1780227
SRR1780229
SRR1780231
SRR1780233
SRR1780235
SRR1780237
SRR1780239
SRR1780241
SRR1780243
SRR1780245
SRR1780247
SRR1780249
SRR1780251
SRR1780253
SRR1780255
SRR1780257
SRR1780259
SRR1780261
SRR1780263
SRR1780265
SRR1780267
SRR1780269
SRR1780271
SRR1780273
SRR1780275
SRR1780277
SRR1780279
SRR1780281
SRR1780283
SRR1780285
SRR1780287
SRR1780289
SRR1780291
SRR1780293
SRR1780295
SRR1780297
SRR1780299
SRR1780301
SRR1780303
SRR1780305
SRR1780307
SRR1780309
SRR1780311
SRR1780313
SRR1780315
SRR1780317
SRR1780319
SRR1780321
SRR1780323
SRR1780325
SRR1780327
SRR1780329
SRR1780331
SRR1780333
SRR1780335
SRR1780337
SRR1780339
SRR1780341
SRR1780343
SRR1780345
SRR1780347
SRR1780349
SRR1780351
SRR1780353
SRR1780355
SRR1780357
SRR1780359
SRR1780361
SRR1780363
SRR1780365
SRR1780367
SRR1780369
SRR1780371
SRR1780373
SRR1780375
SRR1780377
SRR1780379
SRR1780381
SRR1780383
SRR1780385
SRR1780387
SRR1780389
SRR1780391
SRR1780393
SRR1780395
SRR1780397
SRR1780399
SRR1780401
SRR1780403
SRR1780405
SRR1780407
SRR1780409
SRR1780411
SRR1780413
SRR1780415
SRR1780417
SRR1780419
SRR1780421
SRR1780423
SRR1780425
SRR1780427
SRR1780429
SRR1780431
SRR1780433
SRR1780435
SRR1780437
SRR1780439
SRR1780441
SRR1780443
SRR1780445
SRR1780447
SRR1780449
SRR1780451
SRR1780453
SRR1780455
SRR1780457
SRR1780459
SRR1780461
SRR1780463
SRR1780465
SRR1780467
SRR1780469
SRR1780471
SRR1780473
SRR1780475
SRR1780477
SRR1780479
SRR1780481
SRR1780483
SRR1780485
SRR1780487
SRR1780489
SRR1780491
SRR1780493
SRR1780495
SRR1780497
SRR1780499
SRR1780501
SRR1780503
SRR1780505
SRR1780507
SRR1780509
SRR1780511
SRR1780513
SRR1780515
SRR1780517
SRR1780519
SRR1780521
SRR1780523
SRR1780525
SRR1780527
SRR1780529
SRR1780531
SRR1780533
SRR1780535
SRR1780537
SRR1780539
SRR1780541
SRR1780543
SRR1780545
SRR1780547
SRR1780549
SRR1780551
SRR1780553
SRR1780555
SRR1780557
SRR1780559
SRR1780561
SRR1780563
SRR1780565
SRR1780567
SRR1780569
SRR1780571
SRR1780573
SRR1780575
SRR1780577
SRR1780579
SRR1780581
SRR1780583
SRR1780585
SRR1780587
SRR1780589
SRR1780591
SRR1780593
SRR1780595
SRR1780597
SRR1780599
SRR1780601
SRR1780603
SRR1780605
SRR1780607
SRR1780609
SRR1780611
SRR1780613
SRR1780615
SRR1780617
SRR1780619
SRR1780621
SRR1780623
SRR1780625
SRR1780627
SRR1780629
SRR1780631
SRR1780633
SRR1780635
SRR1780637
SRR1780639
SRR1780641
SRR1780643
SRR1780645
SRR1780647
SRR1780649
SRR1780651
SRR1780653
SRR1780655
SRR1780657
SRR1780659
SRR1780661
SRR1780663
SRR1780665
SRR1780667
SRR1780669
SRR1780671
SRR1780673
SRR1780675
SRR1780677
SRR1780679
SRR1780681
SRR1780683
SRR1780685
SRR1780687
SRR1780689
SRR1780691
SRR1780693
SRR1780695
SRR1780697
SRR1780699
SRR1780701
SRR1780703
SRR1780705
SRR1780707
SRR1780709
SRR1780711
SRR1780713
SRR1780715
SRR1780717
SRR1780719
SRR1780721
SRR1780723
SRR1780725
SRR1780727
SRR1780729
SRR1780731
SRR1780733
SRR1780735
SRR1780737
