chr17	0	67169355	81195210	0.827258
chr17	1	9907980	81195210	0.122027
chr17	2	1898658	81195210	0.0233839
chr17	3	639966	81195210	0.00788182
chr17	4	329393	81195210	0.0040568
chr17	5	210054	81195210	0.00258702
chr17	6	146176	81195210	0.0018003
chr17	7	107599	81195210	0.00132519
chr17	8	82443	81195210	0.00101537
chr17	9	65861	81195210	0.000811144
chr17	10	54688	81195210	0.000673537
chr17	11	45283	81195210	0.000557705
chr17	12	38661	81195210	0.000476149
chr17	13	32869	81195210	0.000404815
chr17	14	28878	81195210	0.000355661
chr17	15	25360	81195210	0.000312334
chr17	16	22557	81195210	0.000277812
chr17	17	20891	81195210	0.000257294
chr17	18	18947	81195210	0.000233351
chr17	19	17389	81195210	0.000214163
chr17	20	16136	81195210	0.000198731
chr17	21	14433	81195210	0.000177757
chr17	22	13368	81195210	0.00016464
chr17	23	12339	81195210	0.000151967
chr17	24	11327	81195210	0.000139503
chr17	25	10783	81195210	0.000132803
chr17	26	10290	81195210	0.000126732
chr17	27	9592	81195210	0.000118135
chr17	28	9167	81195210	0.000112901
chr17	29	8552	81195210	0.000105326
chr17	30	8188	81195210	0.000100843
chr17	31	7851	81195210	9.66929e-05
chr17	32	7373	81195210	9.08059e-05
chr17	33	6770	81195210	8.33793e-05
chr17	34	6686	81195210	8.23448e-05
chr17	35	6230	81195210	7.67287e-05
chr17	36	5887	81195210	7.25043e-05
chr17	37	5676	81195210	6.99056e-05
chr17	38	5231	81195210	6.4425e-05
chr17	39	5097	81195210	6.27746e-05
chr17	40	4846	81195210	5.96833e-05
chr17	41	4641	81195210	5.71585e-05
chr17	42	4407	81195210	5.42766e-05
chr17	43	4224	81195210	5.20228e-05
chr17	44	4137	81195210	5.09513e-05
chr17	45	4018	81195210	4.94857e-05
chr17	46	3818	81195210	4.70225e-05
chr17	47	3637	81195210	4.47933e-05
chr17	48	3547	81195210	4.36848e-05
chr17	49	3352	81195210	4.12832e-05
chr17	50	3282	81195210	4.04211e-05
chr17	51	3215	81195210	3.95959e-05
chr17	52	3036	81195210	3.73914e-05
chr17	53	2976	81195210	3.66524e-05
chr17	54	2864	81195210	3.5273e-05
chr17	55	2844	81195210	3.50267e-05
chr17	56	2744	81195210	3.37951e-05
chr17	57	2611	81195210	3.21571e-05
chr17	58	2609	81195210	3.21324e-05
chr17	59	2560	81195210	3.1529e-05
chr17	60	2454	81195210	3.02235e-05
chr17	61	2382	81195210	2.93367e-05
chr17	62	2163	81195210	2.66395e-05
chr17	63	2138	81195210	2.63316e-05
chr17	64	2036	81195210	2.50754e-05
chr17	65	2015	81195210	2.48167e-05
chr17	66	1877	81195210	2.31171e-05
chr17	67	1933	81195210	2.38068e-05
chr17	68	1859	81195210	2.28954e-05
chr17	69	1808	81195210	2.22673e-05
chr17	70	1652	81195210	2.0346e-05
chr17	71	1688	81195210	2.07894e-05
chr17	72	1724	81195210	2.12328e-05
chr17	73	1682	81195210	2.07155e-05
chr17	74	1582	81195210	1.94839e-05
chr17	75	1512	81195210	1.86218e-05
chr17	76	1470	81195210	1.81045e-05
chr17	77	1419	81195210	1.74764e-05
chr17	78	1460	81195210	1.79814e-05
chr17	79	1397	81195210	1.72054e-05
chr17	80	1326	81195210	1.6331e-05
chr17	81	1308	81195210	1.61093e-05
chr17	82	1393	81195210	1.71562e-05
chr17	83	1159	81195210	1.42742e-05
chr17	84	1105	81195210	1.36092e-05
chr17	85	1074	81195210	1.32274e-05
chr17	86	1015	81195210	1.25007e-05
chr17	87	990	81195210	1.21928e-05
chr17	88	1020	81195210	1.25623e-05
chr17	89	967	81195210	1.19096e-05
chr17	90	1000	81195210	1.2316e-05
chr17	91	936	81195210	1.15278e-05
chr17	92	942	81195210	1.16017e-05
chr17	93	928	81195210	1.14292e-05
chr17	94	856	81195210	1.05425e-05
chr17	95	923	81195210	1.13677e-05
chr17	96	867	81195210	1.0678e-05
chr17	97	805	81195210	9.91438e-06
chr17	98	770	81195210	9.48332e-06
chr17	99	769	81195210	9.471e-06
chr17	100	708	81195210	8.71973e-06
chr17	101	716	81195210	8.81825e-06
chr17	102	686	81195210	8.44877e-06
chr17	103	640	81195210	7.88224e-06
chr17	104	687	81195210	8.46109e-06
chr17	105	631	81195210	7.77139e-06
chr17	106	604	81195210	7.43886e-06
chr17	107	612	81195210	7.53739e-06
chr17	108	598	81195210	7.36497e-06
chr17	109	599	81195210	7.37728e-06
chr17	110	560	81195210	6.89696e-06
chr17	111	514	81195210	6.33042e-06
chr17	112	520	81195210	6.40432e-06
chr17	113	486	81195210	5.98557e-06
chr17	114	509	81195210	6.26884e-06
chr17	115	480	81195210	5.91168e-06
chr17	116	447	81195210	5.50525e-06
chr17	117	452	81195210	5.56683e-06
chr17	118	483	81195210	5.94863e-06
chr17	119	391	81195210	4.81556e-06
chr17	120	374	81195210	4.60618e-06
chr17	121	389	81195210	4.79092e-06
chr17	122	408	81195210	5.02493e-06
chr17	123	386	81195210	4.75398e-06
chr17	124	384	81195210	4.72934e-06
chr17	125	360	81195210	4.43376e-06
chr17	126	346	81195210	4.26134e-06
chr17	127	331	81195210	4.0766e-06
chr17	128	346	81195210	4.26134e-06
chr17	129	330	81195210	4.06428e-06
chr17	130	292	81195210	3.59627e-06
chr17	131	295	81195210	3.63322e-06
chr17	132	289	81195210	3.55932e-06
chr17	133	296	81195210	3.64554e-06
chr17	134	252	81195210	3.10363e-06
chr17	135	241	81195210	2.96816e-06
chr17	136	283	81195210	3.48543e-06
chr17	137	244	81195210	3.0051e-06
chr17	138	221	81195210	2.72184e-06
chr17	139	262	81195210	3.22679e-06
chr17	140	211	81195210	2.59868e-06
chr17	141	226	81195210	2.78342e-06
chr17	142	244	81195210	3.0051e-06
chr17	143	228	81195210	2.80805e-06
chr17	144	223	81195210	2.74647e-06
chr17	145	228	81195210	2.80805e-06
chr17	146	183	81195210	2.25383e-06
chr17	147	185	81195210	2.27846e-06
chr17	148	212	81195210	2.61099e-06
chr17	149	178	81195210	2.19225e-06
chr17	150	171	81195210	2.10604e-06
chr17	151	177	81195210	2.17993e-06
chr17	152	190	81195210	2.34004e-06
chr17	153	137	81195210	1.68729e-06
chr17	154	161	81195210	1.98288e-06
chr17	155	183	81195210	2.25383e-06
chr17	156	159	81195210	1.95824e-06
chr17	157	163	81195210	2.00751e-06
chr17	158	144	81195210	1.7735e-06
chr17	159	128	81195210	1.57645e-06
chr17	160	117	81195210	1.44097e-06
chr17	161	135	81195210	1.66266e-06
chr17	162	129	81195210	1.58876e-06
chr17	163	131	81195210	1.6134e-06
chr17	164	127	81195210	1.56413e-06
chr17	165	118	81195210	1.45329e-06
chr17	166	122	81195210	1.50255e-06
chr17	167	114	81195210	1.40402e-06
chr17	168	103	81195210	1.26855e-06
chr17	169	98	81195210	1.20697e-06
chr17	170	87	81195210	1.07149e-06
chr17	171	84	81195210	1.03454e-06
chr17	172	97	81195210	1.19465e-06
chr17	173	66	81195210	8.12856e-07
chr17	174	77	81195210	9.48332e-07
chr17	175	87	81195210	1.07149e-06
chr17	176	79	81195210	9.72964e-07
chr17	177	71	81195210	8.74436e-07
chr17	178	51	81195210	6.28116e-07
chr17	179	61	81195210	7.51276e-07
chr17	180	54	81195210	6.65064e-07
chr17	181	51	81195210	6.28116e-07
chr17	182	48	81195210	5.91168e-07
chr17	183	61	81195210	7.51276e-07
chr17	184	59	81195210	7.26644e-07
chr17	185	38	81195210	4.68008e-07
chr17	186	45	81195210	5.5422e-07
chr17	187	39	81195210	4.80324e-07
chr17	188	49	81195210	6.03484e-07
chr17	189	31	81195210	3.81796e-07
chr17	190	31	81195210	3.81796e-07
chr17	191	33	81195210	4.06428e-07
chr17	192	31	81195210	3.81796e-07
chr17	193	26	81195210	3.20216e-07
chr17	194	25	81195210	3.079e-07
chr17	195	22	81195210	2.70952e-07
chr17	196	19	81195210	2.34004e-07
chr17	197	11	81195210	1.35476e-07
chr17	198	25	81195210	3.079e-07
chr17	199	27	81195210	3.32532e-07
chr17	200	30	81195210	3.6948e-07
chr17	201	19	81195210	2.34004e-07
chr17	202	26	81195210	3.20216e-07
chr17	203	24	81195210	2.95584e-07
chr17	204	17	81195210	2.09372e-07
chr17	205	19	81195210	2.34004e-07
chr17	206	25	81195210	3.079e-07
chr17	207	19	81195210	2.34004e-07
chr17	208	20	81195210	2.4632e-07
chr17	209	9	81195210	1.10844e-07
chr17	210	13	81195210	1.60108e-07
chr17	211	25	81195210	3.079e-07
chr17	212	20	81195210	2.4632e-07
chr17	213	15	81195210	1.8474e-07
chr17	214	10	81195210	1.2316e-07
chr17	215	15	81195210	1.8474e-07
chr17	216	10	81195210	1.2316e-07
chr17	217	13	81195210	1.60108e-07
chr17	218	14	81195210	1.72424e-07
chr17	219	13	81195210	1.60108e-07
chr17	220	17	81195210	2.09372e-07
chr17	221	12	81195210	1.47792e-07
chr17	222	9	81195210	1.10844e-07
chr17	223	12	81195210	1.47792e-07
chr17	224	10	81195210	1.2316e-07
chr17	225	11	81195210	1.35476e-07
chr17	226	17	81195210	2.09372e-07
chr17	227	12	81195210	1.47792e-07
chr17	228	9	81195210	1.10844e-07
chr17	229	9	81195210	1.10844e-07
chr17	230	10	81195210	1.2316e-07
chr17	231	3	81195210	3.6948e-08
chr17	232	7	81195210	8.6212e-08
chr17	233	4	81195210	4.9264e-08
chr17	234	3	81195210	3.6948e-08
chr17	235	10	81195210	1.2316e-07
chr17	236	5	81195210	6.158e-08
chr17	237	6	81195210	7.3896e-08
chr17	238	7	81195210	8.6212e-08
chr17	239	11	81195210	1.35476e-07
chr17	240	9	81195210	1.10844e-07
chr17	241	12	81195210	1.47792e-07
chr17	242	1	81195210	1.2316e-08
chr17	243	7	81195210	8.6212e-08
chr17	244	7	81195210	8.6212e-08
chr17	245	4	81195210	4.9264e-08
chr17	246	4	81195210	4.9264e-08
chr17	247	8	81195210	9.8528e-08
chr17	248	2	81195210	2.4632e-08
chr17	249	4	81195210	4.9264e-08
chr17	250	2	81195210	2.4632e-08
chr17	251	5	81195210	6.158e-08
chr17	252	3	81195210	3.6948e-08
chr17	253	3	81195210	3.6948e-08
chr17	254	3	81195210	3.6948e-08
chr17	255	12	81195210	1.47792e-07
chr17	256	10	81195210	1.2316e-07
chr17	257	4	81195210	4.9264e-08
chr17	258	1	81195210	1.2316e-08
chr17	259	1	81195210	1.2316e-08
chr17	260	1	81195210	1.2316e-08
chr17	261	3	81195210	3.6948e-08
chr17	262	1	81195210	1.2316e-08
chr17	263	3	81195210	3.6948e-08
chr17	264	2	81195210	2.4632e-08
chr17	265	3	81195210	3.6948e-08
chr17	266	2	81195210	2.4632e-08
chr17	267	3	81195210	3.6948e-08
chr17	269	3	81195210	3.6948e-08
chr17	270	6	81195210	7.3896e-08
chr17	271	5	81195210	6.158e-08
chr17	272	6	81195210	7.3896e-08
chr17	273	3	81195210	3.6948e-08
chr17	274	7	81195210	8.6212e-08
chr17	275	16	81195210	1.97056e-07
chr17	276	7	81195210	8.6212e-08
chr17	277	1	81195210	1.2316e-08
chr17	278	1	81195210	1.2316e-08
chr17	279	2	81195210	2.4632e-08
chr17	280	1	81195210	1.2316e-08
chr17	281	1	81195210	1.2316e-08
chr17	282	1	81195210	1.2316e-08
chr17	283	2	81195210	2.4632e-08
chr17	286	1	81195210	1.2316e-08
chr17	287	1	81195210	1.2316e-08
chr17	288	1	81195210	1.2316e-08
chr17	289	1	81195210	1.2316e-08
chr17	291	1	81195210	1.2316e-08
chr17	292	3	81195210	3.6948e-08
chr17	294	1	81195210	1.2316e-08
chr17	296	1	81195210	1.2316e-08
chr17	297	2	81195210	2.4632e-08
chr17	298	1	81195210	1.2316e-08
chr17	299	3	81195210	3.6948e-08
chr17	300	4	81195210	4.9264e-08
chr17	301	5	81195210	6.158e-08
chr17	302	4	81195210	4.9264e-08
chr17	303	5	81195210	6.158e-08
chr17	304	7	81195210	8.6212e-08
chr17	305	3	81195210	3.6948e-08
chr17	306	6	81195210	7.3896e-08
chr17	307	3	81195210	3.6948e-08
chr17	308	3	81195210	3.6948e-08
chr17	309	4	81195210	4.9264e-08
chr17	310	1	81195210	1.2316e-08
chr17	312	1	81195210	1.2316e-08
chr17	313	2	81195210	2.4632e-08
chr17	314	2	81195210	2.4632e-08
chr17	317	1	81195210	1.2316e-08
chr17	318	1	81195210	1.2316e-08
chr17	319	1	81195210	1.2316e-08
chr17	321	2	81195210	2.4632e-08
chr17	322	1	81195210	1.2316e-08
chr17	323	3	81195210	3.6948e-08
chr17	326	2	81195210	2.4632e-08
chr17	327	1	81195210	1.2316e-08
chr17	328	2	81195210	2.4632e-08
chr17	329	1	81195210	1.2316e-08
chr17	330	1	81195210	1.2316e-08
chr17	332	2	81195210	2.4632e-08
chr17	333	1	81195210	1.2316e-08
chr17	339	1	81195210	1.2316e-08
chr17	342	1	81195210	1.2316e-08
chr17	343	3	81195210	3.6948e-08
chr17	345	1	81195210	1.2316e-08
chr17	347	1	81195210	1.2316e-08
chr17	349	1	81195210	1.2316e-08
chr17	351	1	81195210	1.2316e-08
chr17	352	1	81195210	1.2316e-08
chr17	354	1	81195210	1.2316e-08
chr17	357	1	81195210	1.2316e-08
chr17	359	1	81195210	1.2316e-08
chr17	360	1	81195210	1.2316e-08
chr17	361	1	81195210	1.2316e-08
chr17	362	1	81195210	1.2316e-08
chr17	363	2	81195210	2.4632e-08
chr17	366	1	81195210	1.2316e-08
chr17	367	6	81195210	7.3896e-08
chr17	368	1	81195210	1.2316e-08
chr17	369	5	81195210	6.158e-08
chr17	370	1	81195210	1.2316e-08
chr17	371	2	81195210	2.4632e-08
chr17	373	1	81195210	1.2316e-08
chr17	374	6	81195210	7.3896e-08
chr17	375	16	81195210	1.97056e-07
chr17	377	2	81195210	2.4632e-08
chr17	381	2	81195210	2.4632e-08
chr17	385	1	81195210	1.2316e-08
chr17	386	1	81195210	1.2316e-08
chr17	389	1	81195210	1.2316e-08
chr17	390	1	81195210	1.2316e-08
chr17	394	1	81195210	1.2316e-08
chr17	398	1	81195210	1.2316e-08
chr17	399	1	81195210	1.2316e-08
chr17	400	2	81195210	2.4632e-08
chr17	401	1	81195210	1.2316e-08
chr17	402	1	81195210	1.2316e-08
chr17	403	1	81195210	1.2316e-08
chr17	406	1	81195210	1.2316e-08
chr17	408	1	81195210	1.2316e-08
chr17	410	2	81195210	2.4632e-08
chr17	411	1	81195210	1.2316e-08
chr17	417	1	81195210	1.2316e-08
chr17	418	2	81195210	2.4632e-08
chr17	422	1	81195210	1.2316e-08
chr17	425	2	81195210	2.4632e-08
chr17	426	1	81195210	1.2316e-08
chr17	428	2	81195210	2.4632e-08
chr17	429	2	81195210	2.4632e-08
chr17	432	1	81195210	1.2316e-08
chr17	434	1	81195210	1.2316e-08
chr17	437	1	81195210	1.2316e-08
chr17	438	2	81195210	2.4632e-08
chr17	439	1	81195210	1.2316e-08
chr17	445	3	81195210	3.6948e-08
chr17	449	1	81195210	1.2316e-08
chr17	453	2	81195210	2.4632e-08
chr17	455	2	81195210	2.4632e-08
chr17	460	1	81195210	1.2316e-08
chr17	461	1	81195210	1.2316e-08
chr17	463	3	81195210	3.6948e-08
chr17	466	2	81195210	2.4632e-08
chr17	467	1	81195210	1.2316e-08
chr17	469	1	81195210	1.2316e-08
chr17	471	1	81195210	1.2316e-08
chr17	473	1	81195210	1.2316e-08
chr17	474	1	81195210	1.2316e-08
chr17	477	2	81195210	2.4632e-08
chr17	479	2	81195210	2.4632e-08
chr17	481	1	81195210	1.2316e-08
chr17	484	1	81195210	1.2316e-08
chr17	485	2	81195210	2.4632e-08
chr17	487	1	81195210	1.2316e-08
chr17	492	1	81195210	1.2316e-08
chr17	493	1	81195210	1.2316e-08
chr17	496	1	81195210	1.2316e-08
chr17	497	6	81195210	7.3896e-08
chr17	498	6	81195210	7.3896e-08
chr17	505	1	81195210	1.2316e-08
chr17	506	2	81195210	2.4632e-08
chr17	508	2	81195210	2.4632e-08
chr17	517	1	81195210	1.2316e-08
chr17	519	1	81195210	1.2316e-08
chr17	520	2	81195210	2.4632e-08
chr17	521	1	81195210	1.2316e-08
chr17	522	1	81195210	1.2316e-08
chr17	525	1	81195210	1.2316e-08
chr17	527	2	81195210	2.4632e-08
chr17	529	2	81195210	2.4632e-08
chr17	533	1	81195210	1.2316e-08
chr17	534	2	81195210	2.4632e-08
chr17	536	1	81195210	1.2316e-08
chr17	540	1	81195210	1.2316e-08
chr17	542	4	81195210	4.9264e-08
chr17	546	1	81195210	1.2316e-08
chr17	555	1	81195210	1.2316e-08
chr17	559	1	81195210	1.2316e-08
chr17	561	1	81195210	1.2316e-08
chr17	565	2	81195210	2.4632e-08
chr17	571	1	81195210	1.2316e-08
chr17	572	1	81195210	1.2316e-08
chr17	573	1	81195210	1.2316e-08
chr17	586	1	81195210	1.2316e-08
chr17	587	1	81195210	1.2316e-08
chr17	589	2	81195210	2.4632e-08
chr17	590	1	81195210	1.2316e-08
chr17	593	1	81195210	1.2316e-08
chr17	597	1	81195210	1.2316e-08
chr17	613	1	81195210	1.2316e-08
chr17	622	2	81195210	2.4632e-08
chr17	623	1	81195210	1.2316e-08
chr17	627	1	81195210	1.2316e-08
chr17	629	1	81195210	1.2316e-08
chr17	637	1	81195210	1.2316e-08
chr17	639	1	81195210	1.2316e-08
chr17	643	1	81195210	1.2316e-08
chr17	644	1	81195210	1.2316e-08
chr17	645	1	81195210	1.2316e-08
chr17	656	1	81195210	1.2316e-08
chr17	663	1	81195210	1.2316e-08
chr17	664	1	81195210	1.2316e-08
chr17	669	1	81195210	1.2316e-08
chr17	670	2	81195210	2.4632e-08
chr17	671	1	81195210	1.2316e-08
chr17	676	1	81195210	1.2316e-08
chr17	677	1	81195210	1.2316e-08
chr17	678	1	81195210	1.2316e-08
chr17	679	1	81195210	1.2316e-08
chr17	680	1	81195210	1.2316e-08
chr17	684	1	81195210	1.2316e-08
chr17	685	1	81195210	1.2316e-08
chr17	687	1	81195210	1.2316e-08
chr17	689	1	81195210	1.2316e-08
chr17	695	1	81195210	1.2316e-08
chr17	696	1	81195210	1.2316e-08
chr17	697	1	81195210	1.2316e-08
chr17	700	2	81195210	2.4632e-08
chr17	701	3	81195210	3.6948e-08
chr17	703	2	81195210	2.4632e-08
chr17	704	1	81195210	1.2316e-08
chr17	705	1	81195210	1.2316e-08
chr17	706	1	81195210	1.2316e-08
chr17	707	17	81195210	2.09372e-07
chr17	713	1	81195210	1.2316e-08
chr17	715	1	81195210	1.2316e-08
chr17	721	1	81195210	1.2316e-08
chr17	722	1	81195210	1.2316e-08
chr17	729	2	81195210	2.4632e-08
chr17	731	1	81195210	1.2316e-08
chr17	735	1	81195210	1.2316e-08
chr17	737	1	81195210	1.2316e-08
chr17	738	3	81195210	3.6948e-08
chr17	740	5	81195210	6.158e-08
chr17	750	1	81195210	1.2316e-08
chr17	752	1	81195210	1.2316e-08
chr17	764	1	81195210	1.2316e-08
chr17	770	2	81195210	2.4632e-08
chr17	788	1	81195210	1.2316e-08
chr17	802	1	81195210	1.2316e-08
chr17	803	1	81195210	1.2316e-08
chr17	830	1	81195210	1.2316e-08
chr17	874	1	81195210	1.2316e-08
chr17	898	1	81195210	1.2316e-08
chr17	1005	1	81195210	1.2316e-08
chr17	1029	1	81195210	1.2316e-08
chr17	1039	1	81195210	1.2316e-08
chr17	1042	1	81195210	1.2316e-08
chr17	1066	1	81195210	1.2316e-08
chr17	1097	1	81195210	1.2316e-08
chr17	1108	1	81195210	1.2316e-08
chr17	1112	1	81195210	1.2316e-08
chr17	1116	1	81195210	1.2316e-08
chr17	1117	2	81195210	2.4632e-08
chr17	1123	1	81195210	1.2316e-08
chr17	1129	1	81195210	1.2316e-08
chr17	1130	2	81195210	2.4632e-08
chr17	1135	1	81195210	1.2316e-08
chr17	1140	1	81195210	1.2316e-08
chr17	1143	1	81195210	1.2316e-08
chr17	1147	1	81195210	1.2316e-08
chr17	1148	2	81195210	2.4632e-08
chr17	1159	2	81195210	2.4632e-08
chr17	1161	1	81195210	1.2316e-08
chr17	1189	1	81195210	1.2316e-08
chr17	1192	1	81195210	1.2316e-08
chr17	1238	1	81195210	1.2316e-08
chr17	1240	1	81195210	1.2316e-08
chr17	1254	1	81195210	1.2316e-08
chr17	1256	1	81195210	1.2316e-08
chr17	1257	2	81195210	2.4632e-08
chr17	1260	1	81195210	1.2316e-08
chr17	1261	1	81195210	1.2316e-08
chr17	1263	1	81195210	1.2316e-08
chr17	1267	1	81195210	1.2316e-08
chr17	1269	1	81195210	1.2316e-08
chr17	1271	2	81195210	2.4632e-08
chr17	1274	1	81195210	1.2316e-08
chr17	1276	22	81195210	2.70952e-07
chr17	1277	2	81195210	2.4632e-08
chr17	1287	1	81195210	1.2316e-08
chr17	1310	2	81195210	2.4632e-08
chr17	1334	1	81195210	1.2316e-08
chr17	1339	1	81195210	1.2316e-08
chr17	1348	2	81195210	2.4632e-08
chr17	1350	2	81195210	2.4632e-08
chr17	1361	1	81195210	1.2316e-08
chr17	1375	1	81195210	1.2316e-08
chr17	1376	1	81195210	1.2316e-08
chr17	1401	1	81195210	1.2316e-08
chr17	1402	1	81195210	1.2316e-08
chr17	1416	1	81195210	1.2316e-08
chr17	1424	1	81195210	1.2316e-08
chr17	1434	1	81195210	1.2316e-08
chr17	1435	1	81195210	1.2316e-08
chr17	1440	1	81195210	1.2316e-08
chr17	1472	1	81195210	1.2316e-08
chr17	1476	1	81195210	1.2316e-08
chr17	1481	1	81195210	1.2316e-08
chr17	1491	1	81195210	1.2316e-08
chr17	1528	1	81195210	1.2316e-08
chr17	1545	1	81195210	1.2316e-08
chr17	1561	1	81195210	1.2316e-08
chr17	1577	1	81195210	1.2316e-08
chr17	1579	1	81195210	1.2316e-08
chr17	1635	1	81195210	1.2316e-08
chr17	1639	1	81195210	1.2316e-08
chr17	1643	1	81195210	1.2316e-08
chr17	1644	1	81195210	1.2316e-08
chr17	1645	1	81195210	1.2316e-08
chr17	1661	1	81195210	1.2316e-08
chr17	1668	1	81195210	1.2316e-08
chr17	1673	1	81195210	1.2316e-08
chr17	1681	1	81195210	1.2316e-08
chr17	1701	1	81195210	1.2316e-08
chr17	1703	1	81195210	1.2316e-08
chr17	1704	1	81195210	1.2316e-08
chr17	1711	1	81195210	1.2316e-08
chr17	1718	1	81195210	1.2316e-08
chr17	1729	1	81195210	1.2316e-08
chr17	1740	1	81195210	1.2316e-08
chr17	1744	2	81195210	2.4632e-08
chr17	1750	1	81195210	1.2316e-08
chr17	1754	1	81195210	1.2316e-08
chr17	1805	1	81195210	1.2316e-08
chr17	1806	1	81195210	1.2316e-08
chr17	1815	1	81195210	1.2316e-08
chr17	1816	1	81195210	1.2316e-08
chr17	1818	1	81195210	1.2316e-08
chr17	1819	1	81195210	1.2316e-08
chr17	1821	1	81195210	1.2316e-08
chr17	1845	1	81195210	1.2316e-08
chr17	1849	1	81195210	1.2316e-08
chr17	1906	1	81195210	1.2316e-08
chr17	1925	1	81195210	1.2316e-08
chr17	1935	1	81195210	1.2316e-08
chr17	1946	1	81195210	1.2316e-08
chr17	1954	1	81195210	1.2316e-08
chr17	1988	1	81195210	1.2316e-08
chr17	1994	1	81195210	1.2316e-08
chr17	2016	1	81195210	1.2316e-08
chr17	2041	1	81195210	1.2316e-08
chr17	2054	1	81195210	1.2316e-08
chr17	2083	1	81195210	1.2316e-08
chr17	2084	1	81195210	1.2316e-08
chr17	2085	1	81195210	1.2316e-08
chr17	2166	1	81195210	1.2316e-08
chr17	2176	1	81195210	1.2316e-08
chr17	2205	1	81195210	1.2316e-08
chr17	2214	1	81195210	1.2316e-08
chr17	2231	1	81195210	1.2316e-08
chr17	2250	1	81195210	1.2316e-08
chr17	2316	2	81195210	2.4632e-08
chr17	2327	1	81195210	1.2316e-08
chr17	2337	1	81195210	1.2316e-08
chr17	2352	1	81195210	1.2316e-08
chr17	2353	1	81195210	1.2316e-08
chr17	2371	1	81195210	1.2316e-08
chr17	2372	1	81195210	1.2316e-08
chr17	2374	1	81195210	1.2316e-08
chr17	2381	1	81195210	1.2316e-08
chr17	2386	2	81195210	2.4632e-08
chr17	2387	1	81195210	1.2316e-08
chr17	2394	1	81195210	1.2316e-08
chr17	2395	1	81195210	1.2316e-08
chr17	2402	2	81195210	2.4632e-08
chr17	2415	1	81195210	1.2316e-08
chr17	2423	1	81195210	1.2316e-08
chr17	2437	2	81195210	2.4632e-08
chr17	2438	1	81195210	1.2316e-08
chr17	2456	1	81195210	1.2316e-08
chr17	2472	1	81195210	1.2316e-08
chr17	2481	1	81195210	1.2316e-08
chr17	2485	1	81195210	1.2316e-08
chr17	2495	1	81195210	1.2316e-08
chr17	2498	1	81195210	1.2316e-08
chr17	2504	1	81195210	1.2316e-08
chr17	2507	1	81195210	1.2316e-08
chr17	2508	1	81195210	1.2316e-08
chr17	2517	1	81195210	1.2316e-08
chr17	2527	1	81195210	1.2316e-08
chr17	2542	1	81195210	1.2316e-08
chr17	2546	1	81195210	1.2316e-08
chr17	2558	1	81195210	1.2316e-08
chr17	2574	1	81195210	1.2316e-08
chr17	2583	1	81195210	1.2316e-08
chr17	2592	1	81195210	1.2316e-08
chr17	2593	1	81195210	1.2316e-08
chr17	2595	1	81195210	1.2316e-08
chr17	2600	1	81195210	1.2316e-08
chr17	2603	2	81195210	2.4632e-08
chr17	2611	1	81195210	1.2316e-08
chr17	2612	1	81195210	1.2316e-08
chr17	2635	1	81195210	1.2316e-08
chr17	2642	1	81195210	1.2316e-08
chr17	2645	1	81195210	1.2316e-08
chr17	2651	1	81195210	1.2316e-08
chr17	2654	1	81195210	1.2316e-08
chr17	2655	1	81195210	1.2316e-08
chr17	2657	1	81195210	1.2316e-08
chr17	2664	1	81195210	1.2316e-08
chr17	2667	1	81195210	1.2316e-08
chr17	2671	1	81195210	1.2316e-08
chr17	2676	2	81195210	2.4632e-08
chr17	2677	1	81195210	1.2316e-08
chr17	2679	1	81195210	1.2316e-08
chr17	2680	4	81195210	4.9264e-08
chr17	2682	1	81195210	1.2316e-08
chr17	2685	1	81195210	1.2316e-08
chr17	2686	1	81195210	1.2316e-08
chr17	2688	3	81195210	3.6948e-08
chr17	2689	21	81195210	2.58636e-07
chr17	2692	1	81195210	1.2316e-08
chr17	2699	1	81195210	1.2316e-08
chr17	2702	1	81195210	1.2316e-08
chr17	2705	1	81195210	1.2316e-08
chr17	2725	1	81195210	1.2316e-08
chr17	2728	1	81195210	1.2316e-08
chr17	2729	1	81195210	1.2316e-08
chr17	2732	1	81195210	1.2316e-08
chr17	2734	1	81195210	1.2316e-08
chr17	2741	1	81195210	1.2316e-08
chr17	2752	1	81195210	1.2316e-08
chr17	2754	2	81195210	2.4632e-08
chr17	2763	1	81195210	1.2316e-08
chr17	2764	1	81195210	1.2316e-08
chr17	2769	1	81195210	1.2316e-08
chr17	2777	1	81195210	1.2316e-08
chr17	2778	1	81195210	1.2316e-08
chr17	2787	1	81195210	1.2316e-08
chr17	2789	1	81195210	1.2316e-08
chr17	2790	1	81195210	1.2316e-08
chr17	2812	1	81195210	1.2316e-08
chr17	2816	1	81195210	1.2316e-08
chr17	2837	1	81195210	1.2316e-08
chr17	2839	1	81195210	1.2316e-08
chr17	2845	1	81195210	1.2316e-08
chr17	2846	1	81195210	1.2316e-08
chr17	2852	1	81195210	1.2316e-08
chr17	2857	1	81195210	1.2316e-08
chr17	2867	1	81195210	1.2316e-08
chr17	2881	1	81195210	1.2316e-08
chr17	2889	1	81195210	1.2316e-08
chr17	2893	2	81195210	2.4632e-08
chr17	2900	1	81195210	1.2316e-08
chr17	2902	1	81195210	1.2316e-08
chr17	2908	1	81195210	1.2316e-08
chr17	2918	1	81195210	1.2316e-08
chr17	2926	1	81195210	1.2316e-08
chr17	2929	1	81195210	1.2316e-08
chr17	2933	1	81195210	1.2316e-08
chr17	2934	2	81195210	2.4632e-08
chr17	2940	1	81195210	1.2316e-08
chr17	2941	1	81195210	1.2316e-08
chr17	2948	1	81195210	1.2316e-08
chr17	2952	1	81195210	1.2316e-08
chr17	2961	1	81195210	1.2316e-08
chr17	2963	1	81195210	1.2316e-08
chr17	2969	1	81195210	1.2316e-08
chr17	2973	1	81195210	1.2316e-08
chr17	2975	1	81195210	1.2316e-08
chr17	3000	1	81195210	1.2316e-08
chr17	3008	1	81195210	1.2316e-08
chr17	3029	1	81195210	1.2316e-08
chr17	3058	1	81195210	1.2316e-08
chr17	5758	1	81195210	1.2316e-08
chr17	5829	1	81195210	1.2316e-08
chr17	6118	1	81195210	1.2316e-08
chr17	6171	3	81195210	3.6948e-08
chr17	6395	1	81195210	1.2316e-08
chr17	6425	1	81195210	1.2316e-08
chr17	6426	1	81195210	1.2316e-08
chr17	6428	2	81195210	2.4632e-08
chr17	6430	2	81195210	2.4632e-08
chr17	6432	1	81195210	1.2316e-08
chr17	6437	1	81195210	1.2316e-08
chr17	6438	18	81195210	2.21688e-07
genome	0	67169355	81195210	0.827258
genome	1	9907980	81195210	0.122027
genome	2	1898658	81195210	0.0233839
genome	3	639966	81195210	0.00788182
genome	4	329393	81195210	0.0040568
genome	5	210054	81195210	0.00258702
genome	6	146176	81195210	0.0018003
genome	7	107599	81195210	0.00132519
genome	8	82443	81195210	0.00101537
genome	9	65861	81195210	0.000811144
genome	10	54688	81195210	0.000673537
genome	11	45283	81195210	0.000557705
genome	12	38661	81195210	0.000476149
genome	13	32869	81195210	0.000404815
genome	14	28878	81195210	0.000355661
genome	15	25360	81195210	0.000312334
genome	16	22557	81195210	0.000277812
genome	17	20891	81195210	0.000257294
genome	18	18947	81195210	0.000233351
genome	19	17389	81195210	0.000214163
genome	20	16136	81195210	0.000198731
genome	21	14433	81195210	0.000177757
genome	22	13368	81195210	0.00016464
genome	23	12339	81195210	0.000151967
genome	24	11327	81195210	0.000139503
genome	25	10783	81195210	0.000132803
genome	26	10290	81195210	0.000126732
genome	27	9592	81195210	0.000118135
genome	28	9167	81195210	0.000112901
genome	29	8552	81195210	0.000105326
genome	30	8188	81195210	0.000100843
genome	31	7851	81195210	9.66929e-05
genome	32	7373	81195210	9.08059e-05
genome	33	6770	81195210	8.33793e-05
genome	34	6686	81195210	8.23448e-05
genome	35	6230	81195210	7.67287e-05
genome	36	5887	81195210	7.25043e-05
genome	37	5676	81195210	6.99056e-05
genome	38	5231	81195210	6.4425e-05
genome	39	5097	81195210	6.27746e-05
genome	40	4846	81195210	5.96833e-05
genome	41	4641	81195210	5.71585e-05
genome	42	4407	81195210	5.42766e-05
genome	43	4224	81195210	5.20228e-05
genome	44	4137	81195210	5.09513e-05
genome	45	4018	81195210	4.94857e-05
genome	46	3818	81195210	4.70225e-05
genome	47	3637	81195210	4.47933e-05
genome	48	3547	81195210	4.36848e-05
genome	49	3352	81195210	4.12832e-05
genome	50	3282	81195210	4.04211e-05
genome	51	3215	81195210	3.95959e-05
genome	52	3036	81195210	3.73914e-05
genome	53	2976	81195210	3.66524e-05
genome	54	2864	81195210	3.5273e-05
genome	55	2844	81195210	3.50267e-05
genome	56	2744	81195210	3.37951e-05
genome	57	2611	81195210	3.21571e-05
genome	58	2609	81195210	3.21324e-05
genome	59	2560	81195210	3.1529e-05
genome	60	2454	81195210	3.02235e-05
genome	61	2382	81195210	2.93367e-05
genome	62	2163	81195210	2.66395e-05
genome	63	2138	81195210	2.63316e-05
genome	64	2036	81195210	2.50754e-05
genome	65	2015	81195210	2.48167e-05
genome	66	1877	81195210	2.31171e-05
genome	67	1933	81195210	2.38068e-05
genome	68	1859	81195210	2.28954e-05
genome	69	1808	81195210	2.22673e-05
genome	70	1652	81195210	2.0346e-05
genome	71	1688	81195210	2.07894e-05
genome	72	1724	81195210	2.12328e-05
genome	73	1682	81195210	2.07155e-05
genome	74	1582	81195210	1.94839e-05
genome	75	1512	81195210	1.86218e-05
genome	76	1470	81195210	1.81045e-05
genome	77	1419	81195210	1.74764e-05
genome	78	1460	81195210	1.79814e-05
genome	79	1397	81195210	1.72054e-05
genome	80	1326	81195210	1.6331e-05
genome	81	1308	81195210	1.61093e-05
genome	82	1393	81195210	1.71562e-05
genome	83	1159	81195210	1.42742e-05
genome	84	1105	81195210	1.36092e-05
genome	85	1074	81195210	1.32274e-05
genome	86	1015	81195210	1.25007e-05
genome	87	990	81195210	1.21928e-05
genome	88	1020	81195210	1.25623e-05
genome	89	967	81195210	1.19096e-05
genome	90	1000	81195210	1.2316e-05
genome	91	936	81195210	1.15278e-05
genome	92	942	81195210	1.16017e-05
genome	93	928	81195210	1.14292e-05
genome	94	856	81195210	1.05425e-05
genome	95	923	81195210	1.13677e-05
genome	96	867	81195210	1.0678e-05
genome	97	805	81195210	9.91438e-06
genome	98	770	81195210	9.48332e-06
genome	99	769	81195210	9.471e-06
genome	100	708	81195210	8.71973e-06
genome	101	716	81195210	8.81825e-06
genome	102	686	81195210	8.44877e-06
genome	103	640	81195210	7.88224e-06
genome	104	687	81195210	8.46109e-06
genome	105	631	81195210	7.77139e-06
genome	106	604	81195210	7.43886e-06
genome	107	612	81195210	7.53739e-06
genome	108	598	81195210	7.36497e-06
genome	109	599	81195210	7.37728e-06
genome	110	560	81195210	6.89696e-06
genome	111	514	81195210	6.33042e-06
genome	112	520	81195210	6.40432e-06
genome	113	486	81195210	5.98557e-06
genome	114	509	81195210	6.26884e-06
genome	115	480	81195210	5.91168e-06
genome	116	447	81195210	5.50525e-06
genome	117	452	81195210	5.56683e-06
genome	118	483	81195210	5.94863e-06
genome	119	391	81195210	4.81556e-06
genome	120	374	81195210	4.60618e-06
genome	121	389	81195210	4.79092e-06
genome	122	408	81195210	5.02493e-06
genome	123	386	81195210	4.75398e-06
genome	124	384	81195210	4.72934e-06
genome	125	360	81195210	4.43376e-06
genome	126	346	81195210	4.26134e-06
genome	127	331	81195210	4.0766e-06
genome	128	346	81195210	4.26134e-06
genome	129	330	81195210	4.06428e-06
genome	130	292	81195210	3.59627e-06
genome	131	295	81195210	3.63322e-06
genome	132	289	81195210	3.55932e-06
genome	133	296	81195210	3.64554e-06
genome	134	252	81195210	3.10363e-06
genome	135	241	81195210	2.96816e-06
genome	136	283	81195210	3.48543e-06
genome	137	244	81195210	3.0051e-06
genome	138	221	81195210	2.72184e-06
genome	139	262	81195210	3.22679e-06
genome	140	211	81195210	2.59868e-06
genome	141	226	81195210	2.78342e-06
genome	142	244	81195210	3.0051e-06
genome	143	228	81195210	2.80805e-06
genome	144	223	81195210	2.74647e-06
genome	145	228	81195210	2.80805e-06
genome	146	183	81195210	2.25383e-06
genome	147	185	81195210	2.27846e-06
genome	148	212	81195210	2.61099e-06
genome	149	178	81195210	2.19225e-06
genome	150	171	81195210	2.10604e-06
genome	151	177	81195210	2.17993e-06
genome	152	190	81195210	2.34004e-06
genome	153	137	81195210	1.68729e-06
genome	154	161	81195210	1.98288e-06
genome	155	183	81195210	2.25383e-06
genome	156	159	81195210	1.95824e-06
genome	157	163	81195210	2.00751e-06
genome	158	144	81195210	1.7735e-06
genome	159	128	81195210	1.57645e-06
genome	160	117	81195210	1.44097e-06
genome	161	135	81195210	1.66266e-06
genome	162	129	81195210	1.58876e-06
genome	163	131	81195210	1.6134e-06
genome	164	127	81195210	1.56413e-06
genome	165	118	81195210	1.45329e-06
genome	166	122	81195210	1.50255e-06
genome	167	114	81195210	1.40402e-06
genome	168	103	81195210	1.26855e-06
genome	169	98	81195210	1.20697e-06
genome	170	87	81195210	1.07149e-06
genome	171	84	81195210	1.03454e-06
genome	172	97	81195210	1.19465e-06
genome	173	66	81195210	8.12856e-07
genome	174	77	81195210	9.48332e-07
genome	175	87	81195210	1.07149e-06
genome	176	79	81195210	9.72964e-07
genome	177	71	81195210	8.74436e-07
genome	178	51	81195210	6.28116e-07
genome	179	61	81195210	7.51276e-07
genome	180	54	81195210	6.65064e-07
genome	181	51	81195210	6.28116e-07
genome	182	48	81195210	5.91168e-07
genome	183	61	81195210	7.51276e-07
genome	184	59	81195210	7.26644e-07
genome	185	38	81195210	4.68008e-07
genome	186	45	81195210	5.5422e-07
genome	187	39	81195210	4.80324e-07
genome	188	49	81195210	6.03484e-07
genome	189	31	81195210	3.81796e-07
genome	190	31	81195210	3.81796e-07
genome	191	33	81195210	4.06428e-07
genome	192	31	81195210	3.81796e-07
genome	193	26	81195210	3.20216e-07
genome	194	25	81195210	3.079e-07
genome	195	22	81195210	2.70952e-07
genome	196	19	81195210	2.34004e-07
genome	197	11	81195210	1.35476e-07
genome	198	25	81195210	3.079e-07
genome	199	27	81195210	3.32532e-07
genome	200	30	81195210	3.6948e-07
genome	201	19	81195210	2.34004e-07
genome	202	26	81195210	3.20216e-07
genome	203	24	81195210	2.95584e-07
genome	204	17	81195210	2.09372e-07
genome	205	19	81195210	2.34004e-07
genome	206	25	81195210	3.079e-07
genome	207	19	81195210	2.34004e-07
genome	208	20	81195210	2.4632e-07
genome	209	9	81195210	1.10844e-07
genome	210	13	81195210	1.60108e-07
genome	211	25	81195210	3.079e-07
genome	212	20	81195210	2.4632e-07
genome	213	15	81195210	1.8474e-07
genome	214	10	81195210	1.2316e-07
genome	215	15	81195210	1.8474e-07
genome	216	10	81195210	1.2316e-07
genome	217	13	81195210	1.60108e-07
genome	218	14	81195210	1.72424e-07
genome	219	13	81195210	1.60108e-07
genome	220	17	81195210	2.09372e-07
genome	221	12	81195210	1.47792e-07
genome	222	9	81195210	1.10844e-07
genome	223	12	81195210	1.47792e-07
genome	224	10	81195210	1.2316e-07
genome	225	11	81195210	1.35476e-07
genome	226	17	81195210	2.09372e-07
genome	227	12	81195210	1.47792e-07
genome	228	9	81195210	1.10844e-07
genome	229	9	81195210	1.10844e-07
genome	230	10	81195210	1.2316e-07
genome	231	3	81195210	3.6948e-08
genome	232	7	81195210	8.6212e-08
genome	233	4	81195210	4.9264e-08
genome	234	3	81195210	3.6948e-08
genome	235	10	81195210	1.2316e-07
genome	236	5	81195210	6.158e-08
genome	237	6	81195210	7.3896e-08
genome	238	7	81195210	8.6212e-08
genome	239	11	81195210	1.35476e-07
genome	240	9	81195210	1.10844e-07
genome	241	12	81195210	1.47792e-07
genome	242	1	81195210	1.2316e-08
genome	243	7	81195210	8.6212e-08
genome	244	7	81195210	8.6212e-08
genome	245	4	81195210	4.9264e-08
genome	246	4	81195210	4.9264e-08
genome	247	8	81195210	9.8528e-08
genome	248	2	81195210	2.4632e-08
genome	249	4	81195210	4.9264e-08
genome	250	2	81195210	2.4632e-08
genome	251	5	81195210	6.158e-08
genome	252	3	81195210	3.6948e-08
genome	253	3	81195210	3.6948e-08
genome	254	3	81195210	3.6948e-08
genome	255	12	81195210	1.47792e-07
genome	256	10	81195210	1.2316e-07
genome	257	4	81195210	4.9264e-08
genome	258	1	81195210	1.2316e-08
genome	259	1	81195210	1.2316e-08
genome	260	1	81195210	1.2316e-08
genome	261	3	81195210	3.6948e-08
genome	262	1	81195210	1.2316e-08
genome	263	3	81195210	3.6948e-08
genome	264	2	81195210	2.4632e-08
genome	265	3	81195210	3.6948e-08
genome	266	2	81195210	2.4632e-08
genome	267	3	81195210	3.6948e-08
genome	269	3	81195210	3.6948e-08
genome	270	6	81195210	7.3896e-08
genome	271	5	81195210	6.158e-08
genome	272	6	81195210	7.3896e-08
genome	273	3	81195210	3.6948e-08
genome	274	7	81195210	8.6212e-08
genome	275	16	81195210	1.97056e-07
genome	276	7	81195210	8.6212e-08
genome	277	1	81195210	1.2316e-08
genome	278	1	81195210	1.2316e-08
genome	279	2	81195210	2.4632e-08
genome	280	1	81195210	1.2316e-08
genome	281	1	81195210	1.2316e-08
genome	282	1	81195210	1.2316e-08
genome	283	2	81195210	2.4632e-08
genome	286	1	81195210	1.2316e-08
genome	287	1	81195210	1.2316e-08
genome	288	1	81195210	1.2316e-08
genome	289	1	81195210	1.2316e-08
genome	291	1	81195210	1.2316e-08
genome	292	3	81195210	3.6948e-08
genome	294	1	81195210	1.2316e-08
genome	296	1	81195210	1.2316e-08
genome	297	2	81195210	2.4632e-08
genome	298	1	81195210	1.2316e-08
genome	299	3	81195210	3.6948e-08
genome	300	4	81195210	4.9264e-08
genome	301	5	81195210	6.158e-08
genome	302	4	81195210	4.9264e-08
genome	303	5	81195210	6.158e-08
genome	304	7	81195210	8.6212e-08
genome	305	3	81195210	3.6948e-08
genome	306	6	81195210	7.3896e-08
genome	307	3	81195210	3.6948e-08
genome	308	3	81195210	3.6948e-08
genome	309	4	81195210	4.9264e-08
genome	310	1	81195210	1.2316e-08
genome	312	1	81195210	1.2316e-08
genome	313	2	81195210	2.4632e-08
genome	314	2	81195210	2.4632e-08
genome	317	1	81195210	1.2316e-08
genome	318	1	81195210	1.2316e-08
genome	319	1	81195210	1.2316e-08
genome	321	2	81195210	2.4632e-08
genome	322	1	81195210	1.2316e-08
genome	323	3	81195210	3.6948e-08
genome	326	2	81195210	2.4632e-08
genome	327	1	81195210	1.2316e-08
genome	328	2	81195210	2.4632e-08
genome	329	1	81195210	1.2316e-08
genome	330	1	81195210	1.2316e-08
genome	332	2	81195210	2.4632e-08
genome	333	1	81195210	1.2316e-08
genome	339	1	81195210	1.2316e-08
genome	342	1	81195210	1.2316e-08
genome	343	3	81195210	3.6948e-08
genome	345	1	81195210	1.2316e-08
genome	347	1	81195210	1.2316e-08
genome	349	1	81195210	1.2316e-08
genome	351	1	81195210	1.2316e-08
genome	352	1	81195210	1.2316e-08
genome	354	1	81195210	1.2316e-08
genome	357	1	81195210	1.2316e-08
genome	359	1	81195210	1.2316e-08
genome	360	1	81195210	1.2316e-08
genome	361	1	81195210	1.2316e-08
genome	362	1	81195210	1.2316e-08
genome	363	2	81195210	2.4632e-08
genome	366	1	81195210	1.2316e-08
genome	367	6	81195210	7.3896e-08
genome	368	1	81195210	1.2316e-08
genome	369	5	81195210	6.158e-08
genome	370	1	81195210	1.2316e-08
genome	371	2	81195210	2.4632e-08
genome	373	1	81195210	1.2316e-08
genome	374	6	81195210	7.3896e-08
genome	375	16	81195210	1.97056e-07
genome	377	2	81195210	2.4632e-08
genome	381	2	81195210	2.4632e-08
genome	385	1	81195210	1.2316e-08
genome	386	1	81195210	1.2316e-08
genome	389	1	81195210	1.2316e-08
genome	390	1	81195210	1.2316e-08
genome	394	1	81195210	1.2316e-08
genome	398	1	81195210	1.2316e-08
genome	399	1	81195210	1.2316e-08
genome	400	2	81195210	2.4632e-08
genome	401	1	81195210	1.2316e-08
genome	402	1	81195210	1.2316e-08
genome	403	1	81195210	1.2316e-08
genome	406	1	81195210	1.2316e-08
genome	408	1	81195210	1.2316e-08
genome	410	2	81195210	2.4632e-08
genome	411	1	81195210	1.2316e-08
genome	417	1	81195210	1.2316e-08
genome	418	2	81195210	2.4632e-08
genome	422	1	81195210	1.2316e-08
genome	425	2	81195210	2.4632e-08
genome	426	1	81195210	1.2316e-08
genome	428	2	81195210	2.4632e-08
genome	429	2	81195210	2.4632e-08
genome	432	1	81195210	1.2316e-08
genome	434	1	81195210	1.2316e-08
genome	437	1	81195210	1.2316e-08
genome	438	2	81195210	2.4632e-08
genome	439	1	81195210	1.2316e-08
genome	445	3	81195210	3.6948e-08
genome	449	1	81195210	1.2316e-08
genome	453	2	81195210	2.4632e-08
genome	455	2	81195210	2.4632e-08
genome	460	1	81195210	1.2316e-08
genome	461	1	81195210	1.2316e-08
genome	463	3	81195210	3.6948e-08
genome	466	2	81195210	2.4632e-08
genome	467	1	81195210	1.2316e-08
genome	469	1	81195210	1.2316e-08
genome	471	1	81195210	1.2316e-08
genome	473	1	81195210	1.2316e-08
genome	474	1	81195210	1.2316e-08
genome	477	2	81195210	2.4632e-08
genome	479	2	81195210	2.4632e-08
genome	481	1	81195210	1.2316e-08
genome	484	1	81195210	1.2316e-08
genome	485	2	81195210	2.4632e-08
genome	487	1	81195210	1.2316e-08
genome	492	1	81195210	1.2316e-08
genome	493	1	81195210	1.2316e-08
genome	496	1	81195210	1.2316e-08
genome	497	6	81195210	7.3896e-08
genome	498	6	81195210	7.3896e-08
genome	505	1	81195210	1.2316e-08
genome	506	2	81195210	2.4632e-08
genome	508	2	81195210	2.4632e-08
genome	517	1	81195210	1.2316e-08
genome	519	1	81195210	1.2316e-08
genome	520	2	81195210	2.4632e-08
genome	521	1	81195210	1.2316e-08
genome	522	1	81195210	1.2316e-08
genome	525	1	81195210	1.2316e-08
genome	527	2	81195210	2.4632e-08
genome	529	2	81195210	2.4632e-08
genome	533	1	81195210	1.2316e-08
genome	534	2	81195210	2.4632e-08
genome	536	1	81195210	1.2316e-08
genome	540	1	81195210	1.2316e-08
genome	542	4	81195210	4.9264e-08
genome	546	1	81195210	1.2316e-08
genome	555	1	81195210	1.2316e-08
genome	559	1	81195210	1.2316e-08
genome	561	1	81195210	1.2316e-08
genome	565	2	81195210	2.4632e-08
genome	571	1	81195210	1.2316e-08
genome	572	1	81195210	1.2316e-08
genome	573	1	81195210	1.2316e-08
genome	586	1	81195210	1.2316e-08
genome	587	1	81195210	1.2316e-08
genome	589	2	81195210	2.4632e-08
genome	590	1	81195210	1.2316e-08
genome	593	1	81195210	1.2316e-08
genome	597	1	81195210	1.2316e-08
genome	613	1	81195210	1.2316e-08
genome	622	2	81195210	2.4632e-08
genome	623	1	81195210	1.2316e-08
genome	627	1	81195210	1.2316e-08
genome	629	1	81195210	1.2316e-08
genome	637	1	81195210	1.2316e-08
genome	639	1	81195210	1.2316e-08
genome	643	1	81195210	1.2316e-08
genome	644	1	81195210	1.2316e-08
genome	645	1	81195210	1.2316e-08
genome	656	1	81195210	1.2316e-08
genome	663	1	81195210	1.2316e-08
genome	664	1	81195210	1.2316e-08
genome	669	1	81195210	1.2316e-08
genome	670	2	81195210	2.4632e-08
genome	671	1	81195210	1.2316e-08
genome	676	1	81195210	1.2316e-08
genome	677	1	81195210	1.2316e-08
genome	678	1	81195210	1.2316e-08
genome	679	1	81195210	1.2316e-08
genome	680	1	81195210	1.2316e-08
genome	684	1	81195210	1.2316e-08
genome	685	1	81195210	1.2316e-08
genome	687	1	81195210	1.2316e-08
genome	689	1	81195210	1.2316e-08
genome	695	1	81195210	1.2316e-08
genome	696	1	81195210	1.2316e-08
genome	697	1	81195210	1.2316e-08
genome	700	2	81195210	2.4632e-08
genome	701	3	81195210	3.6948e-08
genome	703	2	81195210	2.4632e-08
genome	704	1	81195210	1.2316e-08
genome	705	1	81195210	1.2316e-08
genome	706	1	81195210	1.2316e-08
genome	707	17	81195210	2.09372e-07
genome	713	1	81195210	1.2316e-08
genome	715	1	81195210	1.2316e-08
genome	721	1	81195210	1.2316e-08
genome	722	1	81195210	1.2316e-08
genome	729	2	81195210	2.4632e-08
genome	731	1	81195210	1.2316e-08
genome	735	1	81195210	1.2316e-08
genome	737	1	81195210	1.2316e-08
genome	738	3	81195210	3.6948e-08
genome	740	5	81195210	6.158e-08
genome	750	1	81195210	1.2316e-08
genome	752	1	81195210	1.2316e-08
genome	764	1	81195210	1.2316e-08
genome	770	2	81195210	2.4632e-08
genome	788	1	81195210	1.2316e-08
genome	802	1	81195210	1.2316e-08
genome	803	1	81195210	1.2316e-08
genome	830	1	81195210	1.2316e-08
genome	874	1	81195210	1.2316e-08
genome	898	1	81195210	1.2316e-08
genome	1005	1	81195210	1.2316e-08
genome	1029	1	81195210	1.2316e-08
genome	1039	1	81195210	1.2316e-08
genome	1042	1	81195210	1.2316e-08
genome	1066	1	81195210	1.2316e-08
genome	1097	1	81195210	1.2316e-08
genome	1108	1	81195210	1.2316e-08
genome	1112	1	81195210	1.2316e-08
genome	1116	1	81195210	1.2316e-08
genome	1117	2	81195210	2.4632e-08
genome	1123	1	81195210	1.2316e-08
genome	1129	1	81195210	1.2316e-08
genome	1130	2	81195210	2.4632e-08
genome	1135	1	81195210	1.2316e-08
genome	1140	1	81195210	1.2316e-08
genome	1143	1	81195210	1.2316e-08
genome	1147	1	81195210	1.2316e-08
genome	1148	2	81195210	2.4632e-08
genome	1159	2	81195210	2.4632e-08
genome	1161	1	81195210	1.2316e-08
genome	1189	1	81195210	1.2316e-08
genome	1192	1	81195210	1.2316e-08
genome	1238	1	81195210	1.2316e-08
genome	1240	1	81195210	1.2316e-08
genome	1254	1	81195210	1.2316e-08
genome	1256	1	81195210	1.2316e-08
genome	1257	2	81195210	2.4632e-08
genome	1260	1	81195210	1.2316e-08
genome	1261	1	81195210	1.2316e-08
genome	1263	1	81195210	1.2316e-08
genome	1267	1	81195210	1.2316e-08
genome	1269	1	81195210	1.2316e-08
genome	1271	2	81195210	2.4632e-08
genome	1274	1	81195210	1.2316e-08
genome	1276	22	81195210	2.70952e-07
genome	1277	2	81195210	2.4632e-08
genome	1287	1	81195210	1.2316e-08
genome	1310	2	81195210	2.4632e-08
genome	1334	1	81195210	1.2316e-08
genome	1339	1	81195210	1.2316e-08
genome	1348	2	81195210	2.4632e-08
genome	1350	2	81195210	2.4632e-08
genome	1361	1	81195210	1.2316e-08
genome	1375	1	81195210	1.2316e-08
genome	1376	1	81195210	1.2316e-08
genome	1401	1	81195210	1.2316e-08
genome	1402	1	81195210	1.2316e-08
genome	1416	1	81195210	1.2316e-08
genome	1424	1	81195210	1.2316e-08
genome	1434	1	81195210	1.2316e-08
genome	1435	1	81195210	1.2316e-08
genome	1440	1	81195210	1.2316e-08
genome	1472	1	81195210	1.2316e-08
genome	1476	1	81195210	1.2316e-08
genome	1481	1	81195210	1.2316e-08
genome	1491	1	81195210	1.2316e-08
genome	1528	1	81195210	1.2316e-08
genome	1545	1	81195210	1.2316e-08
genome	1561	1	81195210	1.2316e-08
genome	1577	1	81195210	1.2316e-08
genome	1579	1	81195210	1.2316e-08
genome	1635	1	81195210	1.2316e-08
genome	1639	1	81195210	1.2316e-08
genome	1643	1	81195210	1.2316e-08
genome	1644	1	81195210	1.2316e-08
genome	1645	1	81195210	1.2316e-08
genome	1661	1	81195210	1.2316e-08
genome	1668	1	81195210	1.2316e-08
genome	1673	1	81195210	1.2316e-08
genome	1681	1	81195210	1.2316e-08
genome	1701	1	81195210	1.2316e-08
genome	1703	1	81195210	1.2316e-08
genome	1704	1	81195210	1.2316e-08
genome	1711	1	81195210	1.2316e-08
genome	1718	1	81195210	1.2316e-08
genome	1729	1	81195210	1.2316e-08
genome	1740	1	81195210	1.2316e-08
genome	1744	2	81195210	2.4632e-08
genome	1750	1	81195210	1.2316e-08
genome	1754	1	81195210	1.2316e-08
genome	1805	1	81195210	1.2316e-08
genome	1806	1	81195210	1.2316e-08
genome	1815	1	81195210	1.2316e-08
genome	1816	1	81195210	1.2316e-08
genome	1818	1	81195210	1.2316e-08
genome	1819	1	81195210	1.2316e-08
genome	1821	1	81195210	1.2316e-08
genome	1845	1	81195210	1.2316e-08
genome	1849	1	81195210	1.2316e-08
genome	1906	1	81195210	1.2316e-08
genome	1925	1	81195210	1.2316e-08
genome	1935	1	81195210	1.2316e-08
genome	1946	1	81195210	1.2316e-08
genome	1954	1	81195210	1.2316e-08
genome	1988	1	81195210	1.2316e-08
genome	1994	1	81195210	1.2316e-08
genome	2016	1	81195210	1.2316e-08
genome	2041	1	81195210	1.2316e-08
genome	2054	1	81195210	1.2316e-08
genome	2083	1	81195210	1.2316e-08
genome	2084	1	81195210	1.2316e-08
genome	2085	1	81195210	1.2316e-08
genome	2166	1	81195210	1.2316e-08
genome	2176	1	81195210	1.2316e-08
genome	2205	1	81195210	1.2316e-08
genome	2214	1	81195210	1.2316e-08
genome	2231	1	81195210	1.2316e-08
genome	2250	1	81195210	1.2316e-08
genome	2316	2	81195210	2.4632e-08
genome	2327	1	81195210	1.2316e-08
genome	2337	1	81195210	1.2316e-08
genome	2352	1	81195210	1.2316e-08
genome	2353	1	81195210	1.2316e-08
genome	2371	1	81195210	1.2316e-08
genome	2372	1	81195210	1.2316e-08
genome	2374	1	81195210	1.2316e-08
genome	2381	1	81195210	1.2316e-08
genome	2386	2	81195210	2.4632e-08
genome	2387	1	81195210	1.2316e-08
genome	2394	1	81195210	1.2316e-08
genome	2395	1	81195210	1.2316e-08
genome	2402	2	81195210	2.4632e-08
genome	2415	1	81195210	1.2316e-08
genome	2423	1	81195210	1.2316e-08
genome	2437	2	81195210	2.4632e-08
genome	2438	1	81195210	1.2316e-08
genome	2456	1	81195210	1.2316e-08
genome	2472	1	81195210	1.2316e-08
genome	2481	1	81195210	1.2316e-08
genome	2485	1	81195210	1.2316e-08
genome	2495	1	81195210	1.2316e-08
genome	2498	1	81195210	1.2316e-08
genome	2504	1	81195210	1.2316e-08
genome	2507	1	81195210	1.2316e-08
genome	2508	1	81195210	1.2316e-08
genome	2517	1	81195210	1.2316e-08
genome	2527	1	81195210	1.2316e-08
genome	2542	1	81195210	1.2316e-08
genome	2546	1	81195210	1.2316e-08
genome	2558	1	81195210	1.2316e-08
genome	2574	1	81195210	1.2316e-08
genome	2583	1	81195210	1.2316e-08
genome	2592	1	81195210	1.2316e-08
genome	2593	1	81195210	1.2316e-08
genome	2595	1	81195210	1.2316e-08
genome	2600	1	81195210	1.2316e-08
genome	2603	2	81195210	2.4632e-08
genome	2611	1	81195210	1.2316e-08
genome	2612	1	81195210	1.2316e-08
genome	2635	1	81195210	1.2316e-08
genome	2642	1	81195210	1.2316e-08
genome	2645	1	81195210	1.2316e-08
genome	2651	1	81195210	1.2316e-08
genome	2654	1	81195210	1.2316e-08
genome	2655	1	81195210	1.2316e-08
genome	2657	1	81195210	1.2316e-08
genome	2664	1	81195210	1.2316e-08
genome	2667	1	81195210	1.2316e-08
genome	2671	1	81195210	1.2316e-08
genome	2676	2	81195210	2.4632e-08
genome	2677	1	81195210	1.2316e-08
genome	2679	1	81195210	1.2316e-08
genome	2680	4	81195210	4.9264e-08
genome	2682	1	81195210	1.2316e-08
genome	2685	1	81195210	1.2316e-08
genome	2686	1	81195210	1.2316e-08
genome	2688	3	81195210	3.6948e-08
genome	2689	21	81195210	2.58636e-07
genome	2692	1	81195210	1.2316e-08
genome	2699	1	81195210	1.2316e-08
genome	2702	1	81195210	1.2316e-08
genome	2705	1	81195210	1.2316e-08
genome	2725	1	81195210	1.2316e-08
genome	2728	1	81195210	1.2316e-08
genome	2729	1	81195210	1.2316e-08
genome	2732	1	81195210	1.2316e-08
genome	2734	1	81195210	1.2316e-08
genome	2741	1	81195210	1.2316e-08
genome	2752	1	81195210	1.2316e-08
genome	2754	2	81195210	2.4632e-08
genome	2763	1	81195210	1.2316e-08
genome	2764	1	81195210	1.2316e-08
genome	2769	1	81195210	1.2316e-08
genome	2777	1	81195210	1.2316e-08
genome	2778	1	81195210	1.2316e-08
genome	2787	1	81195210	1.2316e-08
genome	2789	1	81195210	1.2316e-08
genome	2790	1	81195210	1.2316e-08
genome	2812	1	81195210	1.2316e-08
genome	2816	1	81195210	1.2316e-08
genome	2837	1	81195210	1.2316e-08
genome	2839	1	81195210	1.2316e-08
genome	2845	1	81195210	1.2316e-08
genome	2846	1	81195210	1.2316e-08
genome	2852	1	81195210	1.2316e-08
genome	2857	1	81195210	1.2316e-08
genome	2867	1	81195210	1.2316e-08
genome	2881	1	81195210	1.2316e-08
genome	2889	1	81195210	1.2316e-08
genome	2893	2	81195210	2.4632e-08
genome	2900	1	81195210	1.2316e-08
genome	2902	1	81195210	1.2316e-08
genome	2908	1	81195210	1.2316e-08
genome	2918	1	81195210	1.2316e-08
genome	2926	1	81195210	1.2316e-08
genome	2929	1	81195210	1.2316e-08
genome	2933	1	81195210	1.2316e-08
genome	2934	2	81195210	2.4632e-08
genome	2940	1	81195210	1.2316e-08
genome	2941	1	81195210	1.2316e-08
genome	2948	1	81195210	1.2316e-08
genome	2952	1	81195210	1.2316e-08
genome	2961	1	81195210	1.2316e-08
genome	2963	1	81195210	1.2316e-08
genome	2969	1	81195210	1.2316e-08
genome	2973	1	81195210	1.2316e-08
genome	2975	1	81195210	1.2316e-08
genome	3000	1	81195210	1.2316e-08
genome	3008	1	81195210	1.2316e-08
genome	3029	1	81195210	1.2316e-08
genome	3058	1	81195210	1.2316e-08
genome	5758	1	81195210	1.2316e-08
genome	5829	1	81195210	1.2316e-08
genome	6118	1	81195210	1.2316e-08
genome	6171	3	81195210	3.6948e-08
genome	6395	1	81195210	1.2316e-08
genome	6425	1	81195210	1.2316e-08
genome	6426	1	81195210	1.2316e-08
genome	6428	2	81195210	2.4632e-08
genome	6430	2	81195210	2.4632e-08
genome	6432	1	81195210	1.2316e-08
genome	6437	1	81195210	1.2316e-08
genome	6438	18	81195210	2.21688e-07
