chr17	0	61705717	81195210	0.759967
chr17	1	13683982	81195210	0.168532
chr17	2	3290972	81195210	0.0405316
chr17	3	1032170	81195210	0.0127122
chr17	4	461033	81195210	0.00567808
chr17	5	259995	81195210	0.0032021
chr17	6	166413	81195210	0.00204954
chr17	7	115112	81195210	0.00141772
chr17	8	83037	81195210	0.00102268
chr17	9	61630	81195210	0.000759035
chr17	10	47612	81195210	0.000586389
chr17	11	37563	81195210	0.000462626
chr17	12	30191	81195210	0.000371832
chr17	13	24660	81195210	0.000303712
chr17	14	20885	81195210	0.00025722
chr17	15	17628	81195210	0.000217106
chr17	16	15303	81195210	0.000188472
chr17	17	13258	81195210	0.000163285
chr17	18	11487	81195210	0.000141474
chr17	19	9786	81195210	0.000120524
chr17	20	9183	81195210	0.000113098
chr17	21	7939	81195210	9.77767e-05
chr17	22	7365	81195210	9.07073e-05
chr17	23	6293	81195210	7.75046e-05
chr17	24	5883	81195210	7.2455e-05
chr17	25	5235	81195210	6.44742e-05
chr17	26	4859	81195210	5.98434e-05
chr17	27	4506	81195210	5.54959e-05
chr17	28	4173	81195210	5.13947e-05
chr17	29	3703	81195210	4.56061e-05
chr17	30	3447	81195210	4.24532e-05
chr17	31	3227	81195210	3.97437e-05
chr17	32	2960	81195210	3.64554e-05
chr17	33	2653	81195210	3.26743e-05
chr17	34	2572	81195210	3.16767e-05
chr17	35	2429	81195210	2.99156e-05
chr17	36	2339	81195210	2.88071e-05
chr17	37	2177	81195210	2.68119e-05
chr17	38	1971	81195210	2.42748e-05
chr17	39	1890	81195210	2.32772e-05
chr17	40	1709	81195210	2.1048e-05
chr17	41	1566	81195210	1.92869e-05
chr17	42	1508	81195210	1.85725e-05
chr17	43	1463	81195210	1.80183e-05
chr17	44	1238	81195210	1.52472e-05
chr17	45	1109	81195210	1.36584e-05
chr17	46	1058	81195210	1.30303e-05
chr17	47	945	81195210	1.16386e-05
chr17	48	923	81195210	1.13677e-05
chr17	49	822	81195210	1.01238e-05
chr17	50	722	81195210	8.89215e-06
chr17	51	674	81195210	8.30098e-06
chr17	52	657	81195210	8.09161e-06
chr17	53	556	81195210	6.84769e-06
chr17	54	538	81195210	6.62601e-06
chr17	55	513	81195210	6.31811e-06
chr17	56	430	81195210	5.29588e-06
chr17	57	385	81195210	4.74166e-06
chr17	58	370	81195210	4.55692e-06
chr17	59	347	81195210	4.27365e-06
chr17	60	353	81195210	4.34755e-06
chr17	61	300	81195210	3.6948e-06
chr17	62	265	81195210	3.26374e-06
chr17	63	222	81195210	2.73415e-06
chr17	64	235	81195210	2.89426e-06
chr17	65	157	81195210	1.93361e-06
chr17	66	156	81195210	1.9213e-06
chr17	67	150	81195210	1.8474e-06
chr17	68	129	81195210	1.58876e-06
chr17	69	116	81195210	1.42866e-06
chr17	70	126	81195210	1.55182e-06
chr17	71	122	81195210	1.50255e-06
chr17	72	117	81195210	1.44097e-06
chr17	73	113	81195210	1.39171e-06
chr17	74	116	81195210	1.42866e-06
chr17	75	108	81195210	1.33013e-06
chr17	76	106	81195210	1.3055e-06
chr17	77	109	81195210	1.34244e-06
chr17	78	75	81195210	9.237e-07
chr17	79	62	81195210	7.63592e-07
chr17	80	63	81195210	7.75908e-07
chr17	81	65	81195210	8.0054e-07
chr17	82	47	81195210	5.78852e-07
chr17	83	41	81195210	5.04956e-07
chr17	84	41	81195210	5.04956e-07
chr17	85	40	81195210	4.9264e-07
chr17	86	39	81195210	4.80324e-07
chr17	87	30	81195210	3.6948e-07
chr17	88	27	81195210	3.32532e-07
chr17	89	22	81195210	2.70952e-07
chr17	90	26	81195210	3.20216e-07
chr17	91	22	81195210	2.70952e-07
chr17	92	21	81195210	2.58636e-07
chr17	93	18	81195210	2.21688e-07
chr17	94	27	81195210	3.32532e-07
chr17	95	20	81195210	2.4632e-07
chr17	96	14	81195210	1.72424e-07
chr17	97	23	81195210	2.83268e-07
chr17	98	7	81195210	8.6212e-08
chr17	99	13	81195210	1.60108e-07
chr17	100	32	81195210	3.94112e-07
chr17	101	13	81195210	1.60108e-07
chr17	102	12	81195210	1.47792e-07
chr17	103	11	81195210	1.35476e-07
chr17	104	10	81195210	1.2316e-07
chr17	105	10	81195210	1.2316e-07
chr17	106	10	81195210	1.2316e-07
chr17	107	10	81195210	1.2316e-07
chr17	108	7	81195210	8.6212e-08
chr17	109	5	81195210	6.158e-08
chr17	110	4	81195210	4.9264e-08
chr17	111	4	81195210	4.9264e-08
chr17	112	10	81195210	1.2316e-07
chr17	113	7	81195210	8.6212e-08
chr17	114	1	81195210	1.2316e-08
chr17	115	13	81195210	1.60108e-07
chr17	116	11	81195210	1.35476e-07
chr17	117	4	81195210	4.9264e-08
chr17	118	3	81195210	3.6948e-08
chr17	119	6	81195210	7.3896e-08
chr17	120	4	81195210	4.9264e-08
chr17	121	4	81195210	4.9264e-08
chr17	122	12	81195210	1.47792e-07
chr17	123	2	81195210	2.4632e-08
chr17	124	3	81195210	3.6948e-08
chr17	125	8	81195210	9.8528e-08
chr17	126	4	81195210	4.9264e-08
chr17	127	4	81195210	4.9264e-08
chr17	128	4	81195210	4.9264e-08
chr17	129	2	81195210	2.4632e-08
chr17	130	5	81195210	6.158e-08
chr17	131	5	81195210	6.158e-08
chr17	132	3	81195210	3.6948e-08
chr17	133	3	81195210	3.6948e-08
chr17	134	4	81195210	4.9264e-08
chr17	135	1	81195210	1.2316e-08
chr17	136	2	81195210	2.4632e-08
chr17	137	3	81195210	3.6948e-08
chr17	138	3	81195210	3.6948e-08
chr17	139	2	81195210	2.4632e-08
chr17	140	2	81195210	2.4632e-08
chr17	141	1	81195210	1.2316e-08
chr17	142	4	81195210	4.9264e-08
chr17	143	4	81195210	4.9264e-08
chr17	144	3	81195210	3.6948e-08
chr17	145	3	81195210	3.6948e-08
chr17	146	8	81195210	9.8528e-08
chr17	147	4	81195210	4.9264e-08
chr17	148	5	81195210	6.158e-08
chr17	149	1	81195210	1.2316e-08
chr17	150	6	81195210	7.3896e-08
chr17	151	2	81195210	2.4632e-08
chr17	152	4	81195210	4.9264e-08
chr17	153	5	81195210	6.158e-08
chr17	154	4	81195210	4.9264e-08
chr17	155	3	81195210	3.6948e-08
chr17	156	1	81195210	1.2316e-08
chr17	157	2	81195210	2.4632e-08
chr17	158	4	81195210	4.9264e-08
chr17	159	2	81195210	2.4632e-08
chr17	160	5	81195210	6.158e-08
chr17	161	5	81195210	6.158e-08
chr17	162	3	81195210	3.6948e-08
chr17	163	8	81195210	9.8528e-08
chr17	164	6	81195210	7.3896e-08
chr17	165	6	81195210	7.3896e-08
chr17	166	6	81195210	7.3896e-08
chr17	167	4	81195210	4.9264e-08
chr17	168	1	81195210	1.2316e-08
chr17	169	4	81195210	4.9264e-08
chr17	170	5	81195210	6.158e-08
chr17	171	6	81195210	7.3896e-08
chr17	172	4	81195210	4.9264e-08
chr17	173	4	81195210	4.9264e-08
chr17	174	6	81195210	7.3896e-08
chr17	175	3	81195210	3.6948e-08
chr17	176	1	81195210	1.2316e-08
chr17	177	1	81195210	1.2316e-08
chr17	180	1	81195210	1.2316e-08
chr17	181	1	81195210	1.2316e-08
chr17	182	2	81195210	2.4632e-08
chr17	183	2	81195210	2.4632e-08
chr17	184	4	81195210	4.9264e-08
chr17	185	1	81195210	1.2316e-08
chr17	186	1	81195210	1.2316e-08
chr17	187	3	81195210	3.6948e-08
chr17	189	3	81195210	3.6948e-08
chr17	190	1	81195210	1.2316e-08
chr17	191	2	81195210	2.4632e-08
chr17	193	2	81195210	2.4632e-08
chr17	195	3	81195210	3.6948e-08
chr17	196	4	81195210	4.9264e-08
chr17	197	1	81195210	1.2316e-08
chr17	198	4	81195210	4.9264e-08
chr17	199	3	81195210	3.6948e-08
chr17	200	4	81195210	4.9264e-08
chr17	201	4	81195210	4.9264e-08
chr17	202	1	81195210	1.2316e-08
chr17	203	3	81195210	3.6948e-08
chr17	205	2	81195210	2.4632e-08
chr17	206	1	81195210	1.2316e-08
chr17	207	3	81195210	3.6948e-08
chr17	209	1	81195210	1.2316e-08
chr17	210	2	81195210	2.4632e-08
chr17	211	5	81195210	6.158e-08
chr17	212	2	81195210	2.4632e-08
chr17	214	1	81195210	1.2316e-08
chr17	215	1	81195210	1.2316e-08
chr17	216	1	81195210	1.2316e-08
chr17	220	3	81195210	3.6948e-08
chr17	221	1	81195210	1.2316e-08
chr17	222	3	81195210	3.6948e-08
chr17	223	4	81195210	4.9264e-08
chr17	224	1	81195210	1.2316e-08
chr17	225	2	81195210	2.4632e-08
chr17	227	3	81195210	3.6948e-08
chr17	228	2	81195210	2.4632e-08
chr17	229	6	81195210	7.3896e-08
chr17	230	1	81195210	1.2316e-08
chr17	238	1	81195210	1.2316e-08
chr17	243	1	81195210	1.2316e-08
chr17	246	1	81195210	1.2316e-08
chr17	255	1	81195210	1.2316e-08
chr17	256	1	81195210	1.2316e-08
chr17	263	1	81195210	1.2316e-08
chr17	268	1	81195210	1.2316e-08
chr17	276	1	81195210	1.2316e-08
chr17	281	4	81195210	4.9264e-08
chr17	282	2	81195210	2.4632e-08
chr17	292	3	81195210	3.6948e-08
chr17	295	2	81195210	2.4632e-08
chr17	297	2	81195210	2.4632e-08
chr17	300	3	81195210	3.6948e-08
chr17	301	1	81195210	1.2316e-08
chr17	304	2	81195210	2.4632e-08
chr17	306	1	81195210	1.2316e-08
chr17	309	2	81195210	2.4632e-08
chr17	313	1	81195210	1.2316e-08
chr17	315	1	81195210	1.2316e-08
chr17	317	1	81195210	1.2316e-08
chr17	320	5	81195210	6.158e-08
chr17	321	4	81195210	4.9264e-08
chr17	324	1	81195210	1.2316e-08
chr17	325	1	81195210	1.2316e-08
chr17	330	2	81195210	2.4632e-08
chr17	331	1	81195210	1.2316e-08
chr17	336	1	81195210	1.2316e-08
chr17	337	2	81195210	2.4632e-08
chr17	338	1	81195210	1.2316e-08
chr17	342	2	81195210	2.4632e-08
chr17	355	1	81195210	1.2316e-08
chr17	357	1	81195210	1.2316e-08
chr17	359	1	81195210	1.2316e-08
chr17	361	1	81195210	1.2316e-08
chr17	364	2	81195210	2.4632e-08
chr17	368	1	81195210	1.2316e-08
chr17	370	3	81195210	3.6948e-08
chr17	371	1	81195210	1.2316e-08
chr17	373	1	81195210	1.2316e-08
chr17	376	3	81195210	3.6948e-08
chr17	378	1	81195210	1.2316e-08
chr17	384	1	81195210	1.2316e-08
chr17	385	1	81195210	1.2316e-08
chr17	386	1	81195210	1.2316e-08
chr17	397	7	81195210	8.6212e-08
chr17	405	1	81195210	1.2316e-08
chr17	406	2	81195210	2.4632e-08
chr17	411	1	81195210	1.2316e-08
chr17	413	1	81195210	1.2316e-08
chr17	415	1	81195210	1.2316e-08
chr17	416	2	81195210	2.4632e-08
chr17	418	1	81195210	1.2316e-08
chr17	420	1	81195210	1.2316e-08
chr17	423	1	81195210	1.2316e-08
chr17	425	1	81195210	1.2316e-08
chr17	426	1	81195210	1.2316e-08
chr17	427	2	81195210	2.4632e-08
chr17	428	1	81195210	1.2316e-08
chr17	429	1	81195210	1.2316e-08
chr17	430	1	81195210	1.2316e-08
chr17	432	1	81195210	1.2316e-08
chr17	433	1	81195210	1.2316e-08
chr17	435	2	81195210	2.4632e-08
chr17	437	2	81195210	2.4632e-08
chr17	459	1	81195210	1.2316e-08
chr17	461	1	81195210	1.2316e-08
chr17	465	1	81195210	1.2316e-08
chr17	468	1	81195210	1.2316e-08
chr17	469	1	81195210	1.2316e-08
chr17	470	1	81195210	1.2316e-08
chr17	473	4	81195210	4.9264e-08
chr17	475	2	81195210	2.4632e-08
chr17	476	1	81195210	1.2316e-08
chr17	477	2	81195210	2.4632e-08
chr17	478	1	81195210	1.2316e-08
chr17	480	1	81195210	1.2316e-08
chr17	481	1	81195210	1.2316e-08
chr17	485	1	81195210	1.2316e-08
chr17	493	1	81195210	1.2316e-08
chr17	498	1	81195210	1.2316e-08
chr17	499	2	81195210	2.4632e-08
chr17	500	1	81195210	1.2316e-08
chr17	505	1	81195210	1.2316e-08
chr17	508	2	81195210	2.4632e-08
chr17	509	1	81195210	1.2316e-08
chr17	510	1	81195210	1.2316e-08
chr17	511	1	81195210	1.2316e-08
chr17	513	1	81195210	1.2316e-08
chr17	517	1	81195210	1.2316e-08
chr17	519	3	81195210	3.6948e-08
chr17	523	2	81195210	2.4632e-08
chr17	525	1	81195210	1.2316e-08
chr17	526	1	81195210	1.2316e-08
chr17	527	1	81195210	1.2316e-08
chr17	528	1	81195210	1.2316e-08
chr17	530	1	81195210	1.2316e-08
chr17	534	1	81195210	1.2316e-08
chr17	539	1	81195210	1.2316e-08
chr17	540	1	81195210	1.2316e-08
chr17	543	1	81195210	1.2316e-08
chr17	546	2	81195210	2.4632e-08
chr17	547	3	81195210	3.6948e-08
chr17	549	1	81195210	1.2316e-08
chr17	551	1	81195210	1.2316e-08
chr17	555	1	81195210	1.2316e-08
chr17	557	1	81195210	1.2316e-08
chr17	558	1	81195210	1.2316e-08
chr17	559	1	81195210	1.2316e-08
chr17	560	1	81195210	1.2316e-08
chr17	561	1	81195210	1.2316e-08
chr17	564	2	81195210	2.4632e-08
chr17	575	1	81195210	1.2316e-08
chr17	576	1	81195210	1.2316e-08
chr17	580	1	81195210	1.2316e-08
chr17	589	1	81195210	1.2316e-08
chr17	590	1	81195210	1.2316e-08
chr17	593	1	81195210	1.2316e-08
chr17	594	1	81195210	1.2316e-08
chr17	601	1	81195210	1.2316e-08
chr17	602	2	81195210	2.4632e-08
chr17	603	1	81195210	1.2316e-08
chr17	604	1	81195210	1.2316e-08
chr17	606	1	81195210	1.2316e-08
chr17	611	1	81195210	1.2316e-08
chr17	613	2	81195210	2.4632e-08
chr17	618	1	81195210	1.2316e-08
chr17	620	1	81195210	1.2316e-08
chr17	622	1	81195210	1.2316e-08
chr17	626	1	81195210	1.2316e-08
chr17	629	1	81195210	1.2316e-08
chr17	633	1	81195210	1.2316e-08
chr17	637	1	81195210	1.2316e-08
chr17	640	1	81195210	1.2316e-08
chr17	641	1	81195210	1.2316e-08
chr17	646	1	81195210	1.2316e-08
chr17	650	1	81195210	1.2316e-08
chr17	655	1	81195210	1.2316e-08
chr17	662	1	81195210	1.2316e-08
chr17	685	1	81195210	1.2316e-08
genome	0	61705717	81195210	0.759967
genome	1	13683982	81195210	0.168532
genome	2	3290972	81195210	0.0405316
genome	3	1032170	81195210	0.0127122
genome	4	461033	81195210	0.00567808
genome	5	259995	81195210	0.0032021
genome	6	166413	81195210	0.00204954
genome	7	115112	81195210	0.00141772
genome	8	83037	81195210	0.00102268
genome	9	61630	81195210	0.000759035
genome	10	47612	81195210	0.000586389
genome	11	37563	81195210	0.000462626
genome	12	30191	81195210	0.000371832
genome	13	24660	81195210	0.000303712
genome	14	20885	81195210	0.00025722
genome	15	17628	81195210	0.000217106
genome	16	15303	81195210	0.000188472
genome	17	13258	81195210	0.000163285
genome	18	11487	81195210	0.000141474
genome	19	9786	81195210	0.000120524
genome	20	9183	81195210	0.000113098
genome	21	7939	81195210	9.77767e-05
genome	22	7365	81195210	9.07073e-05
genome	23	6293	81195210	7.75046e-05
genome	24	5883	81195210	7.2455e-05
genome	25	5235	81195210	6.44742e-05
genome	26	4859	81195210	5.98434e-05
genome	27	4506	81195210	5.54959e-05
genome	28	4173	81195210	5.13947e-05
genome	29	3703	81195210	4.56061e-05
genome	30	3447	81195210	4.24532e-05
genome	31	3227	81195210	3.97437e-05
genome	32	2960	81195210	3.64554e-05
genome	33	2653	81195210	3.26743e-05
genome	34	2572	81195210	3.16767e-05
genome	35	2429	81195210	2.99156e-05
genome	36	2339	81195210	2.88071e-05
genome	37	2177	81195210	2.68119e-05
genome	38	1971	81195210	2.42748e-05
genome	39	1890	81195210	2.32772e-05
genome	40	1709	81195210	2.1048e-05
genome	41	1566	81195210	1.92869e-05
genome	42	1508	81195210	1.85725e-05
genome	43	1463	81195210	1.80183e-05
genome	44	1238	81195210	1.52472e-05
genome	45	1109	81195210	1.36584e-05
genome	46	1058	81195210	1.30303e-05
genome	47	945	81195210	1.16386e-05
genome	48	923	81195210	1.13677e-05
genome	49	822	81195210	1.01238e-05
genome	50	722	81195210	8.89215e-06
genome	51	674	81195210	8.30098e-06
genome	52	657	81195210	8.09161e-06
genome	53	556	81195210	6.84769e-06
genome	54	538	81195210	6.62601e-06
genome	55	513	81195210	6.31811e-06
genome	56	430	81195210	5.29588e-06
genome	57	385	81195210	4.74166e-06
genome	58	370	81195210	4.55692e-06
genome	59	347	81195210	4.27365e-06
genome	60	353	81195210	4.34755e-06
genome	61	300	81195210	3.6948e-06
genome	62	265	81195210	3.26374e-06
genome	63	222	81195210	2.73415e-06
genome	64	235	81195210	2.89426e-06
genome	65	157	81195210	1.93361e-06
genome	66	156	81195210	1.9213e-06
genome	67	150	81195210	1.8474e-06
genome	68	129	81195210	1.58876e-06
genome	69	116	81195210	1.42866e-06
genome	70	126	81195210	1.55182e-06
genome	71	122	81195210	1.50255e-06
genome	72	117	81195210	1.44097e-06
genome	73	113	81195210	1.39171e-06
genome	74	116	81195210	1.42866e-06
genome	75	108	81195210	1.33013e-06
genome	76	106	81195210	1.3055e-06
genome	77	109	81195210	1.34244e-06
genome	78	75	81195210	9.237e-07
genome	79	62	81195210	7.63592e-07
genome	80	63	81195210	7.75908e-07
genome	81	65	81195210	8.0054e-07
genome	82	47	81195210	5.78852e-07
genome	83	41	81195210	5.04956e-07
genome	84	41	81195210	5.04956e-07
genome	85	40	81195210	4.9264e-07
genome	86	39	81195210	4.80324e-07
genome	87	30	81195210	3.6948e-07
genome	88	27	81195210	3.32532e-07
genome	89	22	81195210	2.70952e-07
genome	90	26	81195210	3.20216e-07
genome	91	22	81195210	2.70952e-07
genome	92	21	81195210	2.58636e-07
genome	93	18	81195210	2.21688e-07
genome	94	27	81195210	3.32532e-07
genome	95	20	81195210	2.4632e-07
genome	96	14	81195210	1.72424e-07
genome	97	23	81195210	2.83268e-07
genome	98	7	81195210	8.6212e-08
genome	99	13	81195210	1.60108e-07
genome	100	32	81195210	3.94112e-07
genome	101	13	81195210	1.60108e-07
genome	102	12	81195210	1.47792e-07
genome	103	11	81195210	1.35476e-07
genome	104	10	81195210	1.2316e-07
genome	105	10	81195210	1.2316e-07
genome	106	10	81195210	1.2316e-07
genome	107	10	81195210	1.2316e-07
genome	108	7	81195210	8.6212e-08
genome	109	5	81195210	6.158e-08
genome	110	4	81195210	4.9264e-08
genome	111	4	81195210	4.9264e-08
genome	112	10	81195210	1.2316e-07
genome	113	7	81195210	8.6212e-08
genome	114	1	81195210	1.2316e-08
genome	115	13	81195210	1.60108e-07
genome	116	11	81195210	1.35476e-07
genome	117	4	81195210	4.9264e-08
genome	118	3	81195210	3.6948e-08
genome	119	6	81195210	7.3896e-08
genome	120	4	81195210	4.9264e-08
genome	121	4	81195210	4.9264e-08
genome	122	12	81195210	1.47792e-07
genome	123	2	81195210	2.4632e-08
genome	124	3	81195210	3.6948e-08
genome	125	8	81195210	9.8528e-08
genome	126	4	81195210	4.9264e-08
genome	127	4	81195210	4.9264e-08
genome	128	4	81195210	4.9264e-08
genome	129	2	81195210	2.4632e-08
genome	130	5	81195210	6.158e-08
genome	131	5	81195210	6.158e-08
genome	132	3	81195210	3.6948e-08
genome	133	3	81195210	3.6948e-08
genome	134	4	81195210	4.9264e-08
genome	135	1	81195210	1.2316e-08
genome	136	2	81195210	2.4632e-08
genome	137	3	81195210	3.6948e-08
genome	138	3	81195210	3.6948e-08
genome	139	2	81195210	2.4632e-08
genome	140	2	81195210	2.4632e-08
genome	141	1	81195210	1.2316e-08
genome	142	4	81195210	4.9264e-08
genome	143	4	81195210	4.9264e-08
genome	144	3	81195210	3.6948e-08
genome	145	3	81195210	3.6948e-08
genome	146	8	81195210	9.8528e-08
genome	147	4	81195210	4.9264e-08
genome	148	5	81195210	6.158e-08
genome	149	1	81195210	1.2316e-08
genome	150	6	81195210	7.3896e-08
genome	151	2	81195210	2.4632e-08
genome	152	4	81195210	4.9264e-08
genome	153	5	81195210	6.158e-08
genome	154	4	81195210	4.9264e-08
genome	155	3	81195210	3.6948e-08
genome	156	1	81195210	1.2316e-08
genome	157	2	81195210	2.4632e-08
genome	158	4	81195210	4.9264e-08
genome	159	2	81195210	2.4632e-08
genome	160	5	81195210	6.158e-08
genome	161	5	81195210	6.158e-08
genome	162	3	81195210	3.6948e-08
genome	163	8	81195210	9.8528e-08
genome	164	6	81195210	7.3896e-08
genome	165	6	81195210	7.3896e-08
genome	166	6	81195210	7.3896e-08
genome	167	4	81195210	4.9264e-08
genome	168	1	81195210	1.2316e-08
genome	169	4	81195210	4.9264e-08
genome	170	5	81195210	6.158e-08
genome	171	6	81195210	7.3896e-08
genome	172	4	81195210	4.9264e-08
genome	173	4	81195210	4.9264e-08
genome	174	6	81195210	7.3896e-08
genome	175	3	81195210	3.6948e-08
genome	176	1	81195210	1.2316e-08
genome	177	1	81195210	1.2316e-08
genome	180	1	81195210	1.2316e-08
genome	181	1	81195210	1.2316e-08
genome	182	2	81195210	2.4632e-08
genome	183	2	81195210	2.4632e-08
genome	184	4	81195210	4.9264e-08
genome	185	1	81195210	1.2316e-08
genome	186	1	81195210	1.2316e-08
genome	187	3	81195210	3.6948e-08
genome	189	3	81195210	3.6948e-08
genome	190	1	81195210	1.2316e-08
genome	191	2	81195210	2.4632e-08
genome	193	2	81195210	2.4632e-08
genome	195	3	81195210	3.6948e-08
genome	196	4	81195210	4.9264e-08
genome	197	1	81195210	1.2316e-08
genome	198	4	81195210	4.9264e-08
genome	199	3	81195210	3.6948e-08
genome	200	4	81195210	4.9264e-08
genome	201	4	81195210	4.9264e-08
genome	202	1	81195210	1.2316e-08
genome	203	3	81195210	3.6948e-08
genome	205	2	81195210	2.4632e-08
genome	206	1	81195210	1.2316e-08
genome	207	3	81195210	3.6948e-08
genome	209	1	81195210	1.2316e-08
genome	210	2	81195210	2.4632e-08
genome	211	5	81195210	6.158e-08
genome	212	2	81195210	2.4632e-08
genome	214	1	81195210	1.2316e-08
genome	215	1	81195210	1.2316e-08
genome	216	1	81195210	1.2316e-08
genome	220	3	81195210	3.6948e-08
genome	221	1	81195210	1.2316e-08
genome	222	3	81195210	3.6948e-08
genome	223	4	81195210	4.9264e-08
genome	224	1	81195210	1.2316e-08
genome	225	2	81195210	2.4632e-08
genome	227	3	81195210	3.6948e-08
genome	228	2	81195210	2.4632e-08
genome	229	6	81195210	7.3896e-08
genome	230	1	81195210	1.2316e-08
genome	238	1	81195210	1.2316e-08
genome	243	1	81195210	1.2316e-08
genome	246	1	81195210	1.2316e-08
genome	255	1	81195210	1.2316e-08
genome	256	1	81195210	1.2316e-08
genome	263	1	81195210	1.2316e-08
genome	268	1	81195210	1.2316e-08
genome	276	1	81195210	1.2316e-08
genome	281	4	81195210	4.9264e-08
genome	282	2	81195210	2.4632e-08
genome	292	3	81195210	3.6948e-08
genome	295	2	81195210	2.4632e-08
genome	297	2	81195210	2.4632e-08
genome	300	3	81195210	3.6948e-08
genome	301	1	81195210	1.2316e-08
genome	304	2	81195210	2.4632e-08
genome	306	1	81195210	1.2316e-08
genome	309	2	81195210	2.4632e-08
genome	313	1	81195210	1.2316e-08
genome	315	1	81195210	1.2316e-08
genome	317	1	81195210	1.2316e-08
genome	320	5	81195210	6.158e-08
genome	321	4	81195210	4.9264e-08
genome	324	1	81195210	1.2316e-08
genome	325	1	81195210	1.2316e-08
genome	330	2	81195210	2.4632e-08
genome	331	1	81195210	1.2316e-08
genome	336	1	81195210	1.2316e-08
genome	337	2	81195210	2.4632e-08
genome	338	1	81195210	1.2316e-08
genome	342	2	81195210	2.4632e-08
genome	355	1	81195210	1.2316e-08
genome	357	1	81195210	1.2316e-08
genome	359	1	81195210	1.2316e-08
genome	361	1	81195210	1.2316e-08
genome	364	2	81195210	2.4632e-08
genome	368	1	81195210	1.2316e-08
genome	370	3	81195210	3.6948e-08
genome	371	1	81195210	1.2316e-08
genome	373	1	81195210	1.2316e-08
genome	376	3	81195210	3.6948e-08
genome	378	1	81195210	1.2316e-08
genome	384	1	81195210	1.2316e-08
genome	385	1	81195210	1.2316e-08
genome	386	1	81195210	1.2316e-08
genome	397	7	81195210	8.6212e-08
genome	405	1	81195210	1.2316e-08
genome	406	2	81195210	2.4632e-08
genome	411	1	81195210	1.2316e-08
genome	413	1	81195210	1.2316e-08
genome	415	1	81195210	1.2316e-08
genome	416	2	81195210	2.4632e-08
genome	418	1	81195210	1.2316e-08
genome	420	1	81195210	1.2316e-08
genome	423	1	81195210	1.2316e-08
genome	425	1	81195210	1.2316e-08
genome	426	1	81195210	1.2316e-08
genome	427	2	81195210	2.4632e-08
genome	428	1	81195210	1.2316e-08
genome	429	1	81195210	1.2316e-08
genome	430	1	81195210	1.2316e-08
genome	432	1	81195210	1.2316e-08
genome	433	1	81195210	1.2316e-08
genome	435	2	81195210	2.4632e-08
genome	437	2	81195210	2.4632e-08
genome	459	1	81195210	1.2316e-08
genome	461	1	81195210	1.2316e-08
genome	465	1	81195210	1.2316e-08
genome	468	1	81195210	1.2316e-08
genome	469	1	81195210	1.2316e-08
genome	470	1	81195210	1.2316e-08
genome	473	4	81195210	4.9264e-08
genome	475	2	81195210	2.4632e-08
genome	476	1	81195210	1.2316e-08
genome	477	2	81195210	2.4632e-08
genome	478	1	81195210	1.2316e-08
genome	480	1	81195210	1.2316e-08
genome	481	1	81195210	1.2316e-08
genome	485	1	81195210	1.2316e-08
genome	493	1	81195210	1.2316e-08
genome	498	1	81195210	1.2316e-08
genome	499	2	81195210	2.4632e-08
genome	500	1	81195210	1.2316e-08
genome	505	1	81195210	1.2316e-08
genome	508	2	81195210	2.4632e-08
genome	509	1	81195210	1.2316e-08
genome	510	1	81195210	1.2316e-08
genome	511	1	81195210	1.2316e-08
genome	513	1	81195210	1.2316e-08
genome	517	1	81195210	1.2316e-08
genome	519	3	81195210	3.6948e-08
genome	523	2	81195210	2.4632e-08
genome	525	1	81195210	1.2316e-08
genome	526	1	81195210	1.2316e-08
genome	527	1	81195210	1.2316e-08
genome	528	1	81195210	1.2316e-08
genome	530	1	81195210	1.2316e-08
genome	534	1	81195210	1.2316e-08
genome	539	1	81195210	1.2316e-08
genome	540	1	81195210	1.2316e-08
genome	543	1	81195210	1.2316e-08
genome	546	2	81195210	2.4632e-08
genome	547	3	81195210	3.6948e-08
genome	549	1	81195210	1.2316e-08
genome	551	1	81195210	1.2316e-08
genome	555	1	81195210	1.2316e-08
genome	557	1	81195210	1.2316e-08
genome	558	1	81195210	1.2316e-08
genome	559	1	81195210	1.2316e-08
genome	560	1	81195210	1.2316e-08
genome	561	1	81195210	1.2316e-08
genome	564	2	81195210	2.4632e-08
genome	575	1	81195210	1.2316e-08
genome	576	1	81195210	1.2316e-08
genome	580	1	81195210	1.2316e-08
genome	589	1	81195210	1.2316e-08
genome	590	1	81195210	1.2316e-08
genome	593	1	81195210	1.2316e-08
genome	594	1	81195210	1.2316e-08
genome	601	1	81195210	1.2316e-08
genome	602	2	81195210	2.4632e-08
genome	603	1	81195210	1.2316e-08
genome	604	1	81195210	1.2316e-08
genome	606	1	81195210	1.2316e-08
genome	611	1	81195210	1.2316e-08
genome	613	2	81195210	2.4632e-08
genome	618	1	81195210	1.2316e-08
genome	620	1	81195210	1.2316e-08
genome	622	1	81195210	1.2316e-08
genome	626	1	81195210	1.2316e-08
genome	629	1	81195210	1.2316e-08
genome	633	1	81195210	1.2316e-08
genome	637	1	81195210	1.2316e-08
genome	640	1	81195210	1.2316e-08
genome	641	1	81195210	1.2316e-08
genome	646	1	81195210	1.2316e-08
genome	650	1	81195210	1.2316e-08
genome	655	1	81195210	1.2316e-08
genome	662	1	81195210	1.2316e-08
genome	685	1	81195210	1.2316e-08
