chr17	0	56460006	81195210	0.695361
chr17	1	17459376	81195210	0.21503
chr17	2	4646468	81195210	0.0572259
chr17	3	1230621	81195210	0.0151563
chr17	4	436443	81195210	0.00537523
chr17	5	220828	81195210	0.00271972
chr17	6	141005	81195210	0.00173662
chr17	7	99346	81195210	0.00122355
chr17	8	74597	81195210	0.000918737
chr17	9	55755	81195210	0.000686678
chr17	10	43893	81195210	0.000540586
chr17	11	35923	81195210	0.000442428
chr17	12	30035	81195210	0.000369911
chr17	13	25542	81195210	0.000314575
chr17	14	21920	81195210	0.000269967
chr17	15	19145	81195210	0.00023579
chr17	16	16673	81195210	0.000205345
chr17	17	14393	81195210	0.000177264
chr17	18	12812	81195210	0.000157793
chr17	19	11278	81195210	0.0001389
chr17	20	10203	81195210	0.00012566
chr17	21	9154	81195210	0.000112741
chr17	22	8556	81195210	0.000105376
chr17	23	7662	81195210	9.43652e-05
chr17	24	7048	81195210	8.68031e-05
chr17	25	6714	81195210	8.26896e-05
chr17	26	5905	81195210	7.2726e-05
chr17	27	5623	81195210	6.92529e-05
chr17	28	5123	81195210	6.30949e-05
chr17	29	4768	81195210	5.87227e-05
chr17	30	4108	81195210	5.05941e-05
chr17	31	4021	81195210	4.95226e-05
chr17	32	3534	81195210	4.35247e-05
chr17	33	3489	81195210	4.29705e-05
chr17	34	3171	81195210	3.9054e-05
chr17	35	2867	81195210	3.531e-05
chr17	36	2803	81195210	3.45217e-05
chr17	37	2616	81195210	3.22186e-05
chr17	38	2378	81195210	2.92874e-05
chr17	39	2187	81195210	2.69351e-05
chr17	40	2081	81195210	2.56296e-05
chr17	41	1891	81195210	2.32896e-05
chr17	42	1754	81195210	2.16023e-05
chr17	43	1687	81195210	2.07771e-05
chr17	44	1729	81195210	2.12944e-05
chr17	45	1512	81195210	1.86218e-05
chr17	46	1458	81195210	1.79567e-05
chr17	47	1333	81195210	1.64172e-05
chr17	48	1260	81195210	1.55182e-05
chr17	49	1157	81195210	1.42496e-05
chr17	50	1074	81195210	1.32274e-05
chr17	51	1043	81195210	1.28456e-05
chr17	52	921	81195210	1.1343e-05
chr17	53	966	81195210	1.18973e-05
chr17	54	989	81195210	1.21805e-05
chr17	55	891	81195210	1.09736e-05
chr17	56	841	81195210	1.03578e-05
chr17	57	825	81195210	1.01607e-05
chr17	58	840	81195210	1.03454e-05
chr17	59	698	81195210	8.59657e-06
chr17	60	713	81195210	8.78131e-06
chr17	61	648	81195210	7.98077e-06
chr17	62	677	81195210	8.33793e-06
chr17	63	605	81195210	7.45118e-06
chr17	64	542	81195210	6.67527e-06
chr17	65	550	81195210	6.7738e-06
chr17	66	507	81195210	6.24421e-06
chr17	67	455	81195210	5.60378e-06
chr17	68	435	81195210	5.35746e-06
chr17	69	370	81195210	4.55692e-06
chr17	70	313	81195210	3.85491e-06
chr17	71	352	81195210	4.33523e-06
chr17	72	307	81195210	3.78101e-06
chr17	73	337	81195210	4.15049e-06
chr17	74	312	81195210	3.84259e-06
chr17	75	264	81195210	3.25142e-06
chr17	76	264	81195210	3.25142e-06
chr17	77	212	81195210	2.61099e-06
chr17	78	208	81195210	2.56173e-06
chr17	79	215	81195210	2.64794e-06
chr17	80	199	81195210	2.45088e-06
chr17	81	189	81195210	2.32772e-06
chr17	82	168	81195210	2.06909e-06
chr17	83	198	81195210	2.43857e-06
chr17	84	183	81195210	2.25383e-06
chr17	85	174	81195210	2.14298e-06
chr17	86	173	81195210	2.13067e-06
chr17	87	165	81195210	2.03214e-06
chr17	88	144	81195210	1.7735e-06
chr17	89	100	81195210	1.2316e-06
chr17	90	108	81195210	1.33013e-06
chr17	91	102	81195210	1.25623e-06
chr17	92	88	81195210	1.08381e-06
chr17	93	87	81195210	1.07149e-06
chr17	94	90	81195210	1.10844e-06
chr17	95	86	81195210	1.05918e-06
chr17	96	81	81195210	9.97596e-07
chr17	97	65	81195210	8.0054e-07
chr17	98	71	81195210	8.74436e-07
chr17	99	53	81195210	6.52748e-07
chr17	100	39	81195210	4.80324e-07
chr17	101	31	81195210	3.81796e-07
chr17	102	36	81195210	4.43376e-07
chr17	103	27	81195210	3.32532e-07
chr17	104	27	81195210	3.32532e-07
chr17	105	19	81195210	2.34004e-07
chr17	106	25	81195210	3.079e-07
chr17	107	25	81195210	3.079e-07
chr17	108	32	81195210	3.94112e-07
chr17	109	30	81195210	3.6948e-07
chr17	110	19	81195210	2.34004e-07
chr17	111	21	81195210	2.58636e-07
chr17	112	13	81195210	1.60108e-07
chr17	113	12	81195210	1.47792e-07
chr17	114	14	81195210	1.72424e-07
chr17	115	14	81195210	1.72424e-07
chr17	116	11	81195210	1.35476e-07
chr17	117	17	81195210	2.09372e-07
chr17	118	8	81195210	9.8528e-08
chr17	119	11	81195210	1.35476e-07
chr17	120	16	81195210	1.97056e-07
chr17	121	13	81195210	1.60108e-07
chr17	122	9	81195210	1.10844e-07
chr17	123	9	81195210	1.10844e-07
chr17	124	6	81195210	7.3896e-08
chr17	125	12	81195210	1.47792e-07
chr17	126	9	81195210	1.10844e-07
chr17	127	5	81195210	6.158e-08
chr17	128	3	81195210	3.6948e-08
chr17	129	4	81195210	4.9264e-08
chr17	130	3	81195210	3.6948e-08
chr17	131	2	81195210	2.4632e-08
chr17	132	7	81195210	8.6212e-08
chr17	133	3	81195210	3.6948e-08
chr17	134	9	81195210	1.10844e-07
chr17	135	4	81195210	4.9264e-08
chr17	136	3	81195210	3.6948e-08
chr17	137	1	81195210	1.2316e-08
chr17	138	5	81195210	6.158e-08
chr17	139	2	81195210	2.4632e-08
chr17	140	2	81195210	2.4632e-08
chr17	141	3	81195210	3.6948e-08
chr17	142	4	81195210	4.9264e-08
chr17	143	7	81195210	8.6212e-08
chr17	144	2	81195210	2.4632e-08
chr17	145	1	81195210	1.2316e-08
chr17	146	2	81195210	2.4632e-08
chr17	147	1	81195210	1.2316e-08
chr17	148	2	81195210	2.4632e-08
chr17	149	5	81195210	6.158e-08
chr17	150	3	81195210	3.6948e-08
chr17	151	8	81195210	9.8528e-08
chr17	152	3	81195210	3.6948e-08
chr17	153	1	81195210	1.2316e-08
chr17	154	3	81195210	3.6948e-08
chr17	155	4	81195210	4.9264e-08
chr17	156	2	81195210	2.4632e-08
chr17	157	1	81195210	1.2316e-08
chr17	158	2	81195210	2.4632e-08
chr17	159	1	81195210	1.2316e-08
chr17	160	11	81195210	1.35476e-07
chr17	161	3	81195210	3.6948e-08
chr17	162	2	81195210	2.4632e-08
chr17	163	1	81195210	1.2316e-08
chr17	164	8	81195210	9.8528e-08
chr17	165	4	81195210	4.9264e-08
chr17	166	2	81195210	2.4632e-08
chr17	167	6	81195210	7.3896e-08
chr17	169	3	81195210	3.6948e-08
chr17	170	4	81195210	4.9264e-08
chr17	171	5	81195210	6.158e-08
chr17	172	3	81195210	3.6948e-08
chr17	173	3	81195210	3.6948e-08
chr17	174	2	81195210	2.4632e-08
chr17	175	7	81195210	8.6212e-08
chr17	176	2	81195210	2.4632e-08
chr17	177	3	81195210	3.6948e-08
chr17	178	3	81195210	3.6948e-08
chr17	179	4	81195210	4.9264e-08
chr17	180	2	81195210	2.4632e-08
chr17	181	1	81195210	1.2316e-08
chr17	182	2	81195210	2.4632e-08
chr17	183	1	81195210	1.2316e-08
chr17	184	1	81195210	1.2316e-08
chr17	185	1	81195210	1.2316e-08
chr17	186	5	81195210	6.158e-08
chr17	187	7	81195210	8.6212e-08
chr17	188	3	81195210	3.6948e-08
chr17	189	2	81195210	2.4632e-08
chr17	190	1	81195210	1.2316e-08
chr17	191	3	81195210	3.6948e-08
chr17	194	2	81195210	2.4632e-08
chr17	195	3	81195210	3.6948e-08
chr17	196	2	81195210	2.4632e-08
chr17	197	4	81195210	4.9264e-08
chr17	198	20	81195210	2.4632e-07
chr17	199	1	81195210	1.2316e-08
chr17	200	8	81195210	9.8528e-08
chr17	201	3	81195210	3.6948e-08
chr17	202	2	81195210	2.4632e-08
chr17	203	1	81195210	1.2316e-08
chr17	204	1	81195210	1.2316e-08
chr17	205	1	81195210	1.2316e-08
chr17	206	1	81195210	1.2316e-08
chr17	207	1	81195210	1.2316e-08
chr17	208	1	81195210	1.2316e-08
chr17	209	1	81195210	1.2316e-08
chr17	210	2	81195210	2.4632e-08
chr17	211	2	81195210	2.4632e-08
chr17	213	2	81195210	2.4632e-08
chr17	214	4	81195210	4.9264e-08
chr17	215	1	81195210	1.2316e-08
chr17	216	4	81195210	4.9264e-08
chr17	219	2	81195210	2.4632e-08
chr17	220	3	81195210	3.6948e-08
chr17	221	1	81195210	1.2316e-08
chr17	222	2	81195210	2.4632e-08
chr17	224	3	81195210	3.6948e-08
chr17	225	2	81195210	2.4632e-08
chr17	227	1	81195210	1.2316e-08
chr17	228	2	81195210	2.4632e-08
chr17	229	2	81195210	2.4632e-08
chr17	230	3	81195210	3.6948e-08
chr17	231	1	81195210	1.2316e-08
chr17	233	2	81195210	2.4632e-08
chr17	234	3	81195210	3.6948e-08
chr17	235	1	81195210	1.2316e-08
chr17	236	2	81195210	2.4632e-08
chr17	237	3	81195210	3.6948e-08
chr17	238	1	81195210	1.2316e-08
chr17	239	2	81195210	2.4632e-08
chr17	240	1	81195210	1.2316e-08
chr17	241	1	81195210	1.2316e-08
chr17	243	2	81195210	2.4632e-08
chr17	244	18	81195210	2.21688e-07
chr17	245	3	81195210	3.6948e-08
chr17	246	3	81195210	3.6948e-08
chr17	247	3	81195210	3.6948e-08
chr17	248	1	81195210	1.2316e-08
chr17	250	6	81195210	7.3896e-08
chr17	251	4	81195210	4.9264e-08
chr17	252	4	81195210	4.9264e-08
chr17	253	3	81195210	3.6948e-08
chr17	255	3	81195210	3.6948e-08
chr17	256	2	81195210	2.4632e-08
chr17	257	1	81195210	1.2316e-08
chr17	258	1	81195210	1.2316e-08
chr17	259	1	81195210	1.2316e-08
chr17	260	2	81195210	2.4632e-08
chr17	263	4	81195210	4.9264e-08
chr17	264	1	81195210	1.2316e-08
chr17	266	3	81195210	3.6948e-08
chr17	267	2	81195210	2.4632e-08
chr17	268	1	81195210	1.2316e-08
chr17	269	2	81195210	2.4632e-08
chr17	270	1	81195210	1.2316e-08
chr17	272	1	81195210	1.2316e-08
chr17	275	1	81195210	1.2316e-08
chr17	276	1	81195210	1.2316e-08
chr17	280	3	81195210	3.6948e-08
chr17	281	1	81195210	1.2316e-08
chr17	283	2	81195210	2.4632e-08
chr17	285	1	81195210	1.2316e-08
chr17	286	1	81195210	1.2316e-08
chr17	287	1	81195210	1.2316e-08
chr17	290	1	81195210	1.2316e-08
chr17	291	2	81195210	2.4632e-08
chr17	292	1	81195210	1.2316e-08
chr17	296	1	81195210	1.2316e-08
chr17	298	1	81195210	1.2316e-08
chr17	299	1	81195210	1.2316e-08
chr17	300	1	81195210	1.2316e-08
chr17	301	2	81195210	2.4632e-08
chr17	302	3	81195210	3.6948e-08
chr17	303	2	81195210	2.4632e-08
chr17	304	1	81195210	1.2316e-08
chr17	305	1	81195210	1.2316e-08
chr17	306	1	81195210	1.2316e-08
chr17	307	2	81195210	2.4632e-08
chr17	309	3	81195210	3.6948e-08
chr17	310	1	81195210	1.2316e-08
chr17	311	1	81195210	1.2316e-08
chr17	312	1	81195210	1.2316e-08
chr17	313	1	81195210	1.2316e-08
chr17	314	1	81195210	1.2316e-08
chr17	315	13	81195210	1.60108e-07
chr17	316	2	81195210	2.4632e-08
chr17	317	1	81195210	1.2316e-08
chr17	318	6	81195210	7.3896e-08
chr17	320	1	81195210	1.2316e-08
chr17	321	1	81195210	1.2316e-08
chr17	322	1	81195210	1.2316e-08
chr17	324	2	81195210	2.4632e-08
chr17	327	2	81195210	2.4632e-08
chr17	329	1	81195210	1.2316e-08
chr17	331	1	81195210	1.2316e-08
chr17	332	1	81195210	1.2316e-08
chr17	333	1	81195210	1.2316e-08
chr17	335	2	81195210	2.4632e-08
chr17	339	1	81195210	1.2316e-08
chr17	340	1	81195210	1.2316e-08
chr17	343	1	81195210	1.2316e-08
chr17	348	1	81195210	1.2316e-08
chr17	358	1	81195210	1.2316e-08
chr17	363	1	81195210	1.2316e-08
chr17	368	1	81195210	1.2316e-08
chr17	374	1	81195210	1.2316e-08
chr17	375	1	81195210	1.2316e-08
chr17	376	1	81195210	1.2316e-08
chr17	379	1	81195210	1.2316e-08
chr17	382	1	81195210	1.2316e-08
chr17	387	2	81195210	2.4632e-08
chr17	388	25	81195210	3.079e-07
chr17	391	1	81195210	1.2316e-08
chr17	392	1	81195210	1.2316e-08
chr17	394	2	81195210	2.4632e-08
chr17	396	2	81195210	2.4632e-08
chr17	398	1	81195210	1.2316e-08
chr17	403	1	81195210	1.2316e-08
chr17	406	1	81195210	1.2316e-08
chr17	407	1	81195210	1.2316e-08
chr17	408	1	81195210	1.2316e-08
chr17	411	1	81195210	1.2316e-08
chr17	412	2	81195210	2.4632e-08
chr17	413	1	81195210	1.2316e-08
chr17	416	2	81195210	2.4632e-08
chr17	417	10	81195210	1.2316e-07
chr17	419	1	81195210	1.2316e-08
chr17	424	4	81195210	4.9264e-08
chr17	425	1	81195210	1.2316e-08
chr17	426	1	81195210	1.2316e-08
chr17	427	1	81195210	1.2316e-08
chr17	433	1	81195210	1.2316e-08
chr17	434	1	81195210	1.2316e-08
chr17	438	1	81195210	1.2316e-08
chr17	439	1	81195210	1.2316e-08
chr17	443	1	81195210	1.2316e-08
chr17	444	3	81195210	3.6948e-08
chr17	448	1	81195210	1.2316e-08
chr17	451	1	81195210	1.2316e-08
chr17	454	2	81195210	2.4632e-08
chr17	459	2	81195210	2.4632e-08
chr17	460	1	81195210	1.2316e-08
chr17	464	1	81195210	1.2316e-08
chr17	472	1	81195210	1.2316e-08
chr17	475	2	81195210	2.4632e-08
chr17	477	1	81195210	1.2316e-08
chr17	478	1	81195210	1.2316e-08
chr17	484	1	81195210	1.2316e-08
chr17	494	1	81195210	1.2316e-08
chr17	497	1	81195210	1.2316e-08
chr17	502	2	81195210	2.4632e-08
chr17	504	1	81195210	1.2316e-08
chr17	505	5	81195210	6.158e-08
chr17	507	1	81195210	1.2316e-08
chr17	514	1	81195210	1.2316e-08
chr17	521	1	81195210	1.2316e-08
chr17	524	1	81195210	1.2316e-08
chr17	525	1	81195210	1.2316e-08
chr17	529	2	81195210	2.4632e-08
chr17	533	2	81195210	2.4632e-08
chr17	536	1	81195210	1.2316e-08
chr17	542	2	81195210	2.4632e-08
chr17	545	1	81195210	1.2316e-08
chr17	546	1	81195210	1.2316e-08
chr17	547	1	81195210	1.2316e-08
chr17	556	1	81195210	1.2316e-08
chr17	557	1	81195210	1.2316e-08
chr17	560	1	81195210	1.2316e-08
chr17	562	2	81195210	2.4632e-08
chr17	566	3	81195210	3.6948e-08
chr17	570	1	81195210	1.2316e-08
chr17	576	1	81195210	1.2316e-08
chr17	580	1	81195210	1.2316e-08
chr17	581	1	81195210	1.2316e-08
chr17	586	1	81195210	1.2316e-08
chr17	587	1	81195210	1.2316e-08
chr17	591	1	81195210	1.2316e-08
chr17	592	2	81195210	2.4632e-08
chr17	593	1	81195210	1.2316e-08
chr17	594	1	81195210	1.2316e-08
chr17	605	2	81195210	2.4632e-08
chr17	608	1	81195210	1.2316e-08
chr17	615	1	81195210	1.2316e-08
chr17	626	1	81195210	1.2316e-08
chr17	628	1	81195210	1.2316e-08
chr17	633	5	81195210	6.158e-08
chr17	640	1	81195210	1.2316e-08
chr17	641	1	81195210	1.2316e-08
chr17	656	1	81195210	1.2316e-08
chr17	669	1	81195210	1.2316e-08
chr17	699	1	81195210	1.2316e-08
chr17	709	1	81195210	1.2316e-08
chr17	714	1	81195210	1.2316e-08
chr17	743	2	81195210	2.4632e-08
chr17	745	2	81195210	2.4632e-08
chr17	749	1	81195210	1.2316e-08
chr17	757	1	81195210	1.2316e-08
chr17	765	1	81195210	1.2316e-08
chr17	768	1	81195210	1.2316e-08
chr17	784	1	81195210	1.2316e-08
chr17	812	1	81195210	1.2316e-08
chr17	830	1	81195210	1.2316e-08
chr17	842	2	81195210	2.4632e-08
chr17	877	1	81195210	1.2316e-08
chr17	896	1	81195210	1.2316e-08
chr17	934	1	81195210	1.2316e-08
chr17	947	1	81195210	1.2316e-08
chr17	969	1	81195210	1.2316e-08
chr17	985	1	81195210	1.2316e-08
chr17	996	1	81195210	1.2316e-08
chr17	997	2	81195210	2.4632e-08
chr17	1006	1	81195210	1.2316e-08
chr17	1012	1	81195210	1.2316e-08
chr17	1030	1	81195210	1.2316e-08
chr17	1034	1	81195210	1.2316e-08
chr17	1036	1	81195210	1.2316e-08
chr17	1039	1	81195210	1.2316e-08
chr17	1052	1	81195210	1.2316e-08
chr17	1074	1	81195210	1.2316e-08
chr17	1092	1	81195210	1.2316e-08
chr17	1093	1	81195210	1.2316e-08
chr17	1097	1	81195210	1.2316e-08
chr17	1106	1	81195210	1.2316e-08
chr17	1127	1	81195210	1.2316e-08
chr17	1129	1	81195210	1.2316e-08
chr17	1156	1	81195210	1.2316e-08
chr17	1159	3	81195210	3.6948e-08
chr17	1168	1	81195210	1.2316e-08
chr17	1176	1	81195210	1.2316e-08
chr17	1191	1	81195210	1.2316e-08
chr17	1227	1	81195210	1.2316e-08
chr17	1244	1	81195210	1.2316e-08
chr17	1277	1	81195210	1.2316e-08
chr17	1290	1	81195210	1.2316e-08
chr17	1297	1	81195210	1.2316e-08
chr17	1322	1	81195210	1.2316e-08
chr17	1324	1	81195210	1.2316e-08
chr17	1334	1	81195210	1.2316e-08
chr17	1356	1	81195210	1.2316e-08
chr17	1366	1	81195210	1.2316e-08
chr17	1375	1	81195210	1.2316e-08
chr17	1404	1	81195210	1.2316e-08
chr17	1412	1	81195210	1.2316e-08
chr17	1416	1	81195210	1.2316e-08
chr17	1424	1	81195210	1.2316e-08
chr17	1441	1	81195210	1.2316e-08
chr17	1449	1	81195210	1.2316e-08
chr17	1455	1	81195210	1.2316e-08
chr17	1471	1	81195210	1.2316e-08
chr17	1497	1	81195210	1.2316e-08
chr17	1509	1	81195210	1.2316e-08
chr17	1521	1	81195210	1.2316e-08
chr17	1523	1	81195210	1.2316e-08
chr17	1540	1	81195210	1.2316e-08
chr17	1559	1	81195210	1.2316e-08
chr17	1577	2	81195210	2.4632e-08
chr17	1581	2	81195210	2.4632e-08
chr17	1592	2	81195210	2.4632e-08
chr17	1594	1	81195210	1.2316e-08
chr17	1599	1	81195210	1.2316e-08
chr17	1606	1	81195210	1.2316e-08
chr17	1612	1	81195210	1.2316e-08
chr17	1614	1	81195210	1.2316e-08
chr17	1621	1	81195210	1.2316e-08
chr17	1623	1	81195210	1.2316e-08
chr17	1633	1	81195210	1.2316e-08
chr17	1644	1	81195210	1.2316e-08
chr17	1645	2	81195210	2.4632e-08
chr17	1649	1	81195210	1.2316e-08
chr17	1654	3	81195210	3.6948e-08
chr17	1655	1	81195210	1.2316e-08
chr17	1663	1	81195210	1.2316e-08
chr17	1668	1	81195210	1.2316e-08
chr17	1669	1	81195210	1.2316e-08
chr17	1671	1	81195210	1.2316e-08
chr17	1685	1	81195210	1.2316e-08
chr17	1690	1	81195210	1.2316e-08
chr17	1691	1	81195210	1.2316e-08
chr17	1692	1	81195210	1.2316e-08
chr17	1694	1	81195210	1.2316e-08
chr17	1696	1	81195210	1.2316e-08
chr17	1704	1	81195210	1.2316e-08
chr17	1715	1	81195210	1.2316e-08
chr17	1740	1	81195210	1.2316e-08
chr17	1744	1	81195210	1.2316e-08
chr17	1745	1	81195210	1.2316e-08
chr17	1753	1	81195210	1.2316e-08
chr17	1754	1	81195210	1.2316e-08
chr17	1756	1	81195210	1.2316e-08
chr17	1771	1	81195210	1.2316e-08
chr17	1787	1	81195210	1.2316e-08
chr17	1788	1	81195210	1.2316e-08
chr17	1799	1	81195210	1.2316e-08
chr17	1806	1	81195210	1.2316e-08
chr17	1817	1	81195210	1.2316e-08
chr17	1831	1	81195210	1.2316e-08
chr17	1837	1	81195210	1.2316e-08
chr17	1840	1	81195210	1.2316e-08
chr17	1844	1	81195210	1.2316e-08
chr17	1846	1	81195210	1.2316e-08
chr17	1848	1	81195210	1.2316e-08
chr17	1853	1	81195210	1.2316e-08
chr17	1855	1	81195210	1.2316e-08
chr17	1861	1	81195210	1.2316e-08
chr17	1862	1	81195210	1.2316e-08
chr17	1870	1	81195210	1.2316e-08
chr17	1879	1	81195210	1.2316e-08
chr17	1880	1	81195210	1.2316e-08
chr17	1900	1	81195210	1.2316e-08
chr17	1901	1	81195210	1.2316e-08
chr17	1902	1	81195210	1.2316e-08
chr17	1910	1	81195210	1.2316e-08
chr17	1933	1	81195210	1.2316e-08
chr17	1979	1	81195210	1.2316e-08
chr17	1996	1	81195210	1.2316e-08
chr17	1998	1	81195210	1.2316e-08
chr17	2006	2	81195210	2.4632e-08
chr17	2009	1	81195210	1.2316e-08
chr17	2014	1	81195210	1.2316e-08
chr17	2022	2	81195210	2.4632e-08
chr17	2023	1	81195210	1.2316e-08
chr17	2026	2	81195210	2.4632e-08
chr17	2034	1	81195210	1.2316e-08
chr17	2080	2	81195210	2.4632e-08
chr17	2094	1	81195210	1.2316e-08
chr17	2100	2	81195210	2.4632e-08
chr17	2101	2	81195210	2.4632e-08
chr17	2110	1	81195210	1.2316e-08
chr17	2120	2	81195210	2.4632e-08
chr17	2121	1	81195210	1.2316e-08
chr17	2123	1	81195210	1.2316e-08
chr17	2128	5	81195210	6.158e-08
chr17	2130	1	81195210	1.2316e-08
chr17	2132	3	81195210	3.6948e-08
chr17	2145	1	81195210	1.2316e-08
chr17	2148	1	81195210	1.2316e-08
chr17	2151	1	81195210	1.2316e-08
chr17	2160	1	81195210	1.2316e-08
chr17	2162	1	81195210	1.2316e-08
chr17	2164	1	81195210	1.2316e-08
chr17	2174	1	81195210	1.2316e-08
chr17	2178	1	81195210	1.2316e-08
chr17	2192	1	81195210	1.2316e-08
chr17	2197	1	81195210	1.2316e-08
chr17	2202	1	81195210	1.2316e-08
chr17	2228	2	81195210	2.4632e-08
chr17	2236	1	81195210	1.2316e-08
chr17	2244	1	81195210	1.2316e-08
chr17	2250	1	81195210	1.2316e-08
chr17	2256	1	81195210	1.2316e-08
chr17	2258	1	81195210	1.2316e-08
chr17	2260	1	81195210	1.2316e-08
chr17	2264	1	81195210	1.2316e-08
chr17	2272	1	81195210	1.2316e-08
chr17	2274	1	81195210	1.2316e-08
chr17	2276	1	81195210	1.2316e-08
chr17	2282	1	81195210	1.2316e-08
chr17	2284	1	81195210	1.2316e-08
chr17	2288	1	81195210	1.2316e-08
chr17	2292	1	81195210	1.2316e-08
chr17	2293	1	81195210	1.2316e-08
chr17	2307	1	81195210	1.2316e-08
chr17	2309	1	81195210	1.2316e-08
chr17	2310	2	81195210	2.4632e-08
chr17	2339	1	81195210	1.2316e-08
chr17	2340	1	81195210	1.2316e-08
chr17	2343	1	81195210	1.2316e-08
chr17	2350	1	81195210	1.2316e-08
chr17	2427	1	81195210	1.2316e-08
chr17	2436	1	81195210	1.2316e-08
chr17	2495	3	81195210	3.6948e-08
chr17	2499	1	81195210	1.2316e-08
chr17	2501	1	81195210	1.2316e-08
chr17	2622	2	81195210	2.4632e-08
chr17	2623	2	81195210	2.4632e-08
chr17	2628	1	81195210	1.2316e-08
chr17	2659	1	81195210	1.2316e-08
chr17	2737	1	81195210	1.2316e-08
chr17	2790	1	81195210	1.2316e-08
chr17	2823	1	81195210	1.2316e-08
chr17	2825	1	81195210	1.2316e-08
chr17	2826	2	81195210	2.4632e-08
chr17	2877	1	81195210	1.2316e-08
chr17	2878	2	81195210	2.4632e-08
chr17	2880	1	81195210	1.2316e-08
chr17	3036	1	81195210	1.2316e-08
chr17	3068	1	81195210	1.2316e-08
chr17	3081	1	81195210	1.2316e-08
chr17	3119	2	81195210	2.4632e-08
chr17	3120	3	81195210	3.6948e-08
chr17	3123	1	81195210	1.2316e-08
chr17	3124	1	81195210	1.2316e-08
chr17	3125	1	81195210	1.2316e-08
chr17	3126	4	81195210	4.9264e-08
chr17	3127	5	81195210	6.158e-08
chr17	3144	1	81195210	1.2316e-08
chr17	3220	1	81195210	1.2316e-08
chr17	3461	1	81195210	1.2316e-08
chr17	3611	1	81195210	1.2316e-08
chr17	3771	1	81195210	1.2316e-08
chr17	3907	1	81195210	1.2316e-08
chr17	4052	1	81195210	1.2316e-08
chr17	4367	1	81195210	1.2316e-08
chr17	4388	1	81195210	1.2316e-08
chr17	4403	1	81195210	1.2316e-08
chr17	4513	1	81195210	1.2316e-08
chr17	4554	1	81195210	1.2316e-08
chr17	4617	1	81195210	1.2316e-08
chr17	4625	1	81195210	1.2316e-08
chr17	4694	1	81195210	1.2316e-08
chr17	4757	1	81195210	1.2316e-08
chr17	4762	1	81195210	1.2316e-08
chr17	4960	1	81195210	1.2316e-08
chr17	5101	1	81195210	1.2316e-08
chr17	5207	1	81195210	1.2316e-08
chr17	5209	1	81195210	1.2316e-08
chr17	5299	2	81195210	2.4632e-08
chr17	5336	1	81195210	1.2316e-08
chr17	5368	1	81195210	1.2316e-08
chr17	5384	1	81195210	1.2316e-08
chr17	5560	2	81195210	2.4632e-08
chr17	5590	1	81195210	1.2316e-08
chr17	5608	1	81195210	1.2316e-08
chr17	5776	1	81195210	1.2316e-08
chr17	5778	10	81195210	1.2316e-07
chr17	5856	1	81195210	1.2316e-08
chr17	6227	1	81195210	1.2316e-08
chr17	6440	1	81195210	1.2316e-08
chr17	6503	1	81195210	1.2316e-08
chr17	6665	1	81195210	1.2316e-08
chr17	6762	1	81195210	1.2316e-08
chr17	6937	1	81195210	1.2316e-08
chr17	7070	1	81195210	1.2316e-08
chr17	7187	1	81195210	1.2316e-08
chr17	7427	1	81195210	1.2316e-08
chr17	7659	1	81195210	1.2316e-08
chr17	7719	1	81195210	1.2316e-08
chr17	8199	1	81195210	1.2316e-08
chr17	8403	1	81195210	1.2316e-08
chr17	8887	1	81195210	1.2316e-08
chr17	8946	1	81195210	1.2316e-08
chr17	9187	1	81195210	1.2316e-08
chr17	9421	1	81195210	1.2316e-08
chr17	9548	1	81195210	1.2316e-08
chr17	9675	1	81195210	1.2316e-08
chr17	9849	1	81195210	1.2316e-08
chr17	9937	1	81195210	1.2316e-08
chr17	10090	1	81195210	1.2316e-08
chr17	10161	1	81195210	1.2316e-08
chr17	10384	1	81195210	1.2316e-08
chr17	10753	1	81195210	1.2316e-08
chr17	10998	1	81195210	1.2316e-08
chr17	11237	1	81195210	1.2316e-08
chr17	11278	1	81195210	1.2316e-08
chr17	11909	1	81195210	1.2316e-08
chr17	12051	1	81195210	1.2316e-08
chr17	12184	1	81195210	1.2316e-08
chr17	12210	1	81195210	1.2316e-08
chr17	12514	1	81195210	1.2316e-08
chr17	12642	1	81195210	1.2316e-08
chr17	12973	1	81195210	1.2316e-08
chr17	13369	1	81195210	1.2316e-08
chr17	14230	1	81195210	1.2316e-08
chr17	14755	1	81195210	1.2316e-08
chr17	14794	1	81195210	1.2316e-08
chr17	15157	1	81195210	1.2316e-08
chr17	15839	1	81195210	1.2316e-08
chr17	15885	1	81195210	1.2316e-08
chr17	16420	1	81195210	1.2316e-08
chr17	16614	1	81195210	1.2316e-08
chr17	16620	1	81195210	1.2316e-08
chr17	16621	2	81195210	2.4632e-08
genome	0	56460006	81195210	0.695361
genome	1	17459376	81195210	0.21503
genome	2	4646468	81195210	0.0572259
genome	3	1230621	81195210	0.0151563
genome	4	436443	81195210	0.00537523
genome	5	220828	81195210	0.00271972
genome	6	141005	81195210	0.00173662
genome	7	99346	81195210	0.00122355
genome	8	74597	81195210	0.000918737
genome	9	55755	81195210	0.000686678
genome	10	43893	81195210	0.000540586
genome	11	35923	81195210	0.000442428
genome	12	30035	81195210	0.000369911
genome	13	25542	81195210	0.000314575
genome	14	21920	81195210	0.000269967
genome	15	19145	81195210	0.00023579
genome	16	16673	81195210	0.000205345
genome	17	14393	81195210	0.000177264
genome	18	12812	81195210	0.000157793
genome	19	11278	81195210	0.0001389
genome	20	10203	81195210	0.00012566
genome	21	9154	81195210	0.000112741
genome	22	8556	81195210	0.000105376
genome	23	7662	81195210	9.43652e-05
genome	24	7048	81195210	8.68031e-05
genome	25	6714	81195210	8.26896e-05
genome	26	5905	81195210	7.2726e-05
genome	27	5623	81195210	6.92529e-05
genome	28	5123	81195210	6.30949e-05
genome	29	4768	81195210	5.87227e-05
genome	30	4108	81195210	5.05941e-05
genome	31	4021	81195210	4.95226e-05
genome	32	3534	81195210	4.35247e-05
genome	33	3489	81195210	4.29705e-05
genome	34	3171	81195210	3.9054e-05
genome	35	2867	81195210	3.531e-05
genome	36	2803	81195210	3.45217e-05
genome	37	2616	81195210	3.22186e-05
genome	38	2378	81195210	2.92874e-05
genome	39	2187	81195210	2.69351e-05
genome	40	2081	81195210	2.56296e-05
genome	41	1891	81195210	2.32896e-05
genome	42	1754	81195210	2.16023e-05
genome	43	1687	81195210	2.07771e-05
genome	44	1729	81195210	2.12944e-05
genome	45	1512	81195210	1.86218e-05
genome	46	1458	81195210	1.79567e-05
genome	47	1333	81195210	1.64172e-05
genome	48	1260	81195210	1.55182e-05
genome	49	1157	81195210	1.42496e-05
genome	50	1074	81195210	1.32274e-05
genome	51	1043	81195210	1.28456e-05
genome	52	921	81195210	1.1343e-05
genome	53	966	81195210	1.18973e-05
genome	54	989	81195210	1.21805e-05
genome	55	891	81195210	1.09736e-05
genome	56	841	81195210	1.03578e-05
genome	57	825	81195210	1.01607e-05
genome	58	840	81195210	1.03454e-05
genome	59	698	81195210	8.59657e-06
genome	60	713	81195210	8.78131e-06
genome	61	648	81195210	7.98077e-06
genome	62	677	81195210	8.33793e-06
genome	63	605	81195210	7.45118e-06
genome	64	542	81195210	6.67527e-06
genome	65	550	81195210	6.7738e-06
genome	66	507	81195210	6.24421e-06
genome	67	455	81195210	5.60378e-06
genome	68	435	81195210	5.35746e-06
genome	69	370	81195210	4.55692e-06
genome	70	313	81195210	3.85491e-06
genome	71	352	81195210	4.33523e-06
genome	72	307	81195210	3.78101e-06
genome	73	337	81195210	4.15049e-06
genome	74	312	81195210	3.84259e-06
genome	75	264	81195210	3.25142e-06
genome	76	264	81195210	3.25142e-06
genome	77	212	81195210	2.61099e-06
genome	78	208	81195210	2.56173e-06
genome	79	215	81195210	2.64794e-06
genome	80	199	81195210	2.45088e-06
genome	81	189	81195210	2.32772e-06
genome	82	168	81195210	2.06909e-06
genome	83	198	81195210	2.43857e-06
genome	84	183	81195210	2.25383e-06
genome	85	174	81195210	2.14298e-06
genome	86	173	81195210	2.13067e-06
genome	87	165	81195210	2.03214e-06
genome	88	144	81195210	1.7735e-06
genome	89	100	81195210	1.2316e-06
genome	90	108	81195210	1.33013e-06
genome	91	102	81195210	1.25623e-06
genome	92	88	81195210	1.08381e-06
genome	93	87	81195210	1.07149e-06
genome	94	90	81195210	1.10844e-06
genome	95	86	81195210	1.05918e-06
genome	96	81	81195210	9.97596e-07
genome	97	65	81195210	8.0054e-07
genome	98	71	81195210	8.74436e-07
genome	99	53	81195210	6.52748e-07
genome	100	39	81195210	4.80324e-07
genome	101	31	81195210	3.81796e-07
genome	102	36	81195210	4.43376e-07
genome	103	27	81195210	3.32532e-07
genome	104	27	81195210	3.32532e-07
genome	105	19	81195210	2.34004e-07
genome	106	25	81195210	3.079e-07
genome	107	25	81195210	3.079e-07
genome	108	32	81195210	3.94112e-07
genome	109	30	81195210	3.6948e-07
genome	110	19	81195210	2.34004e-07
genome	111	21	81195210	2.58636e-07
genome	112	13	81195210	1.60108e-07
genome	113	12	81195210	1.47792e-07
genome	114	14	81195210	1.72424e-07
genome	115	14	81195210	1.72424e-07
genome	116	11	81195210	1.35476e-07
genome	117	17	81195210	2.09372e-07
genome	118	8	81195210	9.8528e-08
genome	119	11	81195210	1.35476e-07
genome	120	16	81195210	1.97056e-07
genome	121	13	81195210	1.60108e-07
genome	122	9	81195210	1.10844e-07
genome	123	9	81195210	1.10844e-07
genome	124	6	81195210	7.3896e-08
genome	125	12	81195210	1.47792e-07
genome	126	9	81195210	1.10844e-07
genome	127	5	81195210	6.158e-08
genome	128	3	81195210	3.6948e-08
genome	129	4	81195210	4.9264e-08
genome	130	3	81195210	3.6948e-08
genome	131	2	81195210	2.4632e-08
genome	132	7	81195210	8.6212e-08
genome	133	3	81195210	3.6948e-08
genome	134	9	81195210	1.10844e-07
genome	135	4	81195210	4.9264e-08
genome	136	3	81195210	3.6948e-08
genome	137	1	81195210	1.2316e-08
genome	138	5	81195210	6.158e-08
genome	139	2	81195210	2.4632e-08
genome	140	2	81195210	2.4632e-08
genome	141	3	81195210	3.6948e-08
genome	142	4	81195210	4.9264e-08
genome	143	7	81195210	8.6212e-08
genome	144	2	81195210	2.4632e-08
genome	145	1	81195210	1.2316e-08
genome	146	2	81195210	2.4632e-08
genome	147	1	81195210	1.2316e-08
genome	148	2	81195210	2.4632e-08
genome	149	5	81195210	6.158e-08
genome	150	3	81195210	3.6948e-08
genome	151	8	81195210	9.8528e-08
genome	152	3	81195210	3.6948e-08
genome	153	1	81195210	1.2316e-08
genome	154	3	81195210	3.6948e-08
genome	155	4	81195210	4.9264e-08
genome	156	2	81195210	2.4632e-08
genome	157	1	81195210	1.2316e-08
genome	158	2	81195210	2.4632e-08
genome	159	1	81195210	1.2316e-08
genome	160	11	81195210	1.35476e-07
genome	161	3	81195210	3.6948e-08
genome	162	2	81195210	2.4632e-08
genome	163	1	81195210	1.2316e-08
genome	164	8	81195210	9.8528e-08
genome	165	4	81195210	4.9264e-08
genome	166	2	81195210	2.4632e-08
genome	167	6	81195210	7.3896e-08
genome	169	3	81195210	3.6948e-08
genome	170	4	81195210	4.9264e-08
genome	171	5	81195210	6.158e-08
genome	172	3	81195210	3.6948e-08
genome	173	3	81195210	3.6948e-08
genome	174	2	81195210	2.4632e-08
genome	175	7	81195210	8.6212e-08
genome	176	2	81195210	2.4632e-08
genome	177	3	81195210	3.6948e-08
genome	178	3	81195210	3.6948e-08
genome	179	4	81195210	4.9264e-08
genome	180	2	81195210	2.4632e-08
genome	181	1	81195210	1.2316e-08
genome	182	2	81195210	2.4632e-08
genome	183	1	81195210	1.2316e-08
genome	184	1	81195210	1.2316e-08
genome	185	1	81195210	1.2316e-08
genome	186	5	81195210	6.158e-08
genome	187	7	81195210	8.6212e-08
genome	188	3	81195210	3.6948e-08
genome	189	2	81195210	2.4632e-08
genome	190	1	81195210	1.2316e-08
genome	191	3	81195210	3.6948e-08
genome	194	2	81195210	2.4632e-08
genome	195	3	81195210	3.6948e-08
genome	196	2	81195210	2.4632e-08
genome	197	4	81195210	4.9264e-08
genome	198	20	81195210	2.4632e-07
genome	199	1	81195210	1.2316e-08
genome	200	8	81195210	9.8528e-08
genome	201	3	81195210	3.6948e-08
genome	202	2	81195210	2.4632e-08
genome	203	1	81195210	1.2316e-08
genome	204	1	81195210	1.2316e-08
genome	205	1	81195210	1.2316e-08
genome	206	1	81195210	1.2316e-08
genome	207	1	81195210	1.2316e-08
genome	208	1	81195210	1.2316e-08
genome	209	1	81195210	1.2316e-08
genome	210	2	81195210	2.4632e-08
genome	211	2	81195210	2.4632e-08
genome	213	2	81195210	2.4632e-08
genome	214	4	81195210	4.9264e-08
genome	215	1	81195210	1.2316e-08
genome	216	4	81195210	4.9264e-08
genome	219	2	81195210	2.4632e-08
genome	220	3	81195210	3.6948e-08
genome	221	1	81195210	1.2316e-08
genome	222	2	81195210	2.4632e-08
genome	224	3	81195210	3.6948e-08
genome	225	2	81195210	2.4632e-08
genome	227	1	81195210	1.2316e-08
genome	228	2	81195210	2.4632e-08
genome	229	2	81195210	2.4632e-08
genome	230	3	81195210	3.6948e-08
genome	231	1	81195210	1.2316e-08
genome	233	2	81195210	2.4632e-08
genome	234	3	81195210	3.6948e-08
genome	235	1	81195210	1.2316e-08
genome	236	2	81195210	2.4632e-08
genome	237	3	81195210	3.6948e-08
genome	238	1	81195210	1.2316e-08
genome	239	2	81195210	2.4632e-08
genome	240	1	81195210	1.2316e-08
genome	241	1	81195210	1.2316e-08
genome	243	2	81195210	2.4632e-08
genome	244	18	81195210	2.21688e-07
genome	245	3	81195210	3.6948e-08
genome	246	3	81195210	3.6948e-08
genome	247	3	81195210	3.6948e-08
genome	248	1	81195210	1.2316e-08
genome	250	6	81195210	7.3896e-08
genome	251	4	81195210	4.9264e-08
genome	252	4	81195210	4.9264e-08
genome	253	3	81195210	3.6948e-08
genome	255	3	81195210	3.6948e-08
genome	256	2	81195210	2.4632e-08
genome	257	1	81195210	1.2316e-08
genome	258	1	81195210	1.2316e-08
genome	259	1	81195210	1.2316e-08
genome	260	2	81195210	2.4632e-08
genome	263	4	81195210	4.9264e-08
genome	264	1	81195210	1.2316e-08
genome	266	3	81195210	3.6948e-08
genome	267	2	81195210	2.4632e-08
genome	268	1	81195210	1.2316e-08
genome	269	2	81195210	2.4632e-08
genome	270	1	81195210	1.2316e-08
genome	272	1	81195210	1.2316e-08
genome	275	1	81195210	1.2316e-08
genome	276	1	81195210	1.2316e-08
genome	280	3	81195210	3.6948e-08
genome	281	1	81195210	1.2316e-08
genome	283	2	81195210	2.4632e-08
genome	285	1	81195210	1.2316e-08
genome	286	1	81195210	1.2316e-08
genome	287	1	81195210	1.2316e-08
genome	290	1	81195210	1.2316e-08
genome	291	2	81195210	2.4632e-08
genome	292	1	81195210	1.2316e-08
genome	296	1	81195210	1.2316e-08
genome	298	1	81195210	1.2316e-08
genome	299	1	81195210	1.2316e-08
genome	300	1	81195210	1.2316e-08
genome	301	2	81195210	2.4632e-08
genome	302	3	81195210	3.6948e-08
genome	303	2	81195210	2.4632e-08
genome	304	1	81195210	1.2316e-08
genome	305	1	81195210	1.2316e-08
genome	306	1	81195210	1.2316e-08
genome	307	2	81195210	2.4632e-08
genome	309	3	81195210	3.6948e-08
genome	310	1	81195210	1.2316e-08
genome	311	1	81195210	1.2316e-08
genome	312	1	81195210	1.2316e-08
genome	313	1	81195210	1.2316e-08
genome	314	1	81195210	1.2316e-08
genome	315	13	81195210	1.60108e-07
genome	316	2	81195210	2.4632e-08
genome	317	1	81195210	1.2316e-08
genome	318	6	81195210	7.3896e-08
genome	320	1	81195210	1.2316e-08
genome	321	1	81195210	1.2316e-08
genome	322	1	81195210	1.2316e-08
genome	324	2	81195210	2.4632e-08
genome	327	2	81195210	2.4632e-08
genome	329	1	81195210	1.2316e-08
genome	331	1	81195210	1.2316e-08
genome	332	1	81195210	1.2316e-08
genome	333	1	81195210	1.2316e-08
genome	335	2	81195210	2.4632e-08
genome	339	1	81195210	1.2316e-08
genome	340	1	81195210	1.2316e-08
genome	343	1	81195210	1.2316e-08
genome	348	1	81195210	1.2316e-08
genome	358	1	81195210	1.2316e-08
genome	363	1	81195210	1.2316e-08
genome	368	1	81195210	1.2316e-08
genome	374	1	81195210	1.2316e-08
genome	375	1	81195210	1.2316e-08
genome	376	1	81195210	1.2316e-08
genome	379	1	81195210	1.2316e-08
genome	382	1	81195210	1.2316e-08
genome	387	2	81195210	2.4632e-08
genome	388	25	81195210	3.079e-07
genome	391	1	81195210	1.2316e-08
genome	392	1	81195210	1.2316e-08
genome	394	2	81195210	2.4632e-08
genome	396	2	81195210	2.4632e-08
genome	398	1	81195210	1.2316e-08
genome	403	1	81195210	1.2316e-08
genome	406	1	81195210	1.2316e-08
genome	407	1	81195210	1.2316e-08
genome	408	1	81195210	1.2316e-08
genome	411	1	81195210	1.2316e-08
genome	412	2	81195210	2.4632e-08
genome	413	1	81195210	1.2316e-08
genome	416	2	81195210	2.4632e-08
genome	417	10	81195210	1.2316e-07
genome	419	1	81195210	1.2316e-08
genome	424	4	81195210	4.9264e-08
genome	425	1	81195210	1.2316e-08
genome	426	1	81195210	1.2316e-08
genome	427	1	81195210	1.2316e-08
genome	433	1	81195210	1.2316e-08
genome	434	1	81195210	1.2316e-08
genome	438	1	81195210	1.2316e-08
genome	439	1	81195210	1.2316e-08
genome	443	1	81195210	1.2316e-08
genome	444	3	81195210	3.6948e-08
genome	448	1	81195210	1.2316e-08
genome	451	1	81195210	1.2316e-08
genome	454	2	81195210	2.4632e-08
genome	459	2	81195210	2.4632e-08
genome	460	1	81195210	1.2316e-08
genome	464	1	81195210	1.2316e-08
genome	472	1	81195210	1.2316e-08
genome	475	2	81195210	2.4632e-08
genome	477	1	81195210	1.2316e-08
genome	478	1	81195210	1.2316e-08
genome	484	1	81195210	1.2316e-08
genome	494	1	81195210	1.2316e-08
genome	497	1	81195210	1.2316e-08
genome	502	2	81195210	2.4632e-08
genome	504	1	81195210	1.2316e-08
genome	505	5	81195210	6.158e-08
genome	507	1	81195210	1.2316e-08
genome	514	1	81195210	1.2316e-08
genome	521	1	81195210	1.2316e-08
genome	524	1	81195210	1.2316e-08
genome	525	1	81195210	1.2316e-08
genome	529	2	81195210	2.4632e-08
genome	533	2	81195210	2.4632e-08
genome	536	1	81195210	1.2316e-08
genome	542	2	81195210	2.4632e-08
genome	545	1	81195210	1.2316e-08
genome	546	1	81195210	1.2316e-08
genome	547	1	81195210	1.2316e-08
genome	556	1	81195210	1.2316e-08
genome	557	1	81195210	1.2316e-08
genome	560	1	81195210	1.2316e-08
genome	562	2	81195210	2.4632e-08
genome	566	3	81195210	3.6948e-08
genome	570	1	81195210	1.2316e-08
genome	576	1	81195210	1.2316e-08
genome	580	1	81195210	1.2316e-08
genome	581	1	81195210	1.2316e-08
genome	586	1	81195210	1.2316e-08
genome	587	1	81195210	1.2316e-08
genome	591	1	81195210	1.2316e-08
genome	592	2	81195210	2.4632e-08
genome	593	1	81195210	1.2316e-08
genome	594	1	81195210	1.2316e-08
genome	605	2	81195210	2.4632e-08
genome	608	1	81195210	1.2316e-08
genome	615	1	81195210	1.2316e-08
genome	626	1	81195210	1.2316e-08
genome	628	1	81195210	1.2316e-08
genome	633	5	81195210	6.158e-08
genome	640	1	81195210	1.2316e-08
genome	641	1	81195210	1.2316e-08
genome	656	1	81195210	1.2316e-08
genome	669	1	81195210	1.2316e-08
genome	699	1	81195210	1.2316e-08
genome	709	1	81195210	1.2316e-08
genome	714	1	81195210	1.2316e-08
genome	743	2	81195210	2.4632e-08
genome	745	2	81195210	2.4632e-08
genome	749	1	81195210	1.2316e-08
genome	757	1	81195210	1.2316e-08
genome	765	1	81195210	1.2316e-08
genome	768	1	81195210	1.2316e-08
genome	784	1	81195210	1.2316e-08
genome	812	1	81195210	1.2316e-08
genome	830	1	81195210	1.2316e-08
genome	842	2	81195210	2.4632e-08
genome	877	1	81195210	1.2316e-08
genome	896	1	81195210	1.2316e-08
genome	934	1	81195210	1.2316e-08
genome	947	1	81195210	1.2316e-08
genome	969	1	81195210	1.2316e-08
genome	985	1	81195210	1.2316e-08
genome	996	1	81195210	1.2316e-08
genome	997	2	81195210	2.4632e-08
genome	1006	1	81195210	1.2316e-08
genome	1012	1	81195210	1.2316e-08
genome	1030	1	81195210	1.2316e-08
genome	1034	1	81195210	1.2316e-08
genome	1036	1	81195210	1.2316e-08
genome	1039	1	81195210	1.2316e-08
genome	1052	1	81195210	1.2316e-08
genome	1074	1	81195210	1.2316e-08
genome	1092	1	81195210	1.2316e-08
genome	1093	1	81195210	1.2316e-08
genome	1097	1	81195210	1.2316e-08
genome	1106	1	81195210	1.2316e-08
genome	1127	1	81195210	1.2316e-08
genome	1129	1	81195210	1.2316e-08
genome	1156	1	81195210	1.2316e-08
genome	1159	3	81195210	3.6948e-08
genome	1168	1	81195210	1.2316e-08
genome	1176	1	81195210	1.2316e-08
genome	1191	1	81195210	1.2316e-08
genome	1227	1	81195210	1.2316e-08
genome	1244	1	81195210	1.2316e-08
genome	1277	1	81195210	1.2316e-08
genome	1290	1	81195210	1.2316e-08
genome	1297	1	81195210	1.2316e-08
genome	1322	1	81195210	1.2316e-08
genome	1324	1	81195210	1.2316e-08
genome	1334	1	81195210	1.2316e-08
genome	1356	1	81195210	1.2316e-08
genome	1366	1	81195210	1.2316e-08
genome	1375	1	81195210	1.2316e-08
genome	1404	1	81195210	1.2316e-08
genome	1412	1	81195210	1.2316e-08
genome	1416	1	81195210	1.2316e-08
genome	1424	1	81195210	1.2316e-08
genome	1441	1	81195210	1.2316e-08
genome	1449	1	81195210	1.2316e-08
genome	1455	1	81195210	1.2316e-08
genome	1471	1	81195210	1.2316e-08
genome	1497	1	81195210	1.2316e-08
genome	1509	1	81195210	1.2316e-08
genome	1521	1	81195210	1.2316e-08
genome	1523	1	81195210	1.2316e-08
genome	1540	1	81195210	1.2316e-08
genome	1559	1	81195210	1.2316e-08
genome	1577	2	81195210	2.4632e-08
genome	1581	2	81195210	2.4632e-08
genome	1592	2	81195210	2.4632e-08
genome	1594	1	81195210	1.2316e-08
genome	1599	1	81195210	1.2316e-08
genome	1606	1	81195210	1.2316e-08
genome	1612	1	81195210	1.2316e-08
genome	1614	1	81195210	1.2316e-08
genome	1621	1	81195210	1.2316e-08
genome	1623	1	81195210	1.2316e-08
genome	1633	1	81195210	1.2316e-08
genome	1644	1	81195210	1.2316e-08
genome	1645	2	81195210	2.4632e-08
genome	1649	1	81195210	1.2316e-08
genome	1654	3	81195210	3.6948e-08
genome	1655	1	81195210	1.2316e-08
genome	1663	1	81195210	1.2316e-08
genome	1668	1	81195210	1.2316e-08
genome	1669	1	81195210	1.2316e-08
genome	1671	1	81195210	1.2316e-08
genome	1685	1	81195210	1.2316e-08
genome	1690	1	81195210	1.2316e-08
genome	1691	1	81195210	1.2316e-08
genome	1692	1	81195210	1.2316e-08
genome	1694	1	81195210	1.2316e-08
genome	1696	1	81195210	1.2316e-08
genome	1704	1	81195210	1.2316e-08
genome	1715	1	81195210	1.2316e-08
genome	1740	1	81195210	1.2316e-08
genome	1744	1	81195210	1.2316e-08
genome	1745	1	81195210	1.2316e-08
genome	1753	1	81195210	1.2316e-08
genome	1754	1	81195210	1.2316e-08
genome	1756	1	81195210	1.2316e-08
genome	1771	1	81195210	1.2316e-08
genome	1787	1	81195210	1.2316e-08
genome	1788	1	81195210	1.2316e-08
genome	1799	1	81195210	1.2316e-08
genome	1806	1	81195210	1.2316e-08
genome	1817	1	81195210	1.2316e-08
genome	1831	1	81195210	1.2316e-08
genome	1837	1	81195210	1.2316e-08
genome	1840	1	81195210	1.2316e-08
genome	1844	1	81195210	1.2316e-08
genome	1846	1	81195210	1.2316e-08
genome	1848	1	81195210	1.2316e-08
genome	1853	1	81195210	1.2316e-08
genome	1855	1	81195210	1.2316e-08
genome	1861	1	81195210	1.2316e-08
genome	1862	1	81195210	1.2316e-08
genome	1870	1	81195210	1.2316e-08
genome	1879	1	81195210	1.2316e-08
genome	1880	1	81195210	1.2316e-08
genome	1900	1	81195210	1.2316e-08
genome	1901	1	81195210	1.2316e-08
genome	1902	1	81195210	1.2316e-08
genome	1910	1	81195210	1.2316e-08
genome	1933	1	81195210	1.2316e-08
genome	1979	1	81195210	1.2316e-08
genome	1996	1	81195210	1.2316e-08
genome	1998	1	81195210	1.2316e-08
genome	2006	2	81195210	2.4632e-08
genome	2009	1	81195210	1.2316e-08
genome	2014	1	81195210	1.2316e-08
genome	2022	2	81195210	2.4632e-08
genome	2023	1	81195210	1.2316e-08
genome	2026	2	81195210	2.4632e-08
genome	2034	1	81195210	1.2316e-08
genome	2080	2	81195210	2.4632e-08
genome	2094	1	81195210	1.2316e-08
genome	2100	2	81195210	2.4632e-08
genome	2101	2	81195210	2.4632e-08
genome	2110	1	81195210	1.2316e-08
genome	2120	2	81195210	2.4632e-08
genome	2121	1	81195210	1.2316e-08
genome	2123	1	81195210	1.2316e-08
genome	2128	5	81195210	6.158e-08
genome	2130	1	81195210	1.2316e-08
genome	2132	3	81195210	3.6948e-08
genome	2145	1	81195210	1.2316e-08
genome	2148	1	81195210	1.2316e-08
genome	2151	1	81195210	1.2316e-08
genome	2160	1	81195210	1.2316e-08
genome	2162	1	81195210	1.2316e-08
genome	2164	1	81195210	1.2316e-08
genome	2174	1	81195210	1.2316e-08
genome	2178	1	81195210	1.2316e-08
genome	2192	1	81195210	1.2316e-08
genome	2197	1	81195210	1.2316e-08
genome	2202	1	81195210	1.2316e-08
genome	2228	2	81195210	2.4632e-08
genome	2236	1	81195210	1.2316e-08
genome	2244	1	81195210	1.2316e-08
genome	2250	1	81195210	1.2316e-08
genome	2256	1	81195210	1.2316e-08
genome	2258	1	81195210	1.2316e-08
genome	2260	1	81195210	1.2316e-08
genome	2264	1	81195210	1.2316e-08
genome	2272	1	81195210	1.2316e-08
genome	2274	1	81195210	1.2316e-08
genome	2276	1	81195210	1.2316e-08
genome	2282	1	81195210	1.2316e-08
genome	2284	1	81195210	1.2316e-08
genome	2288	1	81195210	1.2316e-08
genome	2292	1	81195210	1.2316e-08
genome	2293	1	81195210	1.2316e-08
genome	2307	1	81195210	1.2316e-08
genome	2309	1	81195210	1.2316e-08
genome	2310	2	81195210	2.4632e-08
genome	2339	1	81195210	1.2316e-08
genome	2340	1	81195210	1.2316e-08
genome	2343	1	81195210	1.2316e-08
genome	2350	1	81195210	1.2316e-08
genome	2427	1	81195210	1.2316e-08
genome	2436	1	81195210	1.2316e-08
genome	2495	3	81195210	3.6948e-08
genome	2499	1	81195210	1.2316e-08
genome	2501	1	81195210	1.2316e-08
genome	2622	2	81195210	2.4632e-08
genome	2623	2	81195210	2.4632e-08
genome	2628	1	81195210	1.2316e-08
genome	2659	1	81195210	1.2316e-08
genome	2737	1	81195210	1.2316e-08
genome	2790	1	81195210	1.2316e-08
genome	2823	1	81195210	1.2316e-08
genome	2825	1	81195210	1.2316e-08
genome	2826	2	81195210	2.4632e-08
genome	2877	1	81195210	1.2316e-08
genome	2878	2	81195210	2.4632e-08
genome	2880	1	81195210	1.2316e-08
genome	3036	1	81195210	1.2316e-08
genome	3068	1	81195210	1.2316e-08
genome	3081	1	81195210	1.2316e-08
genome	3119	2	81195210	2.4632e-08
genome	3120	3	81195210	3.6948e-08
genome	3123	1	81195210	1.2316e-08
genome	3124	1	81195210	1.2316e-08
genome	3125	1	81195210	1.2316e-08
genome	3126	4	81195210	4.9264e-08
genome	3127	5	81195210	6.158e-08
genome	3144	1	81195210	1.2316e-08
genome	3220	1	81195210	1.2316e-08
genome	3461	1	81195210	1.2316e-08
genome	3611	1	81195210	1.2316e-08
genome	3771	1	81195210	1.2316e-08
genome	3907	1	81195210	1.2316e-08
genome	4052	1	81195210	1.2316e-08
genome	4367	1	81195210	1.2316e-08
genome	4388	1	81195210	1.2316e-08
genome	4403	1	81195210	1.2316e-08
genome	4513	1	81195210	1.2316e-08
genome	4554	1	81195210	1.2316e-08
genome	4617	1	81195210	1.2316e-08
genome	4625	1	81195210	1.2316e-08
genome	4694	1	81195210	1.2316e-08
genome	4757	1	81195210	1.2316e-08
genome	4762	1	81195210	1.2316e-08
genome	4960	1	81195210	1.2316e-08
genome	5101	1	81195210	1.2316e-08
genome	5207	1	81195210	1.2316e-08
genome	5209	1	81195210	1.2316e-08
genome	5299	2	81195210	2.4632e-08
genome	5336	1	81195210	1.2316e-08
genome	5368	1	81195210	1.2316e-08
genome	5384	1	81195210	1.2316e-08
genome	5560	2	81195210	2.4632e-08
genome	5590	1	81195210	1.2316e-08
genome	5608	1	81195210	1.2316e-08
genome	5776	1	81195210	1.2316e-08
genome	5778	10	81195210	1.2316e-07
genome	5856	1	81195210	1.2316e-08
genome	6227	1	81195210	1.2316e-08
genome	6440	1	81195210	1.2316e-08
genome	6503	1	81195210	1.2316e-08
genome	6665	1	81195210	1.2316e-08
genome	6762	1	81195210	1.2316e-08
genome	6937	1	81195210	1.2316e-08
genome	7070	1	81195210	1.2316e-08
genome	7187	1	81195210	1.2316e-08
genome	7427	1	81195210	1.2316e-08
genome	7659	1	81195210	1.2316e-08
genome	7719	1	81195210	1.2316e-08
genome	8199	1	81195210	1.2316e-08
genome	8403	1	81195210	1.2316e-08
genome	8887	1	81195210	1.2316e-08
genome	8946	1	81195210	1.2316e-08
genome	9187	1	81195210	1.2316e-08
genome	9421	1	81195210	1.2316e-08
genome	9548	1	81195210	1.2316e-08
genome	9675	1	81195210	1.2316e-08
genome	9849	1	81195210	1.2316e-08
genome	9937	1	81195210	1.2316e-08
genome	10090	1	81195210	1.2316e-08
genome	10161	1	81195210	1.2316e-08
genome	10384	1	81195210	1.2316e-08
genome	10753	1	81195210	1.2316e-08
genome	10998	1	81195210	1.2316e-08
genome	11237	1	81195210	1.2316e-08
genome	11278	1	81195210	1.2316e-08
genome	11909	1	81195210	1.2316e-08
genome	12051	1	81195210	1.2316e-08
genome	12184	1	81195210	1.2316e-08
genome	12210	1	81195210	1.2316e-08
genome	12514	1	81195210	1.2316e-08
genome	12642	1	81195210	1.2316e-08
genome	12973	1	81195210	1.2316e-08
genome	13369	1	81195210	1.2316e-08
genome	14230	1	81195210	1.2316e-08
genome	14755	1	81195210	1.2316e-08
genome	14794	1	81195210	1.2316e-08
genome	15157	1	81195210	1.2316e-08
genome	15839	1	81195210	1.2316e-08
genome	15885	1	81195210	1.2316e-08
genome	16420	1	81195210	1.2316e-08
genome	16614	1	81195210	1.2316e-08
genome	16620	1	81195210	1.2316e-08
genome	16621	2	81195210	2.4632e-08
