chr1	0	217200071	249250621	0.871412
chr1	1	32050550	249250621	0.128588
chr10	0	118310513	135534747	0.872916
chr10	1	17224234	135534747	0.127084
chr11	0	115821704	135006516	0.857897
chr11	1	19184812	135006516	0.142103
chr12	0	117215788	133851895	0.875713
chr12	1	16636107	133851895	0.124287
chr13	0	105598509	115169878	0.916893
chr13	1	9571369	115169878	0.0831065
chr14	0	97389761	107349540	0.907221
chr14	1	9959779	107349540	0.092779
chr15	0	92405149	102531392	0.901238
chr15	1	10126243	102531392	0.0987624
chr16	0	80262063	90354753	0.888299
chr16	1	10092690	90354753	0.111701
chr17	0	68143820	81195210	0.839259
chr17	1	13051390	81195210	0.160741
chr18	0	69021681	78077248	0.884018
chr18	1	9055567	78077248	0.115982
chr19	0	50547904	59128983	0.854875
chr19	1	8581079	59128983	0.145125
chr2	0	212964207	243199373	0.875677
chr2	1	30235166	243199373	0.124323
chr20	0	52941380	63025520	0.839999
chr20	1	10084140	63025520	0.160001
chr21	0	43806972	48129895	0.910182
chr21	1	4322923	48129895	0.0898178
chr22	0	45053623	51304566	0.87816
chr22	1	6250943	51304566	0.12184
chr3	0	173460646	198022430	0.875965
chr3	1	24561784	198022430	0.124035
chr4	0	167706849	191154276	0.877338
chr4	1	23447427	191154276	0.122662
chr5	0	159134824	180915260	0.87961
chr5	1	21780436	180915260	0.12039
chr6	0	149498629	171115067	0.873673
chr6	1	21616438	171115067	0.126327
chr7	0	138558393	159138663	0.870677
chr7	1	20580270	159138663	0.129323
chr8	0	129251079	146364022	0.88308
chr8	1	17112943	146364022	0.11692
chr9	0	124970731	141213431	0.884978
chr9	1	16242700	141213431	0.115022
chrX	0	148870492	155270560	0.958781
chrX	1	6400068	155270560	0.0412188
genome	0	2737524925	3095693983	0.884301
genome	1	358169058	3095693983	0.115699
