chr1	0	213040486	249250621	0.854724
chr1	1	36210135	249250621	0.145276
chr10	0	113589697	135534747	0.838085
chr10	1	21945050	135534747	0.161915
chr11	0	113930207	135006516	0.843887
chr11	1	21076309	135006516	0.156113
chr12	0	113526520	133851895	0.84815
chr12	1	20325375	133851895	0.15185
chr13	0	103201315	115169878	0.896079
chr13	1	11968563	115169878	0.103921
chr14	0	93691833	107349540	0.872774
chr14	1	13657707	107349540	0.127227
chr15	0	90048241	102531392	0.87825
chr15	1	12483151	102531392	0.12175
chr16	0	77266413	90354753	0.855145
chr16	1	13088340	90354753	0.144855
chr17	0	67282898	81195210	0.828656
chr17	1	13912312	81195210	0.171344
chr18	0	67255852	78077248	0.861401
chr18	1	10821396	78077248	0.138599
chr19	0	50044986	59128983	0.84637
chr19	1	9083997	59128983	0.15363
chr2	0	210544229	243199373	0.865727
chr2	1	32655144	243199373	0.134273
chr20	0	49288627	63025520	0.782042
chr20	1	13736893	63025520	0.217958
chr21	0	42562440	48129895	0.884324
chr21	1	5567455	48129895	0.115676
chr22	0	44810347	51304566	0.873418
chr22	1	6494219	51304566	0.126582
chr3	0	172209739	198022430	0.869648
chr3	1	25812691	198022430	0.130352
chr4	0	168769039	191154276	0.882894
chr4	1	22385237	191154276	0.117106
chr5	0	157085367	180915260	0.868281
chr5	1	23829893	180915260	0.131719
chr6	0	148281610	171115067	0.866561
chr6	1	22833457	171115067	0.133439
chr7	0	138061480	159138663	0.867555
chr7	1	21077183	159138663	0.132445
chr8	0	124802223	146364022	0.852684
chr8	1	21561799	146364022	0.147316
chr9	0	124927437	141213431	0.884671
chr9	1	16285994	141213431	0.115329
chrX	0	125426836	155270560	0.807795
chrX	1	29843724	155270560	0.192205
genome	0	2669037959	3095693983	0.862178
genome	1	426656024	3095693983	0.137822
