chr1	0	211682515	249250621	0.849276
chr1	1	37568106	249250621	0.150724
chr10	0	113812519	135534747	0.839729
chr10	1	21722228	135534747	0.160271
chr11	0	114275306	135006516	0.846443
chr11	1	20731210	135006516	0.153557
chr12	0	116351803	133851895	0.869258
chr12	1	17500092	133851895	0.130742
chr13	0	106268689	115169878	0.922713
chr13	1	8901189	115169878	0.0772875
chr14	0	95600444	107349540	0.890553
chr14	1	11749096	107349540	0.109447
chr15	0	88902089	102531392	0.867072
chr15	1	13629303	102531392	0.132928
chr16	0	74015462	90354753	0.819165
chr16	1	16339291	90354753	0.180835
chr17	0	63460597	81195210	0.781581
chr17	1	17734613	81195210	0.218419
chr18	0	69124361	78077248	0.885333
chr18	1	8952887	78077248	0.114667
chr19	0	46764103	59128983	0.790883
chr19	1	12364880	59128983	0.209117
chr2	0	212917065	243199373	0.875484
chr2	1	30282308	243199373	0.124516
chr20	0	48431951	63025520	0.76845
chr20	1	14593569	63025520	0.23155
chr21	0	43522496	48129895	0.904272
chr21	1	4607399	48129895	0.0957284
chr22	0	41539866	51304566	0.809672
chr22	1	9764700	51304566	0.190328
chr3	0	177570009	198022430	0.896717
chr3	1	20452421	198022430	0.103283
chr4	0	178111648	191154276	0.931769
chr4	1	13042628	191154276	0.0682309
chr5	0	161061620	180915260	0.89026
chr5	1	19853640	180915260	0.10974
chr6	0	152153680	171115067	0.889189
chr6	1	18961387	171115067	0.110811
chr7	0	140084566	159138663	0.880267
chr7	1	19054097	159138663	0.119733
chr8	0	128859970	146364022	0.880407
chr8	1	17504052	146364022	0.119593
chr9	0	125999622	141213431	0.892264
chr9	1	15213809	141213431	0.107736
chrX	0	139223214	155270560	0.896649
chrX	1	16047346	155270560	0.103351
genome	0	2709123732	3095693983	0.875126
genome	1	386570251	3095693983	0.124874
