chr1	0	239868626	249250621	0.962359
chr1	1	9381995	249250621	0.0376408
chr10	0	129270899	135534747	0.953784
chr10	1	6263848	135534747	0.0462158
chr11	0	129859225	135006516	0.961874
chr11	1	5147291	135006516	0.0381262
chr12	0	128172063	133851895	0.957566
chr12	1	5679832	133851895	0.0424337
chr13	0	111105149	115169878	0.964707
chr13	1	4064729	115169878	0.0352933
chr14	0	103694607	107349540	0.965953
chr14	1	3654933	107349540	0.034047
chr15	0	98884714	102531392	0.964434
chr15	1	3646678	102531392	0.0355665
chr16	0	86890185	90354753	0.961656
chr16	1	3464568	90354753	0.0383441
chr17	0	78059855	81195210	0.961385
chr17	1	3135355	81195210	0.038615
chr18	0	74395030	78077248	0.952839
chr18	1	3682218	78077248	0.0471612
chr19	0	55985402	59128983	0.946835
chr19	1	3143581	59128983	0.0531648
chr2	0	232516278	243199373	0.956073
chr2	1	10683095	243199373	0.0439273
chr20	0	60258492	63025520	0.956097
chr20	1	2767028	63025520	0.0439033
chr21	0	46381288	48129895	0.963669
chr21	1	1748607	48129895	0.036331
chr22	0	49718189	51304566	0.969079
chr22	1	1586377	51304566	0.0309208
chr3	0	189823970	198022430	0.958598
chr3	1	8198460	198022430	0.0414017
chr4	0	183514909	191154276	0.960036
chr4	1	7639367	191154276	0.0399644
chr5	0	173456400	180915260	0.958772
chr5	1	7458860	180915260	0.0412285
chr6	0	163601852	171115067	0.956093
chr6	1	7513215	171115067	0.0439074
chr7	0	151823237	159138663	0.954031
chr7	1	7315426	159138663	0.0459689
chr8	0	140083940	146364022	0.957093
chr8	1	6280082	146364022	0.0429073
chr9	0	136623282	141213431	0.967495
chr9	1	4590149	141213431	0.032505
chrX	0	153466392	155270560	0.988381
chrX	1	1804168	155270560	0.0116195
genome	0	2976844121	3095693983	0.961608
genome	1	118849862	3095693983	0.038392
