chr1	0	237487396	249250621	0.952806
chr1	1	11763225	249250621	0.0471944
chr10	0	128020826	135534747	0.944561
chr10	1	7513921	135534747	0.0554391
chr11	0	127646238	135006516	0.945482
chr11	1	7360278	135006516	0.0545179
chr12	0	126081394	133851895	0.941947
chr12	1	7770501	133851895	0.058053
chr13	0	108366960	115169878	0.940931
chr13	1	6802918	115169878	0.0590686
chr14	0	102175781	107349540	0.951805
chr14	1	5173759	107349540	0.0481954
chr15	0	98240197	102531392	0.958148
chr15	1	4291195	102531392	0.0418525
chr16	0	86415180	90354753	0.956399
chr16	1	3939573	90354753	0.0436012
chr17	0	78253179	81195210	0.963766
chr17	1	2942031	81195210	0.036234
chr18	0	73087847	78077248	0.936097
chr18	1	4989401	78077248	0.0639034
chr19	0	57515955	59128983	0.97272
chr19	1	1613028	59128983	0.0272798
chr2	0	227999352	243199373	0.9375
chr2	1	15200021	243199373	0.0625002
chr20	0	59611115	63025520	0.945825
chr20	1	3414405	63025520	0.054175
chr21	0	46035391	48129895	0.956482
chr21	1	2094504	48129895	0.0435177
chr22	0	50182319	51304566	0.978126
chr22	1	1122247	51304566	0.0218742
chr3	0	185725493	198022430	0.937901
chr3	1	12296937	198022430	0.0620987
chr4	0	178463305	191154276	0.933609
chr4	1	12690971	191154276	0.0663913
chr5	0	169675860	180915260	0.937875
chr5	1	11239400	180915260	0.0621252
chr6	0	160817350	171115067	0.93982
chr6	1	10297717	171115067	0.0601801
chr7	0	150308274	159138663	0.944511
chr7	1	8830389	159138663	0.0554886
chr8	0	137054185	146364022	0.936393
chr8	1	9309837	146364022	0.0636074
chr9	0	134686963	141213431	0.953783
chr9	1	6526468	141213431	0.0462171
chrX	0	152535976	155270560	0.982388
chrX	1	2734584	155270560	0.0176117
genome	0	2935776673	3095693983	0.948342
genome	1	159917310	3095693983	0.051658
