chr1	0	227983514	249250621	0.914676
chr1	1	21267107	249250621	0.0853242
chr10	0	122524761	135534747	0.90401
chr10	1	13009986	135534747	0.09599
chr11	0	122158921	135006516	0.904837
chr11	1	12847595	135006516	0.0951628
chr12	0	121083957	133851895	0.904611
chr12	1	12767938	133851895	0.0953885
chr13	0	107195458	115169878	0.930759
chr13	1	7974420	115169878	0.0692405
chr14	0	98959620	107349540	0.921845
chr14	1	8389920	107349540	0.0781552
chr15	0	94697537	102531392	0.923596
chr15	1	7833855	102531392	0.0764045
chr16	0	81824265	90354753	0.905589
chr16	1	8530488	90354753	0.0944111
chr17	0	74182281	81195210	0.913629
chr17	1	7012929	81195210	0.0863712
chr18	0	70632011	78077248	0.904643
chr18	1	7445237	78077248	0.0953573
chr19	0	51931287	59128983	0.878271
chr19	1	7197696	59128983	0.121729
chr2	0	221584279	243199373	0.911122
chr2	1	21615094	243199373	0.0888781
chr20	0	55944632	63025520	0.88765
chr20	1	7080888	63025520	0.11235
chr21	0	44994887	48129895	0.934864
chr21	1	3135008	48129895	0.0651364
chr22	0	47834039	51304566	0.932354
chr22	1	3470527	51304566	0.0676456
chr3	0	180330912	198022430	0.910659
chr3	1	17691518	198022430	0.089341
chr4	0	176022195	191154276	0.920838
chr4	1	15132081	191154276	0.0791616
chr5	0	164234142	180915260	0.907796
chr5	1	16681118	180915260	0.092204
chr6	0	156443969	171115067	0.914262
chr6	1	14671098	171115067	0.0857382
chr7	0	144789977	159138663	0.909835
chr7	1	14348686	159138663	0.0901647
chr8	0	132539764	146364022	0.905549
chr8	1	13824258	146364022	0.0944512
chr9	0	131054789	141213431	0.928062
chr9	1	10158642	141213431	0.0719382
chrX	0	152298751	155270560	0.98086
chrX	1	2971809	155270560	0.0191396
genome	0	2840636085	3095693983	0.917609
genome	1	255057898	3095693983	0.0823912
