CNhs12331	ENCODE	ENCFF001UVC.bed.gz	CNhs12331	GM12878	10821-111C2	B lymphoblastoid cell line: GM12878 ENCODE, biol_rep1	b cell	counts.B%20lymphoblastoid%20cell%20line%3a%20GM12878%20ENCODE%2c%20biol_rep1.CNhs12331.10821-111C2
CNhs12332	ENCODE	ENCFF001UVC.bed.gz	CNhs12332	GM12878	10822-111C3	B lymphoblastoid cell line: GM12878 ENCODE, biol_rep2	b cell	counts.B%20lymphoblastoid%20cell%20line%3a%20GM12878%20ENCODE%2c%20biol_rep2.CNhs12332.10822-111C3
CNhs12333	ENCODE	ENCFF001UVC.bed.gz	CNhs12333	GM12878	10823-111C4	B lymphoblastoid cell line: GM12878 ENCODE, biol_rep3	b cell	counts.B%20lymphoblastoid%20cell%20line%3a%20GM12878%20ENCODE%2c%20biol_rep3.CNhs12333.10823-111C4
CNhs12340	ENCODE	ENCFF001SOV.bed.gz	CNhs12340	HEPATOCYTE	11523-119I2	Hepatocyte, donor1	hepatocyte	counts.Hepatocyte%2c%20donor1.CNhs12340.11523-119I2
CNhs12349	ENCODE	ENCFF001SOV.bed.gz	CNhs12349	HEPATOCYTE	11603-120I1	Hepatocyte, donor2	hepatocyte	counts.Hepatocyte%2c%20donor2.CNhs12349.11603-120I1
CNhs12626	ENCODE	ENCFF001SOV.bed.gz	CNhs12626	HEPATOCYTE	11684-122I1	Hepatocyte, donor3	hepatocyte	counts.Hepatocyte%2c%20donor3.CNhs12626.11684-122I1
CNhs12816	ROADMAP	UW.Penis_Foreskin_Melanocyte_Primary_Cells.ChromatinAccessibility.skin01.DS18590.narrowPeak.bed.gz	CNhs12816	MELANOCYTE	12641-134G4	Melanocyte, donor1 (MC+1)	melanocyte	counts.Melanocyte%2c%20donor1%20%28MC%2b1%29.CNhs12816.12641-134G4
CNhs13156	ROADMAP	UW.Penis_Foreskin_Melanocyte_Primary_Cells.ChromatinAccessibility.skin01.DS18590.narrowPeak.bed.gz	CNhs13156	MELANOCYTE	12739-135I3	Melanocyte, donor2 (MC+2)	melanocyte	counts.Melanocyte%2c%20donor2%20%28MC%2b2%29.CNhs13156.12739-135I3
CNhs13406	ROADMAP	UW.Penis_Foreskin_Melanocyte_Primary_Cells.ChromatinAccessibility.skin01.DS18590.narrowPeak.bed.gz	CNhs13406	MELANOCYTE	12837-137B2	Melanocyte, donor3 (MC+3)	melanocyte	counts.Melanocyte%2c%20donor3%20%28MC%2b3%29.CNhs13406.12837-137B2
CNhs10870	ENCODE	ENCFF001SOX.bed.gz	CNhs10870	MYOBLAST	11241-116D8	Myoblast, donor1	skeletal muscle myoblast	counts.Myoblast%2c%20donor1.CNhs10870.11241-116D8
CNhs11965	ENCODE	ENCFF001SOX.bed.gz	CNhs11965	MYOBLAST	11322-117D8	Myoblast, donor2	skeletal muscle myoblast	counts.Myoblast%2c%20donor2.CNhs11965.11322-117D8
CNhs11908	ENCODE	ENCFF001SOX.bed.gz	CNhs11908	MYOBLAST	11398-118D3	Myoblast, donor3	skeletal muscle myoblast	counts.Myoblast%2c%20donor3.CNhs11908.11398-118D3
CNhs11385	ENCODE	ENCFF001SPJ.bed.gz	CNhs11385	OSTEOBLAST	11354-117H4	Osteoblast, donor2	osteoblast	counts.Osteoblast%2c%20donor2.CNhs11385.11354-117H4
CNhs12036	ENCODE	ENCFF001SPJ.bed.gz	CNhs12036	OSTEOBLAST	11426-118G4	Osteoblast, donor3	osteoblast	counts.Osteoblast%2c%20donor3.CNhs12036.11426-118G4
CNhs11253	ENCODE	ENCFF001SRU.bed.gz	CNhs11253	JURKAT	10464-106H5	acute lymphoblastic leukemia (T-ALL) cell line:Jurkat	t cell	counts.acute%20lymphoblastic%20leukemia%20%28T-ALL%29%20cell%20line%3aJurkat.CNhs11253.10464-106H5
CNhs13055	ENCODE	ENCFF001SRA.bed.gz	CNhs13055	HL60	10829-111D1	acute myeloid leukemia (FAB M3) cell line:HL60	myeloid progenitor cell	counts.acute%20myeloid%20leukemia%20%28FAB%20M3%29%20cell%20line%3aHL60.CNhs13055.10829-111D1
CNhs13972	ENCODE	ENCFF811MJU.bed.gz	CNhs13972	ADIPOSE	10184-103D4	adipose, donor1	adipose tissue	counts.adipose%2c%20donor1.CNhs13972.10184-103D4
CNhs13973	ENCODE	ENCFF811MJU.bed.gz	CNhs13973	ADIPOSE	10185-103D5	adipose, donor2	adipose tissue	counts.adipose%2c%20donor2.CNhs13973.10185-103D5
CNhs13974	ENCODE	ENCFF811MJU.bed.gz	CNhs13974	ADIPOSE	10186-103D6	adipose, donor3	adipose tissue	counts.adipose%2c%20donor3.CNhs13974.10186-103D6
CNhs13975	ENCODE	ENCFF811MJU.bed.gz	CNhs13975	ADIPOSE	10187-103D7	adipose, donor4	adipose tissue	counts.adipose%2c%20donor4.CNhs13975.10187-103D7
CNhs11797	ROADMAP	UW.Fetal_Brain.ChromatinAccessibility.H-23399.DS15453.narrowPeak.bed.gz	CNhs11797	FETAL_BRAIN	10085-102B4	brain, fetal, pool1	brain	counts.brain%2c%20fetal%2c%20pool1.CNhs11797.10085-102B4
CNhs14075	ENCODE	ENCFF001UUI.bed.gz	CNhs14075	CEREBELLUM	10357-105E6	cerebellum, newborn, donor10223	cerebellum	counts.cerebellum%2c%20newborn%2c%20donor10223.CNhs14075.10357-105E6
CNhs12334	ENCODE	ENCFF001UWR.bed.gz	CNhs12334	K562	10824-111C5	chronic myelogenous leukemia cell line:K562 ENCODE, biol_rep1	granulocyte	counts.chronic%20myelogenous%20leukemia%20cell%20line%3aK562%20ENCODE%2c%20biol_rep1.CNhs12334.10824-111C5
CNhs12335	ENCODE	ENCFF001UWR.bed.gz	CNhs12335	K562	10825-111C6	chronic myelogenous leukemia cell line:K562 ENCODE, biol_rep2	granulocyte	counts.chronic%20myelogenous%20leukemia%20cell%20line%3aK562%20ENCODE%2c%20biol_rep2.CNhs12335.10825-111C6
CNhs12336	ENCODE	ENCFF001UWR.bed.gz	CNhs12336	K562	10826-111C7	chronic myelogenous leukemia cell line:K562 ENCODE, biol_rep3	granulocyte	counts.chronic%20myelogenous%20leukemia%20cell%20line%3aK562%20ENCODE%2c%20biol_rep3.CNhs12336.10826-111C7
CNhs11250	ENCODE	ENCFF001UWR.bed.gz	CNhs11250	K562	10454-106G4	chronic myelogenous leukemia cell line:K562	granulocyte	counts.chronic%20myelogenous%20leukemia%20cell%20line%3aK562.CNhs11250.10454-106G4
CNhs11248	ENCODE	ENCFF476FLD.bed.gz	CNhs11248	A172	10444-106F3	glioblastoma cell line:A172, tech_rep2	glioblast	counts.glioblastoma%20cell%20line%3aA172%2c%20tech_rep2.CNhs11248.10444-106F3
CNhs11185	ENCODE	ENCFF476FLD.bed.gz	CNhs11185	A172	10444-106F3	glioblastoma cell line:A172	glioblast	counts.glioblastoma%20cell%20line%3aA172.CNhs11185.10444-106F3
CNhs11843	ROADMAP	UW.Mobilized_CD3_Primary_Cells.ChromatinAccessibility.RO_01679.DS16834.narrowPeak.bed.gz	CNhs11843	MO	10712-109I1	hairy cell leukemia cell line:Mo	t cell	counts.hairy%20cell%20leukemia%20cell%20line%3aMo.CNhs11843.10712-109I1
CNhs10653	ROADMAP	UW.Fetal_Heart.ChromatinAccessibility.H-23744.DS19431.narrowPeak.bed.gz	CNhs10653	FETAL_HEART	10046-101G1	heart, fetal, pool1	heart	counts.heart%2c%20fetal%2c%20pool1.CNhs10653.10046-101G1
CNhs12328	ENCODE	ENCFF001UVU.bed.gz	CNhs12328	HEPG2	10818-111B8	hepatocellular carcinoma cell line: HepG2 ENCODE, biol_rep1	hepatocyte	counts.hepatocellular%20carcinoma%20cell%20line%3a%20HepG2%20ENCODE%2c%20biol_rep1.CNhs12328.10818-111B8
CNhs12329	ENCODE	ENCFF001UVU.bed.gz	CNhs12329	HEPG2	10819-111B9	hepatocellular carcinoma cell line: HepG2 ENCODE, biol_rep2	hepatocyte	counts.hepatocellular%20carcinoma%20cell%20line%3a%20HepG2%20ENCODE%2c%20biol_rep2.CNhs12329.10819-111B9
CNhs12330	ENCODE	ENCFF001UVU.bed.gz	CNhs12330	HEPG2	10820-111C1	hepatocellular carcinoma cell line: HepG2 ENCODE, biol_rep3	hepatocyte	counts.hepatocellular%20carcinoma%20cell%20line%3a%20HepG2%20ENCODE%2c%20biol_rep3.CNhs12330.10820-111C1
CNhs14081	ENCODE	ENCFF622UTM.bed.gz	CNhs14081	HIPPOCAMPUS	10363-105F3	hippocampus, newborn, donor10223	hippocampus	counts.hippocampus%2c%20newborn%2c%20donor10223.CNhs14081.10363-105F3
CNhs10652	ROADMAP	UW.Fetal_Kidney_Left.ChromatinAccessibility.H-24089.DS18466.narrowPeak.bed.gz	CNhs10652	FETAL_KIDNEY	10045-101F9	kidney, fetal, pool1	kidney	counts.kidney%2c%20fetal%2c%20pool1.CNhs10652.10045-101F9
CNhs11275	ENCODE	ENCFF001UUD.bed.gz	CNhs11275	A549	10499-107C4	lung adenocarcinoma cell line:A549	pneumocyte, type ii, great alveolar cell (septal cell)	counts.lung%20adenocarcinoma%20cell%20line%3aA549.CNhs11275.10499-107C4
CNhs11680	ROADMAP	UW.Fetal_Lung_Left.ChromatinAccessibility.H-24626.DNase.DS21334.narrowPeak.bed.gz	CNhs11680	FETAL_LUNG	10068-101I5	lung, fetal, donor1	lung	counts.lung%2c%20fetal%2c%20donor1.CNhs11680.10068-101I5
CNhs13062	ENCODE	ENCFF307ZDW.bed.gz	CNhs13062	NCI-H226	10846-111E9	mesothelioma cell line:NCI-H226	mesothelial cell	counts.mesothelioma%20cell%20line%3aNCI-H226.CNhs13062.10846-111E9
CNhs14083	ENCODE	ENCFF950EWN.bed.gz	CNhs14083	PUTAMEN	10365-105F5	putamen, newborn, donor10223	putamen	counts.putamen%2c%20newborn%2c%20donor10223.CNhs14083.10365-105F5
CNhs11774	ROADMAP	UW.Fibroblasts_Fetal_Skin_Biceps_Right.ChromatinAccessibility.H-24259.DS19761.narrowPeak.bed.gz	CNhs11774	FETAL_SKIN	10065-101I2	skin, fetal, donor1	skin	counts.skin%2c%20fetal%2c%20donor1.CNhs11774.10065-101I2
CNhs11764	ROADMAP	UW.Fetal_Spinal_Cord.ChromatinAccessibility.H-24493.DS20530.narrowPeak.bed.gz	CNhs11764	FETAL_SPINAL_CORD	10056-101H2	spinal cord, fetal, donor1	spinal cord	counts.spinal%20cord%2c%20fetal%2c%20donor1.CNhs11764.10056-101H2
CNhs14077	ROADMAP	UW.Fetal_Spinal_Cord.ChromatinAccessibility.H-24493.DS20530.narrowPeak.bed.gz	CNhs14077	SPINAL_CORD	10359-105E8	spinal cord, newborn, donor10223	spinal cord	counts.spinal%20cord%2c%20newborn%2c%20donor10223.CNhs14077.10359-105E8
CNhs10651	ROADMAP	UW.Fetal_Spleen.ChromatinAccessibility.H-23399.DS17448.narrowPeak.bed.gz	CNhs10651	FETAL_SPLEEN	10044-101F8	spleen, fetal, pool1	spleen	counts.spleen%2c%20fetal%2c%20pool1.CNhs10651.10044-101F8
CNhs11771	ROADMAP	UW.Fetal_Stomach.ChromatinAccessibility.H-23758.DS17172.narrowPeak.bed.gz	CNhs11771	FETAL_STOMACH	10062-101H8	stomach, fetal, donor1	stomach	counts.stomach%2c%20fetal%2c%20donor1.CNhs11771.10062-101H8
CNhs10650	ROADMAP	UW.Fetal_Thymus.ChromatinAccessibility.H-23964.DS17876.narrowPeak.bed.gz	CNhs10650	FETAL_THYMUS	10043-101F7	thymus, fetal, pool1	thymus	counts.thymus%2c%20fetal%2c%20pool1.CNhs10650.10043-101F7
