22638
81284
36639
210833
60980
14765
56229
67390
55548
55793
27373
9889
159248
12557
107932
47661
55725
101346
45509
70847
102429
160459
235326
94384
132242
227790
9257
39049
223368
109299
124053
20576
54249
101977
51615
14005
123286
212366
70734
40056
49099
37139
9442
69256
