chr1	0	212306983	249250621	0.851781
chr1	1	36943638	249250621	0.148219
chr10	0	117457856	135534747	0.866625
chr10	1	18076891	135534747	0.133375
chr11	0	117095459	135006516	0.867332
chr11	1	17911057	135006516	0.132668
chr12	0	113515520	133851895	0.848068
chr12	1	20336375	133851895	0.151932
chr13	0	105582957	115169878	0.916758
chr13	1	9586921	115169878	0.0832416
chr14	0	94238793	107349540	0.877869
chr14	1	13110747	107349540	0.122131
chr15	0	88706395	102531392	0.865163
chr15	1	13824997	102531392	0.134837
chr16	0	75890324	90354753	0.839915
chr16	1	14464429	90354753	0.160085
chr17	0	62825066	81195210	0.773753
chr17	1	18370144	81195210	0.226247
chr18	0	70354496	78077248	0.901088
chr18	1	7722752	78077248	0.0989117
chr19	0	47292729	59128983	0.799823
chr19	1	11836254	59128983	0.200177
chr2	0	211079033	243199373	0.867926
chr2	1	32120340	243199373	0.132074
chr20	0	53216807	63025520	0.844369
chr20	1	9808713	63025520	0.155631
chr21	0	43903674	48129895	0.912191
chr21	1	4226221	48129895	0.0878086
chr22	0	43826393	51304566	0.85424
chr22	1	7478173	51304566	0.14576
chr3	0	172167550	198022430	0.869435
chr3	1	25854880	198022430	0.130565
chr4	0	172810246	191154276	0.904035
chr4	1	18344030	191154276	0.0959645
chr5	0	159265429	180915260	0.880332
chr5	1	21649831	180915260	0.119668
chr6	0	150268682	171115067	0.878173
chr6	1	20846385	171115067	0.121827
chr7	0	138081120	159138663	0.867678
chr7	1	21057543	159138663	0.132322
chr8	0	131657687	146364022	0.899522
chr8	1	14706335	146364022	0.100478
chr9	0	124565650	141213431	0.882109
chr9	1	16647781	141213431	0.117891
chrX	0	151274618	155270560	0.974265
chrX	1	3995942	155270560	0.0257353
genome	0	2716773604	3095693983	0.877598
genome	1	378920379	3095693983	0.122402
