chr1	0	228222666	249250621	0.915635
chr1	1	21027955	249250621	0.0843647
chr10	0	125488646	135534747	0.925878
chr10	1	10046101	135534747	0.074122
chr11	0	124271591	135006516	0.920486
chr11	1	10734925	135006516	0.0795141
chr12	0	122606524	133851895	0.915986
chr12	1	11245371	133851895	0.0840135
chr13	0	110315982	115169878	0.957854
chr13	1	4853896	115169878	0.0421455
chr14	0	99659576	107349540	0.928365
chr14	1	7689964	107349540	0.0716348
chr15	0	94233246	102531392	0.919067
chr15	1	8298146	102531392	0.0809327
chr16	0	81042145	90354753	0.896933
chr16	1	9312608	90354753	0.103067
chr17	0	69420035	81195210	0.854977
chr17	1	11775175	81195210	0.145023
chr18	0	73992219	78077248	0.94768
chr18	1	4085029	78077248	0.0523203
chr19	0	49048294	59128983	0.829514
chr19	1	10080689	59128983	0.170486
chr2	0	225581995	243199373	0.92756
chr2	1	17617378	243199373	0.0724401
chr20	0	56873060	63025520	0.902381
chr20	1	6152460	63025520	0.0976186
chr21	0	45709854	48129895	0.949719
chr21	1	2420041	48129895	0.0502815
chr22	0	45712955	51304566	0.891011
chr22	1	5591611	51304566	0.108989
chr3	0	183741270	198022430	0.927881
chr3	1	14281160	198022430	0.0721189
chr4	0	182345077	191154276	0.953916
chr4	1	8809199	191154276	0.0460842
chr5	0	170132535	180915260	0.940399
chr5	1	10782725	180915260	0.059601
chr6	0	160796414	171115067	0.939698
chr6	1	10318653	171115067	0.0603024
chr7	0	148437120	159138663	0.932753
chr7	1	10701543	159138663	0.0672467
chr8	0	138564446	146364022	0.946711
chr8	1	7799576	146364022	0.0532889
chr9	0	131986711	141213431	0.934661
chr9	1	9226720	141213431	0.0653388
chrX	0	153354868	155270560	0.987662
chrX	1	1915692	155270560	0.0123378
genome	0	2880927366	3095693983	0.930624
genome	1	214766617	3095693983	0.0693759
