chr1	0	240340361	249250621	0.964252
chr1	1	8910260	249250621	0.0357482
chr10	0	130874623	135534747	0.965617
chr10	1	4660124	135534747	0.0343832
chr11	0	130005483	135006516	0.962957
chr11	1	5001033	135006516	0.0370429
chr12	0	129084363	133851895	0.964382
chr12	1	4767532	133851895	0.035618
chr13	0	112780143	115169878	0.97925
chr13	1	2389735	115169878	0.0207497
chr14	0	104332938	107349540	0.971899
chr14	1	3016602	107349540	0.0281007
chr15	0	99504796	102531392	0.970481
chr15	1	3026596	102531392	0.0295187
chr16	0	86974128	90354753	0.962585
chr16	1	3380625	90354753	0.037415
chr17	0	77339381	81195210	0.952512
chr17	1	3855829	81195210	0.0474884
chr18	0	75838028	78077248	0.971321
chr18	1	2239220	78077248	0.0286795
chr19	0	56298346	59128983	0.952128
chr19	1	2830637	59128983	0.0478722
chr2	0	235018602	243199373	0.966362
chr2	1	8180771	243199373	0.0336381
chr20	0	60335284	63025520	0.957315
chr20	1	2690236	63025520	0.0426849
chr21	0	47127083	48129895	0.979164
chr21	1	1002812	48129895	0.0208355
chr22	0	49414103	51304566	0.963152
chr22	1	1890463	51304566	0.0368478
chr3	0	191447916	198022430	0.966799
chr3	1	6574514	198022430	0.0332009
chr4	0	186523590	191154276	0.975775
chr4	1	4630686	191154276	0.0242249
chr5	0	175336632	180915260	0.969164
chr5	1	5578628	180915260	0.0308356
chr6	0	165522220	171115067	0.967315
chr6	1	5592847	171115067	0.0326847
chr7	0	154042568	159138663	0.967977
chr7	1	5096095	159138663	0.032023
chr8	0	141880401	146364022	0.969367
chr8	1	4483621	146364022	0.0306334
chr9	0	137235390	141213431	0.97183
chr9	1	3978041	141213431	0.0281704
chrX	0	154754480	155270560	0.996676
chrX	1	516080	155270560	0.00332375
genome	0	3001400996	3095693983	0.969541
genome	1	94292987	3095693983	0.0304594
