chr1	0	245689328	249250621	0.985712
chr1	1	3561293	249250621	0.014288
chr10	0	133722604	135534747	0.98663
chr10	1	1812143	135534747	0.0133703
chr11	0	132969742	135006516	0.984914
chr11	1	2036774	135006516	0.0150865
chr12	0	131844943	133851895	0.985006
chr12	1	2006952	133851895	0.0149938
chr13	0	114200326	115169878	0.991582
chr13	1	969552	115169878	0.00841845
chr14	0	106064130	107349540	0.988026
chr14	1	1285410	107349540	0.0119741
chr15	0	101236071	102531392	0.987367
chr15	1	1295321	102531392	0.0126334
chr16	0	88534472	90354753	0.979854
chr16	1	1820281	90354753	0.0201459
chr17	0	79390554	81195210	0.977774
chr17	1	1804656	81195210	0.0222261
chr18	0	77185066	78077248	0.988573
chr18	1	892182	78077248	0.0114269
chr19	0	56920247	59128983	0.962645
chr19	1	2208736	59128983	0.0373545
chr2	0	240129403	243199373	0.987377
chr2	1	3069970	243199373	0.0126233
chr20	0	61705182	63025520	0.979051
chr20	1	1320338	63025520	0.0209493
chr21	0	47567833	48129895	0.988322
chr21	1	562062	48129895	0.011678
chr22	0	50249085	51304566	0.979427
chr22	1	1055481	51304566	0.0205728
chr3	0	195479781	198022430	0.98716
chr3	1	2542649	198022430	0.0128402
chr4	0	189329506	191154276	0.990454
chr4	1	1824770	191154276	0.00954606
chr5	0	178803090	180915260	0.988325
chr5	1	2112170	180915260	0.0116749
chr6	0	169146550	171115067	0.988496
chr6	1	1968517	171115067	0.0115041
chr7	0	156964378	159138663	0.986337
chr7	1	2174285	159138663	0.0136628
chr8	0	144645994	146364022	0.988262
chr8	1	1718028	146364022	0.011738
chr9	0	139417744	141213431	0.987284
chr9	1	1795687	141213431	0.0127161
chrX	0	155117319	155270560	0.999013
chrX	1	153241	155270560	0.000986929
genome	0	3055703485	3095693983	0.987082
genome	1	39990498	3095693983	0.0129181
